[gd_scene load_steps=36 format=2]

[ext_resource path="res://assets/3d/mesh_materials/car_orange_body.tres" type="Material" id=1]
[ext_resource path="res://assets/3d/mesh_materials/inner_truc.tres" type="Material" id=2]
[ext_resource path="res://assets/3d/mesh_materials/car_blue_body.tres" type="Material" id=3]
[ext_resource path="res://assets/3d/mesh_materials/car_grill.tres" type="Material" id=4]
[ext_resource path="res://assets/sounds/radio/ga_music_radio_demo.ogg" type="AudioStream" id=5]
[ext_resource path="res://assets/sounds/truck/ga_sounds_truck_reverse.wav" type="AudioStream" id=7]
[ext_resource path="res://scenes_and_scripts/player/cab.gd" type="Script" id=8]
[ext_resource path="res://scenes_and_scripts/player/camera.gd" type="Script" id=9]
[ext_resource path="res://scenes_and_scripts/player/truck.gd" type="Script" id=10]
[ext_resource path="res://assets/fonts/lambda/Lambda-Regular.ttf" type="DynamicFontData" id=11]
[ext_resource path="res://assets/sounds/truck/ga_sounds_truck_motor.wav" type="AudioStream" id=12]
[ext_resource path="res://assets/sounds/truck/ga_sounds_truck_throttle.wav" type="AudioStream" id=13]

[sub_resource type="SpatialMaterial" id=11]
roughness = 0.0

[sub_resource type="SpatialMaterial" id=12]
roughness = 0.0

[sub_resource type="ArrayMesh" id=13]
surfaces/0 = {
"aabb": AABB( -0.654197, 0.000773793, -1.24434, 1.30839, 1.06541, 2.67806 ),
"array_data": PoolByteArray( 5, 56, 192, 56, 123, 53, 0, 60, 13, 125, 17, 0, 0, 0, 192, 56, 5, 55, 0, 60, 13, 125, 17, 0, 0, 0, 6, 56, 149, 61, 0, 60, 13, 125, 17, 0, 247, 51, 253, 54, 149, 61, 0, 60, 13, 125, 17, 0, 5, 56, 86, 18, 250, 188, 0, 60, 0, 27, 132, 0, 0, 0, 86, 18, 250, 188, 0, 60, 0, 27, 132, 0, 0, 0, 8, 53, 179, 188, 0, 60, 0, 27, 132, 0, 5, 56, 8, 53, 179, 188, 0, 60, 0, 27, 132, 0, 0, 0, 86, 18, 20, 181, 0, 60, 0, 130, 0, 0, 0, 0, 86, 18, 250, 188, 0, 60, 0, 130, 0, 0, 5, 56, 86, 18, 20, 181, 0, 60, 0, 130, 0, 0, 5, 56, 86, 18, 250, 188, 0, 60, 0, 130, 0, 0, 5, 56, 86, 18, 81, 188, 0, 60, 0, 130, 0, 0, 5, 56, 86, 18, 81, 188, 0, 60, 0, 0, 0, 0, 5, 56, 86, 18, 224, 183, 0, 60, 0, 0, 0, 0, 5, 56, 86, 18, 20, 181, 0, 60, 0, 0, 0, 0, 5, 56, 47, 60, 21, 50, 0, 60, 5, 126, 0, 0, 5, 56, 47, 60, 20, 181, 0, 60, 5, 126, 0, 0, 0, 0, 67, 60, 20, 181, 0, 60, 5, 126, 0, 0, 0, 0, 67, 60, 148, 52, 0, 60, 5, 126, 0, 0, 0, 0, 86, 18, 123, 53, 0, 60, 0, 130, 0, 0, 5, 56, 86, 18, 123, 53, 0, 60, 0, 130, 0, 0, 247, 51, 86, 18, 188, 61, 0, 60, 0, 130, 0, 0, 0, 0, 86, 18, 188, 61, 0, 60, 0, 130, 0, 0, 5, 56, 192, 56, 123, 53, 0, 60, 123, 5, 30, 0, 247, 51, 253, 54, 149, 61, 0, 60, 123, 5, 30, 0, 175, 52, 242, 52, 255, 60, 0, 60, 123, 5, 30, 0, 209, 53, 242, 52, 158, 59, 0, 60, 123, 5, 30, 0, 5, 56, 86, 18, 123, 53, 0, 60, 123, 0, 28, 0, 5, 56, 192, 56, 123, 53, 0, 60, 123, 0, 28, 0, 209, 53, 242, 52, 158, 59, 0, 60, 123, 0, 28, 0, 247, 51, 253, 54, 149, 61, 0, 60, 122, 2, 33, 0, 247, 51, 86, 18, 188, 61, 0, 60, 122, 2, 33, 0, 175, 52, 242, 52, 255, 60, 0, 60, 122, 2, 33, 0, 5, 56, 86, 18, 250, 188, 0, 60, 127, 0, 0, 0, 5, 56, 8, 53, 179, 188, 0, 60, 127, 0, 0, 0, 5, 56, 10, 53, 161, 187, 0, 60, 127, 0, 0, 0, 5, 56, 86, 18, 81, 188, 0, 60, 127, 0, 0, 0, 0, 0, 8, 53, 179, 188, 0, 60, 0, 127, 0, 0, 5, 184, 8, 53, 179, 188, 0, 60, 0, 127, 0, 0, 5, 184, 10, 53, 161, 187, 0, 60, 0, 127, 0, 0, 5, 56, 192, 56, 20, 181, 0, 60, 127, 0, 0, 0, 5, 56, 192, 56, 123, 53, 0, 60, 127, 0, 0, 0, 5, 56, 5, 53, 20, 181, 0, 60, 127, 0, 0, 0, 5, 56, 86, 18, 123, 53, 0, 60, 127, 0, 0, 0, 5, 56, 86, 18, 20, 181, 0, 60, 127, 0, 0, 0, 5, 56, 10, 53, 242, 184, 0, 60, 12, 52, 115, 0, 5, 56, 86, 18, 224, 183, 0, 60, 12, 52, 115, 0, 59, 57, 86, 18, 224, 183, 0, 60, 12, 52, 115, 0, 59, 57, 123, 52, 20, 185, 0, 60, 12, 52, 115, 0, 5, 56, 86, 18, 123, 53, 0, 60, 10, 114, 204, 0, 209, 53, 242, 52, 158, 59, 0, 60, 10, 114, 204, 0, 59, 57, 99, 52, 188, 59, 0, 60, 10, 114, 204, 0, 59, 57, 86, 18, 123, 53, 0, 60, 10, 114, 204, 0, 5, 56, 8, 53, 179, 188, 0, 60, 0, 127, 0, 0, 5, 56, 10, 53, 161, 187, 0, 60, 0, 127, 0, 0, 5, 56, 86, 18, 81, 188, 0, 60, 12, 52, 141, 0, 5, 56, 10, 53, 161, 187, 0, 60, 12, 52, 141, 0, 59, 57, 123, 52, 127, 187, 0, 60, 12, 52, 141, 0, 59, 57, 86, 18, 81, 188, 0, 60, 12, 52, 141, 0, 209, 53, 242, 52, 158, 59, 0, 60, 13, 126, 1, 0, 175, 52, 242, 52, 255, 60, 0, 60, 13, 126, 1, 0, 59, 57, 99, 52, 240, 60, 0, 60, 13, 126, 1, 0, 59, 57, 99, 52, 188, 59, 0, 60, 13, 126, 1, 0, 5, 56, 86, 18, 20, 181, 0, 60, 0, 127, 0, 0, 5, 56, 86, 18, 123, 53, 0, 60, 0, 127, 0, 0, 59, 57, 86, 18, 123, 53, 0, 60, 0, 127, 0, 0, 59, 57, 86, 18, 20, 181, 0, 60, 0, 127, 0, 0, 5, 56, 10, 53, 161, 187, 0, 60, 28, 123, 0, 0, 5, 56, 10, 53, 242, 184, 0, 60, 28, 123, 0, 0, 59, 57, 123, 52, 20, 185, 0, 60, 28, 123, 0, 0, 59, 57, 123, 52, 127, 187, 0, 60, 28, 123, 0, 0, 5, 56, 86, 18, 224, 183, 0, 60, 0, 127, 0, 0, 59, 57, 86, 18, 224, 183, 0, 60, 0, 127, 0, 0, 175, 52, 242, 52, 255, 60, 0, 60, 10, 63, 109, 0, 247, 51, 86, 18, 188, 61, 0, 60, 10, 63, 109, 0, 172, 54, 79, 47, 103, 61, 0, 60, 10, 63, 109, 0, 233, 54, 9, 50, 58, 61, 0, 60, 10, 63, 109, 0, 59, 57, 99, 52, 240, 60, 0, 60, 10, 63, 109, 0, 175, 52, 242, 52, 255, 60, 0, 60, 10, 63, 109, 0, 233, 54, 9, 50, 58, 61, 0, 60, 10, 63, 109, 0, 40, 56, 222, 49, 52, 61, 0, 60, 10, 63, 109, 0, 247, 51, 86, 18, 188, 61, 0, 60, 0, 74, 102, 0, 59, 57, 86, 18, 188, 61, 0, 60, 0, 74, 102, 0, 38, 56, 28, 47, 105, 61, 0, 60, 0, 74, 102, 0, 172, 54, 79, 47, 103, 61, 0, 60, 0, 74, 102, 0, 59, 57, 99, 52, 240, 60, 0, 60, 0, 74, 102, 0, 40, 56, 222, 49, 52, 61, 0, 60, 0, 74, 102, 0, 38, 56, 28, 47, 105, 61, 0, 60, 127, 255, 0, 0, 40, 56, 222, 49, 52, 61, 0, 60, 127, 255, 0, 0, 40, 56, 195, 49, 94, 61, 0, 60, 127, 255, 0, 0, 38, 56, 89, 47, 116, 61, 0, 60, 127, 255, 0, 0, 233, 54, 9, 50, 58, 61, 0, 60, 132, 26, 0, 0, 172, 54, 79, 47, 103, 61, 0, 60, 132, 26, 0, 0, 172, 54, 135, 47, 114, 61, 0, 60, 132, 26, 0, 0, 233, 54, 233, 49, 92, 61, 0, 60, 132, 26, 0, 0, 40, 56, 222, 49, 52, 61, 0, 60, 7, 126, 11, 0, 233, 54, 9, 50, 58, 61, 0, 60, 7, 126, 11, 0, 233, 54, 233, 49, 92, 61, 0, 60, 7, 126, 11, 0, 40, 56, 195, 49, 94, 61, 0, 60, 7, 126, 11, 0, 172, 54, 79, 47, 103, 61, 0, 60, 252, 137, 41, 0, 38, 56, 28, 47, 105, 61, 0, 60, 252, 137, 41, 0, 38, 56, 89, 47, 116, 61, 0, 60, 252, 137, 41, 0, 172, 54, 135, 47, 114, 61, 0, 60, 252, 137, 41, 0, 5, 184, 192, 56, 123, 53, 0, 60, 243, 125, 17, 0, 247, 179, 253, 54, 149, 61, 0, 60, 243, 125, 17, 0, 0, 0, 6, 56, 149, 61, 0, 60, 243, 125, 17, 0, 0, 0, 192, 56, 5, 55, 0, 60, 243, 125, 17, 0, 5, 184, 86, 18, 250, 188, 0, 60, 0, 27, 132, 0, 5, 184, 8, 53, 179, 188, 0, 60, 0, 27, 132, 0, 5, 184, 86, 18, 20, 181, 0, 60, 0, 130, 0, 0, 5, 184, 86, 18, 224, 183, 0, 60, 0, 0, 0, 0, 5, 184, 86, 18, 81, 188, 0, 60, 0, 0, 0, 0, 5, 184, 86, 18, 250, 188, 0, 60, 0, 0, 0, 0, 5, 184, 86, 18, 250, 188, 0, 60, 0, 130, 0, 0, 5, 184, 86, 18, 20, 181, 0, 60, 0, 0, 0, 0, 5, 184, 47, 60, 21, 50, 0, 60, 252, 126, 0, 0, 0, 0, 67, 60, 148, 52, 0, 60, 252, 126, 0, 0, 0, 0, 67, 60, 20, 181, 0, 60, 252, 126, 0, 0, 5, 184, 47, 60, 20, 181, 0, 60, 252, 126, 0, 0, 247, 179, 86, 18, 188, 61, 0, 60, 0, 130, 0, 0, 5, 184, 86, 18, 123, 53, 0, 60, 0, 130, 0, 0, 5, 184, 192, 56, 123, 53, 0, 60, 133, 5, 30, 0, 209, 181, 242, 52, 158, 59, 0, 60, 133, 5, 30, 0, 175, 180, 242, 52, 255, 60, 0, 60, 133, 5, 30, 0, 247, 179, 253, 54, 149, 61, 0, 60, 133, 5, 30, 0, 5, 184, 86, 18, 123, 53, 0, 60, 133, 0, 28, 0, 209, 181, 242, 52, 158, 59, 0, 60, 133, 0, 28, 0, 5, 184, 192, 56, 123, 53, 0, 60, 133, 0, 28, 0, 247, 179, 253, 54, 149, 61, 0, 60, 134, 2, 33, 0, 175, 180, 242, 52, 255, 60, 0, 60, 134, 2, 33, 0, 247, 179, 86, 18, 188, 61, 0, 60, 134, 2, 33, 0, 5, 184, 86, 18, 250, 188, 0, 60, 130, 0, 0, 0, 5, 184, 86, 18, 81, 188, 0, 60, 130, 0, 0, 0, 5, 184, 10, 53, 161, 187, 0, 60, 130, 0, 0, 0, 5, 184, 8, 53, 179, 188, 0, 60, 130, 0, 0, 0, 5, 184, 5, 53, 20, 181, 0, 60, 130, 0, 0, 0, 5, 184, 10, 53, 242, 184, 0, 60, 130, 0, 0, 0, 5, 184, 86, 18, 224, 183, 0, 60, 130, 0, 0, 0, 5, 184, 86, 18, 20, 181, 0, 60, 130, 0, 0, 0, 5, 184, 192, 56, 20, 181, 0, 60, 130, 0, 0, 0, 5, 184, 192, 56, 123, 53, 0, 60, 130, 0, 0, 0, 5, 184, 86, 18, 123, 53, 0, 60, 130, 0, 0, 0, 5, 184, 10, 53, 242, 184, 0, 60, 244, 52, 115, 0, 59, 185, 123, 52, 20, 185, 0, 60, 244, 52, 115, 0, 59, 185, 86, 18, 224, 183, 0, 60, 244, 52, 115, 0, 5, 184, 86, 18, 224, 183, 0, 60, 244, 52, 115, 0, 5, 184, 86, 18, 123, 53, 0, 60, 246, 114, 204, 0, 59, 185, 86, 18, 123, 53, 0, 60, 246, 114, 204, 0, 59, 185, 99, 52, 188, 59, 0, 60, 246, 114, 204, 0, 209, 181, 242, 52, 158, 59, 0, 60, 246, 114, 204, 0, 5, 56, 86, 18, 224, 183, 0, 60, 127, 0, 0, 0, 5, 56, 10, 53, 242, 184, 0, 60, 127, 0, 0, 0, 5, 184, 86, 18, 81, 188, 0, 60, 244, 52, 141, 0, 59, 185, 86, 18, 81, 188, 0, 60, 244, 52, 141, 0, 59, 185, 123, 52, 127, 187, 0, 60, 244, 52, 141, 0, 5, 184, 10, 53, 161, 187, 0, 60, 244, 52, 141, 0, 209, 181, 242, 52, 158, 59, 0, 60, 243, 126, 1, 0, 59, 185, 99, 52, 188, 59, 0, 60, 243, 126, 1, 0, 59, 185, 99, 52, 240, 60, 0, 60, 243, 126, 1, 0, 175, 180, 242, 52, 255, 60, 0, 60, 243, 126, 1, 0, 5, 184, 86, 18, 20, 181, 0, 60, 0, 127, 0, 0, 59, 185, 86, 18, 20, 181, 0, 60, 0, 127, 0, 0, 59, 185, 86, 18, 123, 53, 0, 60, 0, 127, 0, 0, 5, 184, 86, 18, 123, 53, 0, 60, 0, 127, 0, 0, 5, 184, 10, 53, 161, 187, 0, 60, 228, 123, 0, 0, 59, 185, 123, 52, 127, 187, 0, 60, 228, 123, 0, 0, 59, 185, 123, 52, 20, 185, 0, 60, 228, 123, 0, 0, 5, 184, 10, 53, 242, 184, 0, 60, 228, 123, 0, 0, 5, 184, 86, 18, 224, 183, 0, 60, 0, 127, 0, 0, 59, 185, 86, 18, 224, 183, 0, 60, 0, 127, 0, 0, 175, 180, 242, 52, 255, 60, 0, 60, 246, 63, 109, 0, 233, 182, 9, 50, 58, 61, 0, 60, 246, 63, 109, 0, 172, 182, 79, 47, 103, 61, 0, 60, 246, 63, 109, 0, 247, 179, 86, 18, 188, 61, 0, 60, 246, 63, 109, 0, 59, 185, 99, 52, 240, 60, 0, 60, 246, 63, 109, 0, 40, 184, 222, 49, 52, 61, 0, 60, 246, 63, 109, 0, 233, 182, 9, 50, 58, 61, 0, 60, 246, 63, 109, 0, 175, 180, 242, 52, 255, 60, 0, 60, 246, 63, 109, 0, 247, 179, 86, 18, 188, 61, 0, 60, 0, 74, 102, 0, 172, 182, 79, 47, 103, 61, 0, 60, 0, 74, 102, 0, 38, 184, 28, 47, 105, 61, 0, 60, 0, 74, 102, 0, 59, 185, 86, 18, 188, 61, 0, 60, 0, 74, 102, 0, 40, 184, 222, 49, 52, 61, 0, 60, 0, 74, 102, 0, 59, 185, 99, 52, 240, 60, 0, 60, 0, 74, 102, 0, 38, 184, 28, 47, 105, 61, 0, 60, 130, 255, 0, 0, 38, 184, 89, 47, 116, 61, 0, 60, 130, 255, 0, 0, 40, 184, 195, 49, 94, 61, 0, 60, 130, 255, 0, 0, 40, 184, 222, 49, 52, 61, 0, 60, 130, 255, 0, 0, 233, 182, 9, 50, 58, 61, 0, 60, 124, 26, 0, 0, 233, 182, 233, 49, 92, 61, 0, 60, 124, 26, 0, 0, 172, 182, 135, 47, 114, 61, 0, 60, 124, 26, 0, 0, 172, 182, 79, 47, 103, 61, 0, 60, 124, 26, 0, 0, 40, 184, 222, 49, 52, 61, 0, 60, 249, 126, 11, 0, 40, 184, 195, 49, 94, 61, 0, 60, 249, 126, 11, 0, 233, 182, 233, 49, 92, 61, 0, 60, 249, 126, 11, 0, 233, 182, 9, 50, 58, 61, 0, 60, 249, 126, 11, 0, 172, 182, 79, 47, 103, 61, 0, 60, 4, 137, 41, 0, 172, 182, 135, 47, 114, 61, 0, 60, 4, 137, 41, 0, 38, 184, 89, 47, 116, 61, 0, 60, 4, 137, 41, 0, 38, 184, 28, 47, 105, 61, 0, 60, 4, 137, 41, 0, 5, 56, 47, 60, 20, 181, 0, 60, 0, 0, 129, 0, 5, 56, 192, 56, 20, 181, 0, 60, 0, 0, 129, 0, 5, 184, 192, 56, 20, 181, 0, 60, 0, 0, 129, 0, 5, 184, 47, 60, 20, 181, 0, 60, 0, 0, 129, 0, 5, 184, 10, 53, 242, 184, 0, 60, 0, 127, 0, 0, 5, 56, 10, 53, 242, 184, 0, 60, 0, 127, 0, 0, 5, 56, 10, 53, 161, 187, 0, 60, 0, 127, 0, 0, 5, 184, 10, 53, 161, 187, 0, 60, 0, 127, 0, 0, 5, 184, 5, 53, 20, 181, 0, 60, 0, 127, 0, 0, 5, 56, 5, 53, 20, 181, 0, 60, 0, 127, 0, 0, 5, 56, 10, 53, 242, 184, 0, 60, 0, 127, 0, 0, 5, 184, 10, 53, 242, 184, 0, 60, 0, 127, 0, 0, 5, 56, 5, 53, 20, 181, 0, 60, 0, 0, 129, 0, 5, 184, 5, 53, 20, 181, 0, 60, 0, 0, 129, 0 ),
"array_index_data": PoolByteArray( 0, 0, 2, 0, 1, 0, 0, 0, 3, 0, 2, 0, 4, 0, 6, 0, 5, 0, 4, 0, 7, 0, 6, 0, 8, 0, 10, 0, 9, 0, 9, 0, 12, 0, 11, 0, 13, 0, 15, 0, 14, 0, 9, 0, 10, 0, 12, 0, 16, 0, 18, 0, 17, 0, 16, 0, 19, 0, 18, 0, 20, 0, 22, 0, 21, 0, 20, 0, 23, 0, 22, 0, 24, 0, 26, 0, 25, 0, 24, 0, 27, 0, 26, 0, 28, 0, 30, 0, 29, 0, 31, 0, 33, 0, 32, 0, 34, 0, 36, 0, 35, 0, 34, 0, 37, 0, 36, 0, 38, 0, 40, 0, 39, 0, 41, 0, 43, 0, 42, 0, 42, 0, 45, 0, 44, 0, 42, 0, 43, 0, 45, 0, 20, 0, 10, 0, 8, 0, 20, 0, 21, 0, 10, 0, 46, 0, 48, 0, 47, 0, 46, 0, 49, 0, 48, 0, 50, 0, 52, 0, 51, 0, 50, 0, 53, 0, 52, 0, 54, 0, 55, 0, 38, 0, 56, 0, 58, 0, 57, 0, 56, 0, 59, 0, 58, 0, 60, 0, 62, 0, 61, 0, 60, 0, 63, 0, 62, 0, 64, 0, 66, 0, 65, 0, 64, 0, 67, 0, 66, 0, 68, 0, 70, 0, 69, 0, 68, 0, 71, 0, 70, 0, 72, 0, 67, 0, 64, 0, 72, 0, 73, 0, 67, 0, 74, 0, 76, 0, 75, 0, 74, 0, 77, 0, 76, 0, 78, 0, 80, 0, 79, 0, 78, 0, 81, 0, 80, 0, 82, 0, 84, 0, 83, 0, 82, 0, 85, 0, 84, 0, 83, 0, 87, 0, 86, 0, 83, 0, 84, 0, 87, 0, 88, 0, 90, 0, 89, 0, 88, 0, 91, 0, 90, 0, 92, 0, 94, 0, 93, 0, 92, 0, 95, 0, 94, 0, 96, 0, 98, 0, 97, 0, 96, 0, 99, 0, 98, 0, 100, 0, 102, 0, 101, 0, 100, 0, 103, 0, 102, 0, 104, 0, 106, 0, 105, 0, 104, 0, 107, 0, 106, 0, 6, 0, 108, 0, 5, 0, 6, 0, 109, 0, 108, 0, 8, 0, 9, 0, 110, 0, 111, 0, 113, 0, 112, 0, 110, 0, 9, 0, 114, 0, 115, 0, 113, 0, 111, 0, 116, 0, 118, 0, 117, 0, 116, 0, 119, 0, 118, 0, 20, 0, 120, 0, 23, 0, 20, 0, 121, 0, 120, 0, 122, 0, 124, 0, 123, 0, 122, 0, 125, 0, 124, 0, 126, 0, 128, 0, 127, 0, 129, 0, 131, 0, 130, 0, 132, 0, 134, 0, 133, 0, 132, 0, 135, 0, 134, 0, 136, 0, 138, 0, 137, 0, 136, 0, 139, 0, 138, 0, 140, 0, 141, 0, 136, 0, 136, 0, 142, 0, 139, 0, 136, 0, 141, 0, 142, 0, 20, 0, 110, 0, 121, 0, 20, 0, 8, 0, 110, 0, 143, 0, 145, 0, 144, 0, 143, 0, 146, 0, 145, 0, 147, 0, 149, 0, 148, 0, 147, 0, 150, 0, 149, 0, 45, 0, 152, 0, 151, 0, 45, 0, 43, 0, 152, 0, 153, 0, 155, 0, 154, 0, 153, 0, 156, 0, 155, 0, 157, 0, 159, 0, 158, 0, 157, 0, 160, 0, 159, 0, 161, 0, 163, 0, 162, 0, 161, 0, 164, 0, 163, 0, 165, 0, 167, 0, 166, 0, 165, 0, 168, 0, 167, 0, 169, 0, 162, 0, 170, 0, 169, 0, 161, 0, 162, 0, 171, 0, 173, 0, 172, 0, 171, 0, 174, 0, 173, 0, 175, 0, 177, 0, 176, 0, 175, 0, 178, 0, 177, 0, 179, 0, 181, 0, 180, 0, 179, 0, 182, 0, 181, 0, 182, 0, 183, 0, 181, 0, 182, 0, 184, 0, 183, 0, 185, 0, 187, 0, 186, 0, 185, 0, 188, 0, 187, 0, 189, 0, 191, 0, 190, 0, 189, 0, 192, 0, 191, 0, 193, 0, 195, 0, 194, 0, 193, 0, 196, 0, 195, 0, 197, 0, 199, 0, 198, 0, 197, 0, 200, 0, 199, 0, 201, 0, 203, 0, 202, 0, 201, 0, 204, 0, 203, 0, 40, 0, 38, 0, 55, 0, 205, 0, 207, 0, 206, 0, 205, 0, 208, 0, 207, 0, 209, 0, 211, 0, 210, 0, 209, 0, 212, 0, 211, 0, 202, 0, 214, 0, 213, 0, 202, 0, 203, 0, 214, 0 ),
"blend_shape_data": [  ],
"format": 98051,
"index_count": 363,
"material": ExtResource( 3 ),
"name": "Material.001",
"primitive": 4,
"skeleton_aabb": [  ],
"vertex_count": 215
}
surfaces/1 = {
"aabb": AABB( -0.519564, 0.114819, -0.317414, 1.03913, 0.951363, 1.68073 ),
"array_data": PoolByteArray( 5, 56, 47, 60, 21, 50, 0, 60, 23, 39, 118, 0, 0, 0, 67, 60, 148, 52, 0, 60, 23, 39, 118, 0, 0, 0, 192, 56, 5, 55, 0, 60, 23, 39, 118, 0, 5, 56, 192, 56, 123, 53, 0, 60, 23, 39, 118, 0, 5, 56, 47, 60, 20, 181, 0, 60, 127, 0, 0, 0, 5, 56, 47, 60, 21, 50, 0, 60, 127, 0, 0, 0, 5, 56, 192, 56, 123, 53, 0, 60, 127, 0, 0, 0, 5, 56, 192, 56, 20, 181, 0, 60, 127, 0, 0, 0, 172, 54, 135, 47, 114, 61, 0, 60, 0, 39, 120, 0, 38, 56, 89, 47, 116, 61, 0, 60, 0, 39, 120, 0, 40, 56, 195, 49, 94, 61, 0, 60, 0, 39, 120, 0, 233, 54, 233, 49, 92, 61, 0, 60, 0, 39, 120, 0, 5, 184, 47, 60, 21, 50, 0, 60, 233, 39, 118, 0, 5, 184, 192, 56, 123, 53, 0, 60, 233, 39, 118, 0, 0, 0, 192, 56, 5, 55, 0, 60, 233, 39, 118, 0, 0, 0, 67, 60, 148, 52, 0, 60, 233, 39, 118, 0, 5, 184, 47, 60, 20, 181, 0, 60, 130, 0, 0, 0, 5, 184, 192, 56, 20, 181, 0, 60, 130, 0, 0, 0, 5, 184, 192, 56, 123, 53, 0, 60, 130, 0, 0, 0, 5, 184, 47, 60, 21, 50, 0, 60, 130, 0, 0, 0, 172, 182, 135, 47, 114, 61, 0, 60, 0, 39, 120, 0, 233, 182, 233, 49, 92, 61, 0, 60, 0, 39, 120, 0, 40, 184, 195, 49, 94, 61, 0, 60, 0, 39, 120, 0, 38, 184, 89, 47, 116, 61, 0, 60, 0, 39, 120, 0 ),
"array_index_data": PoolByteArray( 0, 0, 2, 0, 1, 0, 0, 0, 3, 0, 2, 0, 4, 0, 6, 0, 5, 0, 4, 0, 7, 0, 6, 0, 8, 0, 10, 0, 9, 0, 8, 0, 11, 0, 10, 0, 12, 0, 14, 0, 13, 0, 12, 0, 15, 0, 14, 0, 16, 0, 18, 0, 17, 0, 16, 0, 19, 0, 18, 0, 20, 0, 22, 0, 21, 0, 20, 0, 23, 0, 22, 0 ),
"blend_shape_data": [  ],
"format": 98051,
"index_count": 36,
"material": SubResource( 11 ),
"name": "Material.002",
"primitive": 4,
"skeleton_aabb": [  ],
"vertex_count": 24
}
surfaces/2 = {
"aabb": AABB( -0.50249, 0.000773809, -1.07979, 1.00499, 0.502212, 2.51351 ),
"array_data": PoolByteArray( 5, 56, 86, 18, 81, 188, 0, 60, 127, 0, 0, 0, 5, 56, 10, 53, 161, 187, 0, 60, 127, 0, 0, 0, 5, 56, 10, 53, 242, 184, 0, 60, 127, 0, 0, 0, 5, 56, 86, 18, 224, 183, 0, 60, 127, 0, 0, 0, 247, 51, 253, 54, 149, 61, 0, 60, 1, 10, 126, 0, 0, 0, 6, 56, 149, 61, 0, 60, 1, 10, 126, 0, 0, 0, 86, 18, 188, 61, 0, 60, 1, 10, 126, 0, 247, 51, 86, 18, 188, 61, 0, 60, 1, 10, 126, 0, 247, 51, 86, 18, 188, 61, 0, 60, 123, 0, 28, 0, 5, 56, 86, 18, 123, 53, 0, 60, 123, 0, 28, 0, 209, 53, 242, 52, 158, 59, 0, 60, 123, 0, 28, 0, 175, 52, 242, 52, 255, 60, 0, 60, 123, 0, 28, 0, 5, 184, 86, 18, 81, 188, 0, 60, 130, 0, 0, 0, 5, 184, 86, 18, 224, 183, 0, 60, 130, 0, 0, 0, 5, 184, 10, 53, 242, 184, 0, 60, 130, 0, 0, 0, 5, 184, 10, 53, 161, 187, 0, 60, 130, 0, 0, 0, 247, 179, 253, 54, 149, 61, 0, 60, 255, 10, 126, 0, 247, 179, 86, 18, 188, 61, 0, 60, 255, 10, 126, 0, 0, 0, 86, 18, 188, 61, 0, 60, 255, 10, 126, 0, 0, 0, 6, 56, 149, 61, 0, 60, 255, 10, 126, 0, 247, 179, 86, 18, 188, 61, 0, 60, 133, 0, 28, 0, 175, 180, 242, 52, 255, 60, 0, 60, 133, 0, 28, 0, 209, 181, 242, 52, 158, 59, 0, 60, 133, 0, 28, 0, 5, 184, 86, 18, 123, 53, 0, 60, 133, 0, 28, 0 ),
"array_index_data": PoolByteArray( 0, 0, 2, 0, 1, 0, 0, 0, 3, 0, 2, 0, 4, 0, 6, 0, 5, 0, 4, 0, 7, 0, 6, 0, 8, 0, 10, 0, 9, 0, 8, 0, 11, 0, 10, 0, 12, 0, 14, 0, 13, 0, 12, 0, 15, 0, 14, 0, 16, 0, 18, 0, 17, 0, 16, 0, 19, 0, 18, 0, 20, 0, 22, 0, 21, 0, 20, 0, 23, 0, 22, 0 ),
"blend_shape_data": [  ],
"format": 98051,
"index_count": 36,
"material": SubResource( 12 ),
"name": "Material.003",
"primitive": 4,
"skeleton_aabb": [  ],
"vertex_count": 24
}

[sub_resource type="CubeMesh" id=17]

[sub_resource type="SpatialMaterial" id=19]
albedo_color = Color( 0.380392, 0.360784, 0.360784, 1 )

[sub_resource type="CubeMesh" id=20]

[sub_resource type="BoxShape" id=14]
extents = Vector3( 0.669599, 0.520797, 1.19735 )

[sub_resource type="ArrayMesh" id=7]
surfaces/0 = {
"aabb": AABB( -0.0614569, -0.228035, -0.228035, 0.122914, 0.45608, 0.45607 ),
"array_data": PoolByteArray( 221, 171, 76, 51, 210, 43, 0, 60, 130, 0, 0, 0, 221, 171, 76, 51, 210, 171, 0, 60, 130, 0, 0, 0, 221, 171, 87, 49, 87, 49, 0, 60, 130, 0, 0, 0, 221, 171, 87, 49, 87, 177, 0, 60, 130, 0, 0, 0, 221, 171, 210, 43, 76, 179, 0, 60, 130, 0, 0, 0, 221, 171, 210, 171, 76, 179, 0, 60, 130, 0, 0, 0, 221, 171, 87, 177, 87, 177, 0, 60, 130, 0, 0, 0, 221, 171, 76, 179, 210, 171, 0, 60, 130, 0, 0, 0, 221, 171, 76, 179, 210, 43, 0, 60, 130, 0, 0, 0, 221, 171, 87, 177, 87, 49, 0, 60, 130, 0, 0, 0, 221, 171, 210, 171, 76, 51, 0, 60, 130, 0, 0, 0, 221, 171, 210, 43, 76, 51, 0, 60, 130, 0, 0, 0, 221, 43, 76, 51, 210, 43, 0, 60, 127, 0, 0, 0, 221, 43, 87, 49, 87, 49, 0, 60, 127, 0, 0, 0, 221, 43, 76, 51, 210, 171, 0, 60, 127, 0, 0, 0, 221, 43, 210, 43, 76, 51, 0, 60, 127, 0, 0, 0, 221, 43, 210, 171, 76, 51, 0, 60, 127, 0, 0, 0, 221, 43, 87, 177, 87, 49, 0, 60, 127, 0, 0, 0, 221, 43, 76, 179, 210, 43, 0, 60, 127, 0, 0, 0, 221, 43, 76, 179, 210, 171, 0, 60, 127, 0, 0, 0, 221, 43, 87, 177, 87, 177, 0, 60, 127, 0, 0, 0, 221, 43, 210, 171, 76, 179, 0, 60, 127, 0, 0, 0, 221, 43, 210, 43, 76, 179, 0, 60, 127, 0, 0, 0, 221, 43, 87, 49, 87, 177, 0, 60, 127, 0, 0, 0, 221, 171, 87, 177, 87, 177, 0, 60, 0, 193, 147, 0, 221, 171, 210, 171, 76, 179, 0, 60, 0, 193, 147, 0, 221, 43, 210, 171, 76, 179, 0, 60, 0, 193, 147, 0, 221, 43, 87, 177, 87, 177, 0, 60, 0, 193, 147, 0, 221, 171, 210, 43, 76, 51, 0, 60, 0, 0, 126, 0, 221, 171, 210, 171, 76, 51, 0, 60, 0, 0, 126, 0, 221, 43, 210, 171, 76, 51, 0, 60, 0, 0, 126, 0, 221, 43, 210, 43, 76, 51, 0, 60, 0, 0, 126, 0, 221, 171, 210, 171, 76, 179, 0, 60, 0, 0, 129, 0, 221, 171, 210, 43, 76, 179, 0, 60, 0, 0, 129, 0, 221, 43, 210, 43, 76, 179, 0, 60, 0, 0, 129, 0, 221, 43, 210, 171, 76, 179, 0, 60, 0, 0, 129, 0, 221, 171, 210, 171, 76, 51, 0, 60, 0, 193, 109, 0, 221, 171, 87, 177, 87, 49, 0, 60, 0, 193, 109, 0, 221, 43, 87, 177, 87, 49, 0, 60, 0, 193, 109, 0, 221, 43, 210, 171, 76, 51, 0, 60, 0, 193, 109, 0, 221, 171, 210, 43, 76, 179, 0, 60, 0, 63, 147, 0, 221, 171, 87, 49, 87, 177, 0, 60, 0, 63, 147, 0, 221, 43, 87, 49, 87, 177, 0, 60, 0, 63, 147, 0, 221, 43, 210, 43, 76, 179, 0, 60, 0, 63, 147, 0, 221, 171, 87, 177, 87, 49, 0, 60, 0, 147, 63, 0, 221, 171, 76, 179, 210, 43, 0, 60, 0, 147, 63, 0, 221, 43, 76, 179, 210, 43, 0, 60, 0, 147, 63, 0, 221, 43, 87, 177, 87, 49, 0, 60, 0, 147, 63, 0, 221, 171, 87, 49, 87, 177, 0, 60, 0, 109, 193, 0, 221, 171, 76, 51, 210, 171, 0, 60, 0, 109, 193, 0, 221, 43, 76, 51, 210, 171, 0, 60, 0, 109, 193, 0, 221, 43, 87, 49, 87, 177, 0, 60, 0, 109, 193, 0, 221, 171, 76, 179, 210, 43, 0, 60, 0, 130, 0, 0, 221, 171, 76, 179, 210, 171, 0, 60, 0, 130, 0, 0, 221, 43, 76, 179, 210, 171, 0, 60, 0, 130, 0, 0, 221, 43, 76, 179, 210, 43, 0, 60, 0, 130, 0, 0, 221, 171, 76, 51, 210, 43, 0, 60, 0, 109, 63, 0, 221, 171, 87, 49, 87, 49, 0, 60, 0, 109, 63, 0, 221, 43, 87, 49, 87, 49, 0, 60, 0, 109, 63, 0, 221, 43, 76, 51, 210, 43, 0, 60, 0, 109, 63, 0, 221, 171, 76, 51, 210, 171, 0, 60, 0, 127, 0, 0, 221, 171, 76, 51, 210, 43, 0, 60, 0, 127, 0, 0, 221, 43, 76, 51, 210, 43, 0, 60, 0, 127, 0, 0, 221, 43, 76, 51, 210, 171, 0, 60, 0, 127, 0, 0, 221, 171, 76, 179, 210, 171, 0, 60, 0, 147, 193, 0, 221, 171, 87, 177, 87, 177, 0, 60, 0, 147, 193, 0, 221, 43, 87, 177, 87, 177, 0, 60, 0, 147, 193, 0, 221, 43, 76, 179, 210, 171, 0, 60, 0, 147, 193, 0, 221, 171, 87, 49, 87, 49, 0, 60, 0, 63, 109, 0, 221, 171, 210, 43, 76, 51, 0, 60, 0, 63, 109, 0, 221, 43, 210, 43, 76, 51, 0, 60, 0, 63, 109, 0, 221, 43, 87, 49, 87, 49, 0, 60, 0, 63, 109, 0 ),
"array_index_data": PoolByteArray( 0, 0, 2, 0, 1, 0, 1, 0, 4, 0, 3, 0, 4, 0, 6, 0, 5, 0, 6, 0, 8, 0, 7, 0, 8, 0, 10, 0, 9, 0, 10, 0, 2, 0, 11, 0, 1, 0, 2, 0, 4, 0, 4, 0, 8, 0, 6, 0, 8, 0, 2, 0, 10, 0, 4, 0, 2, 0, 8, 0, 12, 0, 14, 0, 13, 0, 13, 0, 16, 0, 15, 0, 16, 0, 18, 0, 17, 0, 18, 0, 20, 0, 19, 0, 20, 0, 22, 0, 21, 0, 22, 0, 14, 0, 23, 0, 13, 0, 14, 0, 16, 0, 16, 0, 20, 0, 18, 0, 20, 0, 14, 0, 22, 0, 16, 0, 14, 0, 20, 0, 24, 0, 26, 0, 25, 0, 24, 0, 27, 0, 26, 0, 28, 0, 30, 0, 29, 0, 28, 0, 31, 0, 30, 0, 32, 0, 34, 0, 33, 0, 32, 0, 35, 0, 34, 0, 36, 0, 38, 0, 37, 0, 36, 0, 39, 0, 38, 0, 40, 0, 42, 0, 41, 0, 40, 0, 43, 0, 42, 0, 44, 0, 46, 0, 45, 0, 44, 0, 47, 0, 46, 0, 48, 0, 50, 0, 49, 0, 48, 0, 51, 0, 50, 0, 52, 0, 54, 0, 53, 0, 52, 0, 55, 0, 54, 0, 56, 0, 58, 0, 57, 0, 56, 0, 59, 0, 58, 0, 60, 0, 62, 0, 61, 0, 60, 0, 63, 0, 62, 0, 64, 0, 66, 0, 65, 0, 64, 0, 67, 0, 66, 0, 68, 0, 70, 0, 69, 0, 68, 0, 71, 0, 70, 0 ),
"blend_shape_data": [  ],
"format": 98051,
"index_count": 132,
"material": ExtResource( 3 ),
"name": "Material.001",
"primitive": 4,
"skeleton_aabb": [  ],
"vertex_count": 72
}

[sub_resource type="ArrayMesh" id=8]
surfaces/0 = {
"aabb": AABB( -0.0614569, -0.228035, -0.228035, 0.122914, 0.45608, 0.45607 ),
"array_data": PoolByteArray( 221, 171, 76, 51, 210, 43, 0, 60, 130, 0, 0, 0, 221, 171, 76, 51, 210, 171, 0, 60, 130, 0, 0, 0, 221, 171, 87, 49, 87, 49, 0, 60, 130, 0, 0, 0, 221, 171, 87, 49, 87, 177, 0, 60, 130, 0, 0, 0, 221, 171, 210, 43, 76, 179, 0, 60, 130, 0, 0, 0, 221, 171, 210, 171, 76, 179, 0, 60, 130, 0, 0, 0, 221, 171, 87, 177, 87, 177, 0, 60, 130, 0, 0, 0, 221, 171, 76, 179, 210, 171, 0, 60, 130, 0, 0, 0, 221, 171, 76, 179, 210, 43, 0, 60, 130, 0, 0, 0, 221, 171, 87, 177, 87, 49, 0, 60, 130, 0, 0, 0, 221, 171, 210, 171, 76, 51, 0, 60, 130, 0, 0, 0, 221, 171, 210, 43, 76, 51, 0, 60, 130, 0, 0, 0, 221, 43, 76, 51, 210, 43, 0, 60, 127, 0, 0, 0, 221, 43, 87, 49, 87, 49, 0, 60, 127, 0, 0, 0, 221, 43, 76, 51, 210, 171, 0, 60, 127, 0, 0, 0, 221, 43, 210, 43, 76, 51, 0, 60, 127, 0, 0, 0, 221, 43, 210, 171, 76, 51, 0, 60, 127, 0, 0, 0, 221, 43, 87, 177, 87, 49, 0, 60, 127, 0, 0, 0, 221, 43, 76, 179, 210, 43, 0, 60, 127, 0, 0, 0, 221, 43, 76, 179, 210, 171, 0, 60, 127, 0, 0, 0, 221, 43, 87, 177, 87, 177, 0, 60, 127, 0, 0, 0, 221, 43, 210, 171, 76, 179, 0, 60, 127, 0, 0, 0, 221, 43, 210, 43, 76, 179, 0, 60, 127, 0, 0, 0, 221, 43, 87, 49, 87, 177, 0, 60, 127, 0, 0, 0, 221, 171, 87, 177, 87, 177, 0, 60, 0, 193, 147, 0, 221, 171, 210, 171, 76, 179, 0, 60, 0, 193, 147, 0, 221, 43, 210, 171, 76, 179, 0, 60, 0, 193, 147, 0, 221, 43, 87, 177, 87, 177, 0, 60, 0, 193, 147, 0, 221, 171, 210, 43, 76, 51, 0, 60, 0, 0, 126, 0, 221, 171, 210, 171, 76, 51, 0, 60, 0, 0, 126, 0, 221, 43, 210, 171, 76, 51, 0, 60, 0, 0, 126, 0, 221, 43, 210, 43, 76, 51, 0, 60, 0, 0, 126, 0, 221, 171, 210, 171, 76, 179, 0, 60, 0, 0, 129, 0, 221, 171, 210, 43, 76, 179, 0, 60, 0, 0, 129, 0, 221, 43, 210, 43, 76, 179, 0, 60, 0, 0, 129, 0, 221, 43, 210, 171, 76, 179, 0, 60, 0, 0, 129, 0, 221, 171, 210, 171, 76, 51, 0, 60, 0, 193, 109, 0, 221, 171, 87, 177, 87, 49, 0, 60, 0, 193, 109, 0, 221, 43, 87, 177, 87, 49, 0, 60, 0, 193, 109, 0, 221, 43, 210, 171, 76, 51, 0, 60, 0, 193, 109, 0, 221, 171, 210, 43, 76, 179, 0, 60, 0, 63, 147, 0, 221, 171, 87, 49, 87, 177, 0, 60, 0, 63, 147, 0, 221, 43, 87, 49, 87, 177, 0, 60, 0, 63, 147, 0, 221, 43, 210, 43, 76, 179, 0, 60, 0, 63, 147, 0, 221, 171, 87, 177, 87, 49, 0, 60, 0, 147, 63, 0, 221, 171, 76, 179, 210, 43, 0, 60, 0, 147, 63, 0, 221, 43, 76, 179, 210, 43, 0, 60, 0, 147, 63, 0, 221, 43, 87, 177, 87, 49, 0, 60, 0, 147, 63, 0, 221, 171, 87, 49, 87, 177, 0, 60, 0, 109, 193, 0, 221, 171, 76, 51, 210, 171, 0, 60, 0, 109, 193, 0, 221, 43, 76, 51, 210, 171, 0, 60, 0, 109, 193, 0, 221, 43, 87, 49, 87, 177, 0, 60, 0, 109, 193, 0, 221, 171, 76, 179, 210, 43, 0, 60, 0, 130, 0, 0, 221, 171, 76, 179, 210, 171, 0, 60, 0, 130, 0, 0, 221, 43, 76, 179, 210, 171, 0, 60, 0, 130, 0, 0, 221, 43, 76, 179, 210, 43, 0, 60, 0, 130, 0, 0, 221, 171, 76, 51, 210, 43, 0, 60, 0, 109, 63, 0, 221, 171, 87, 49, 87, 49, 0, 60, 0, 109, 63, 0, 221, 43, 87, 49, 87, 49, 0, 60, 0, 109, 63, 0, 221, 43, 76, 51, 210, 43, 0, 60, 0, 109, 63, 0, 221, 171, 76, 51, 210, 171, 0, 60, 0, 127, 0, 0, 221, 171, 76, 51, 210, 43, 0, 60, 0, 127, 0, 0, 221, 43, 76, 51, 210, 43, 0, 60, 0, 127, 0, 0, 221, 43, 76, 51, 210, 171, 0, 60, 0, 127, 0, 0, 221, 171, 76, 179, 210, 171, 0, 60, 0, 147, 193, 0, 221, 171, 87, 177, 87, 177, 0, 60, 0, 147, 193, 0, 221, 43, 87, 177, 87, 177, 0, 60, 0, 147, 193, 0, 221, 43, 76, 179, 210, 171, 0, 60, 0, 147, 193, 0, 221, 171, 87, 49, 87, 49, 0, 60, 0, 63, 109, 0, 221, 171, 210, 43, 76, 51, 0, 60, 0, 63, 109, 0, 221, 43, 210, 43, 76, 51, 0, 60, 0, 63, 109, 0, 221, 43, 87, 49, 87, 49, 0, 60, 0, 63, 109, 0 ),
"array_index_data": PoolByteArray( 0, 0, 2, 0, 1, 0, 1, 0, 4, 0, 3, 0, 4, 0, 6, 0, 5, 0, 6, 0, 8, 0, 7, 0, 8, 0, 10, 0, 9, 0, 10, 0, 2, 0, 11, 0, 1, 0, 2, 0, 4, 0, 4, 0, 8, 0, 6, 0, 8, 0, 2, 0, 10, 0, 4, 0, 2, 0, 8, 0, 12, 0, 14, 0, 13, 0, 13, 0, 16, 0, 15, 0, 16, 0, 18, 0, 17, 0, 18, 0, 20, 0, 19, 0, 20, 0, 22, 0, 21, 0, 22, 0, 14, 0, 23, 0, 13, 0, 14, 0, 16, 0, 16, 0, 20, 0, 18, 0, 20, 0, 14, 0, 22, 0, 16, 0, 14, 0, 20, 0, 24, 0, 26, 0, 25, 0, 24, 0, 27, 0, 26, 0, 28, 0, 30, 0, 29, 0, 28, 0, 31, 0, 30, 0, 32, 0, 34, 0, 33, 0, 32, 0, 35, 0, 34, 0, 36, 0, 38, 0, 37, 0, 36, 0, 39, 0, 38, 0, 40, 0, 42, 0, 41, 0, 40, 0, 43, 0, 42, 0, 44, 0, 46, 0, 45, 0, 44, 0, 47, 0, 46, 0, 48, 0, 50, 0, 49, 0, 48, 0, 51, 0, 50, 0, 52, 0, 54, 0, 53, 0, 52, 0, 55, 0, 54, 0, 56, 0, 58, 0, 57, 0, 56, 0, 59, 0, 58, 0, 60, 0, 62, 0, 61, 0, 60, 0, 63, 0, 62, 0, 64, 0, 66, 0, 65, 0, 64, 0, 67, 0, 66, 0, 68, 0, 70, 0, 69, 0, 68, 0, 71, 0, 70, 0 ),
"blend_shape_data": [  ],
"format": 98051,
"index_count": 132,
"material": ExtResource( 3 ),
"name": "Material.001",
"primitive": 4,
"skeleton_aabb": [  ],
"vertex_count": 72
}

[sub_resource type="ArrayMesh" id=9]
surfaces/0 = {
"aabb": AABB( -0.061457, -0.228035, -0.228035, 0.122924, 0.45608, 0.45607 ),
"array_data": PoolByteArray( 221, 43, 76, 51, 210, 43, 0, 60, 127, 0, 0, 0, 221, 43, 87, 49, 87, 49, 0, 60, 127, 0, 0, 0, 221, 43, 76, 51, 210, 171, 0, 60, 127, 0, 0, 0, 221, 43, 210, 43, 76, 51, 0, 60, 127, 0, 0, 0, 221, 43, 210, 171, 76, 51, 0, 60, 127, 0, 0, 0, 221, 43, 87, 177, 87, 49, 0, 60, 127, 0, 0, 0, 221, 43, 76, 179, 210, 43, 0, 60, 127, 0, 0, 0, 221, 43, 76, 179, 210, 171, 0, 60, 127, 0, 0, 0, 221, 43, 87, 177, 87, 177, 0, 60, 127, 0, 0, 0, 221, 43, 210, 171, 76, 179, 0, 60, 127, 0, 0, 0, 221, 43, 210, 43, 76, 179, 0, 60, 127, 0, 0, 0, 221, 43, 87, 49, 87, 177, 0, 60, 127, 0, 0, 0, 221, 171, 76, 51, 210, 43, 0, 60, 130, 0, 0, 0, 221, 171, 76, 51, 210, 171, 0, 60, 130, 0, 0, 0, 221, 171, 87, 49, 87, 49, 0, 60, 130, 0, 0, 0, 221, 171, 87, 49, 87, 177, 0, 60, 130, 0, 0, 0, 221, 171, 210, 43, 76, 179, 0, 60, 130, 0, 0, 0, 221, 171, 210, 171, 76, 179, 0, 60, 130, 0, 0, 0, 221, 171, 87, 177, 87, 177, 0, 60, 130, 0, 0, 0, 221, 171, 76, 179, 210, 171, 0, 60, 130, 0, 0, 0, 221, 171, 76, 179, 210, 43, 0, 60, 130, 0, 0, 0, 221, 171, 87, 177, 87, 49, 0, 60, 130, 0, 0, 0, 221, 171, 210, 171, 76, 51, 0, 60, 130, 0, 0, 0, 221, 171, 210, 43, 76, 51, 0, 60, 130, 0, 0, 0, 221, 43, 87, 177, 87, 177, 0, 60, 0, 193, 147, 0, 221, 171, 87, 177, 87, 177, 0, 60, 0, 193, 147, 0, 221, 171, 210, 171, 76, 179, 0, 60, 0, 193, 147, 0, 221, 43, 210, 171, 76, 179, 0, 60, 0, 193, 147, 0, 221, 43, 210, 43, 76, 51, 0, 60, 0, 0, 126, 0, 221, 171, 210, 43, 76, 51, 0, 60, 0, 0, 126, 0, 221, 171, 210, 171, 76, 51, 0, 60, 0, 0, 126, 0, 221, 43, 210, 171, 76, 51, 0, 60, 0, 0, 126, 0, 221, 43, 210, 171, 76, 179, 0, 60, 0, 0, 129, 0, 221, 171, 210, 171, 76, 179, 0, 60, 0, 0, 129, 0, 221, 171, 210, 43, 76, 179, 0, 60, 0, 0, 129, 0, 221, 43, 210, 43, 76, 179, 0, 60, 0, 0, 129, 0, 221, 43, 210, 171, 76, 51, 0, 60, 0, 193, 109, 0, 221, 171, 210, 171, 76, 51, 0, 60, 0, 193, 109, 0, 221, 171, 87, 177, 87, 49, 0, 60, 0, 193, 109, 0, 221, 43, 87, 177, 87, 49, 0, 60, 0, 193, 109, 0, 221, 43, 210, 43, 76, 179, 0, 60, 0, 63, 147, 0, 221, 171, 210, 43, 76, 179, 0, 60, 0, 63, 147, 0, 221, 171, 87, 49, 87, 177, 0, 60, 0, 63, 147, 0, 221, 43, 87, 49, 87, 177, 0, 60, 0, 63, 147, 0, 221, 43, 87, 177, 87, 49, 0, 60, 0, 147, 63, 0, 221, 171, 87, 177, 87, 49, 0, 60, 0, 147, 63, 0, 221, 171, 76, 179, 210, 43, 0, 60, 0, 147, 63, 0, 221, 43, 76, 179, 210, 43, 0, 60, 0, 147, 63, 0, 221, 43, 87, 49, 87, 177, 0, 60, 0, 109, 193, 0, 221, 171, 87, 49, 87, 177, 0, 60, 0, 109, 193, 0, 221, 171, 76, 51, 210, 171, 0, 60, 0, 109, 193, 0, 221, 43, 76, 51, 210, 171, 0, 60, 0, 109, 193, 0, 221, 43, 76, 179, 210, 43, 0, 60, 0, 130, 0, 0, 221, 171, 76, 179, 210, 43, 0, 60, 0, 130, 0, 0, 221, 171, 76, 179, 210, 171, 0, 60, 0, 130, 0, 0, 221, 43, 76, 179, 210, 171, 0, 60, 0, 130, 0, 0, 221, 43, 76, 51, 210, 43, 0, 60, 0, 109, 63, 0, 221, 171, 76, 51, 210, 43, 0, 60, 0, 109, 63, 0, 221, 171, 87, 49, 87, 49, 0, 60, 0, 109, 63, 0, 221, 43, 87, 49, 87, 49, 0, 60, 0, 109, 63, 0, 221, 171, 76, 51, 210, 43, 0, 60, 0, 127, 0, 0, 221, 43, 76, 51, 210, 43, 0, 60, 0, 127, 0, 0, 221, 43, 76, 51, 210, 171, 0, 60, 0, 127, 0, 0, 221, 171, 76, 51, 210, 171, 0, 60, 0, 127, 0, 0, 221, 43, 76, 179, 210, 171, 0, 60, 0, 147, 193, 0, 221, 171, 76, 179, 210, 171, 0, 60, 0, 147, 193, 0, 221, 171, 87, 177, 87, 177, 0, 60, 0, 147, 193, 0, 221, 43, 87, 177, 87, 177, 0, 60, 0, 147, 193, 0, 221, 43, 87, 49, 87, 49, 0, 60, 0, 63, 109, 0, 221, 171, 87, 49, 87, 49, 0, 60, 0, 63, 109, 0, 221, 171, 210, 43, 76, 51, 0, 60, 0, 63, 109, 0, 221, 43, 210, 43, 76, 51, 0, 60, 0, 63, 109, 0 ),
"array_index_data": PoolByteArray( 0, 0, 2, 0, 1, 0, 1, 0, 4, 0, 3, 0, 4, 0, 6, 0, 5, 0, 6, 0, 8, 0, 7, 0, 8, 0, 10, 0, 9, 0, 10, 0, 2, 0, 11, 0, 1, 0, 2, 0, 4, 0, 4, 0, 8, 0, 6, 0, 8, 0, 2, 0, 10, 0, 4, 0, 2, 0, 8, 0, 12, 0, 14, 0, 13, 0, 13, 0, 16, 0, 15, 0, 16, 0, 18, 0, 17, 0, 18, 0, 20, 0, 19, 0, 20, 0, 22, 0, 21, 0, 22, 0, 14, 0, 23, 0, 13, 0, 14, 0, 16, 0, 16, 0, 20, 0, 18, 0, 20, 0, 14, 0, 22, 0, 16, 0, 14, 0, 20, 0, 24, 0, 26, 0, 25, 0, 24, 0, 27, 0, 26, 0, 28, 0, 30, 0, 29, 0, 28, 0, 31, 0, 30, 0, 32, 0, 34, 0, 33, 0, 32, 0, 35, 0, 34, 0, 36, 0, 38, 0, 37, 0, 36, 0, 39, 0, 38, 0, 40, 0, 42, 0, 41, 0, 40, 0, 43, 0, 42, 0, 44, 0, 46, 0, 45, 0, 44, 0, 47, 0, 46, 0, 48, 0, 50, 0, 49, 0, 48, 0, 51, 0, 50, 0, 52, 0, 54, 0, 53, 0, 52, 0, 55, 0, 54, 0, 56, 0, 58, 0, 57, 0, 56, 0, 59, 0, 58, 0, 60, 0, 62, 0, 61, 0, 60, 0, 63, 0, 62, 0, 64, 0, 66, 0, 65, 0, 64, 0, 67, 0, 66, 0, 68, 0, 70, 0, 69, 0, 68, 0, 71, 0, 70, 0 ),
"blend_shape_data": [  ],
"format": 98051,
"index_count": 132,
"material": ExtResource( 3 ),
"name": "Material.001",
"primitive": 4,
"skeleton_aabb": [  ],
"vertex_count": 72
}

[sub_resource type="ArrayMesh" id=10]
surfaces/0 = {
"aabb": AABB( -0.061457, -0.228035, -0.228035, 0.122924, 0.45608, 0.45607 ),
"array_data": PoolByteArray( 221, 43, 76, 51, 210, 43, 0, 60, 127, 0, 0, 0, 221, 43, 87, 49, 87, 49, 0, 60, 127, 0, 0, 0, 221, 43, 76, 51, 210, 171, 0, 60, 127, 0, 0, 0, 221, 43, 210, 43, 76, 51, 0, 60, 127, 0, 0, 0, 221, 43, 210, 171, 76, 51, 0, 60, 127, 0, 0, 0, 221, 43, 87, 177, 87, 49, 0, 60, 127, 0, 0, 0, 221, 43, 76, 179, 210, 43, 0, 60, 127, 0, 0, 0, 221, 43, 76, 179, 210, 171, 0, 60, 127, 0, 0, 0, 221, 43, 87, 177, 87, 177, 0, 60, 127, 0, 0, 0, 221, 43, 210, 171, 76, 179, 0, 60, 127, 0, 0, 0, 221, 43, 210, 43, 76, 179, 0, 60, 127, 0, 0, 0, 221, 43, 87, 49, 87, 177, 0, 60, 127, 0, 0, 0, 221, 171, 76, 51, 210, 43, 0, 60, 130, 0, 0, 0, 221, 171, 76, 51, 210, 171, 0, 60, 130, 0, 0, 0, 221, 171, 87, 49, 87, 49, 0, 60, 130, 0, 0, 0, 221, 171, 87, 49, 87, 177, 0, 60, 130, 0, 0, 0, 221, 171, 210, 43, 76, 179, 0, 60, 130, 0, 0, 0, 221, 171, 210, 171, 76, 179, 0, 60, 130, 0, 0, 0, 221, 171, 87, 177, 87, 177, 0, 60, 130, 0, 0, 0, 221, 171, 76, 179, 210, 171, 0, 60, 130, 0, 0, 0, 221, 171, 76, 179, 210, 43, 0, 60, 130, 0, 0, 0, 221, 171, 87, 177, 87, 49, 0, 60, 130, 0, 0, 0, 221, 171, 210, 171, 76, 51, 0, 60, 130, 0, 0, 0, 221, 171, 210, 43, 76, 51, 0, 60, 130, 0, 0, 0, 221, 43, 87, 177, 87, 177, 0, 60, 0, 193, 147, 0, 221, 171, 87, 177, 87, 177, 0, 60, 0, 193, 147, 0, 221, 171, 210, 171, 76, 179, 0, 60, 0, 193, 147, 0, 221, 43, 210, 171, 76, 179, 0, 60, 0, 193, 147, 0, 221, 43, 210, 43, 76, 51, 0, 60, 0, 0, 126, 0, 221, 171, 210, 43, 76, 51, 0, 60, 0, 0, 126, 0, 221, 171, 210, 171, 76, 51, 0, 60, 0, 0, 126, 0, 221, 43, 210, 171, 76, 51, 0, 60, 0, 0, 126, 0, 221, 43, 210, 171, 76, 179, 0, 60, 0, 0, 129, 0, 221, 171, 210, 171, 76, 179, 0, 60, 0, 0, 129, 0, 221, 171, 210, 43, 76, 179, 0, 60, 0, 0, 129, 0, 221, 43, 210, 43, 76, 179, 0, 60, 0, 0, 129, 0, 221, 43, 210, 171, 76, 51, 0, 60, 0, 193, 109, 0, 221, 171, 210, 171, 76, 51, 0, 60, 0, 193, 109, 0, 221, 171, 87, 177, 87, 49, 0, 60, 0, 193, 109, 0, 221, 43, 87, 177, 87, 49, 0, 60, 0, 193, 109, 0, 221, 43, 210, 43, 76, 179, 0, 60, 0, 63, 147, 0, 221, 171, 210, 43, 76, 179, 0, 60, 0, 63, 147, 0, 221, 171, 87, 49, 87, 177, 0, 60, 0, 63, 147, 0, 221, 43, 87, 49, 87, 177, 0, 60, 0, 63, 147, 0, 221, 43, 87, 177, 87, 49, 0, 60, 0, 147, 63, 0, 221, 171, 87, 177, 87, 49, 0, 60, 0, 147, 63, 0, 221, 171, 76, 179, 210, 43, 0, 60, 0, 147, 63, 0, 221, 43, 76, 179, 210, 43, 0, 60, 0, 147, 63, 0, 221, 43, 87, 49, 87, 177, 0, 60, 0, 109, 193, 0, 221, 171, 87, 49, 87, 177, 0, 60, 0, 109, 193, 0, 221, 171, 76, 51, 210, 171, 0, 60, 0, 109, 193, 0, 221, 43, 76, 51, 210, 171, 0, 60, 0, 109, 193, 0, 221, 43, 76, 179, 210, 43, 0, 60, 0, 130, 0, 0, 221, 171, 76, 179, 210, 43, 0, 60, 0, 130, 0, 0, 221, 171, 76, 179, 210, 171, 0, 60, 0, 130, 0, 0, 221, 43, 76, 179, 210, 171, 0, 60, 0, 130, 0, 0, 221, 43, 76, 51, 210, 43, 0, 60, 0, 109, 63, 0, 221, 171, 76, 51, 210, 43, 0, 60, 0, 109, 63, 0, 221, 171, 87, 49, 87, 49, 0, 60, 0, 109, 63, 0, 221, 43, 87, 49, 87, 49, 0, 60, 0, 109, 63, 0, 221, 171, 76, 51, 210, 43, 0, 60, 0, 127, 0, 0, 221, 43, 76, 51, 210, 43, 0, 60, 0, 127, 0, 0, 221, 43, 76, 51, 210, 171, 0, 60, 0, 127, 0, 0, 221, 171, 76, 51, 210, 171, 0, 60, 0, 127, 0, 0, 221, 43, 76, 179, 210, 171, 0, 60, 0, 147, 193, 0, 221, 171, 76, 179, 210, 171, 0, 60, 0, 147, 193, 0, 221, 171, 87, 177, 87, 177, 0, 60, 0, 147, 193, 0, 221, 43, 87, 177, 87, 177, 0, 60, 0, 147, 193, 0, 221, 43, 87, 49, 87, 49, 0, 60, 0, 63, 109, 0, 221, 171, 87, 49, 87, 49, 0, 60, 0, 63, 109, 0, 221, 171, 210, 43, 76, 51, 0, 60, 0, 63, 109, 0, 221, 43, 210, 43, 76, 51, 0, 60, 0, 63, 109, 0 ),
"array_index_data": PoolByteArray( 0, 0, 2, 0, 1, 0, 1, 0, 4, 0, 3, 0, 4, 0, 6, 0, 5, 0, 6, 0, 8, 0, 7, 0, 8, 0, 10, 0, 9, 0, 10, 0, 2, 0, 11, 0, 1, 0, 2, 0, 4, 0, 4, 0, 8, 0, 6, 0, 8, 0, 2, 0, 10, 0, 4, 0, 2, 0, 8, 0, 12, 0, 14, 0, 13, 0, 13, 0, 16, 0, 15, 0, 16, 0, 18, 0, 17, 0, 18, 0, 20, 0, 19, 0, 20, 0, 22, 0, 21, 0, 22, 0, 14, 0, 23, 0, 13, 0, 14, 0, 16, 0, 16, 0, 20, 0, 18, 0, 20, 0, 14, 0, 22, 0, 16, 0, 14, 0, 20, 0, 24, 0, 26, 0, 25, 0, 24, 0, 27, 0, 26, 0, 28, 0, 30, 0, 29, 0, 28, 0, 31, 0, 30, 0, 32, 0, 34, 0, 33, 0, 32, 0, 35, 0, 34, 0, 36, 0, 38, 0, 37, 0, 36, 0, 39, 0, 38, 0, 40, 0, 42, 0, 41, 0, 40, 0, 43, 0, 42, 0, 44, 0, 46, 0, 45, 0, 44, 0, 47, 0, 46, 0, 48, 0, 50, 0, 49, 0, 48, 0, 51, 0, 50, 0, 52, 0, 54, 0, 53, 0, 52, 0, 55, 0, 54, 0, 56, 0, 58, 0, 57, 0, 56, 0, 59, 0, 58, 0, 60, 0, 62, 0, 61, 0, 60, 0, 63, 0, 62, 0, 64, 0, 66, 0, 65, 0, 64, 0, 67, 0, 66, 0, 68, 0, 70, 0, 69, 0, 68, 0, 71, 0, 70, 0 ),
"blend_shape_data": [  ],
"format": 98051,
"index_count": 132,
"material": ExtResource( 3 ),
"name": "Material.001",
"primitive": 4,
"skeleton_aabb": [  ],
"vertex_count": 72
}

[sub_resource type="DynamicFont" id=16]
size = 50
font_data = ExtResource( 11 )

[sub_resource type="BoxShape" id=23]
margin = 5.0
extents = Vector3( 2000, 4, 2000 )

[sub_resource type="SpatialMaterial" id=26]

[sub_resource type="CubeMesh" id=27]
size = Vector3( 600, 1, 900 )

[sub_resource type="ArrayMesh" id=1]
surfaces/0 = {
"aabb": AABB( -0.0614569, -0.228035, -0.228035, 0.122914, 0.45608, 0.45607 ),
"array_data": PoolByteArray( 221, 171, 76, 51, 210, 43, 0, 60, 130, 0, 0, 0, 221, 171, 76, 51, 210, 171, 0, 60, 130, 0, 0, 0, 221, 171, 87, 49, 87, 49, 0, 60, 130, 0, 0, 0, 221, 171, 87, 49, 87, 177, 0, 60, 130, 0, 0, 0, 221, 171, 210, 43, 76, 179, 0, 60, 130, 0, 0, 0, 221, 171, 210, 171, 76, 179, 0, 60, 130, 0, 0, 0, 221, 171, 87, 177, 87, 177, 0, 60, 130, 0, 0, 0, 221, 171, 76, 179, 210, 171, 0, 60, 130, 0, 0, 0, 221, 171, 76, 179, 210, 43, 0, 60, 130, 0, 0, 0, 221, 171, 87, 177, 87, 49, 0, 60, 130, 0, 0, 0, 221, 171, 210, 171, 76, 51, 0, 60, 130, 0, 0, 0, 221, 171, 210, 43, 76, 51, 0, 60, 130, 0, 0, 0, 221, 43, 76, 51, 210, 43, 0, 60, 127, 0, 0, 0, 221, 43, 87, 49, 87, 49, 0, 60, 127, 0, 0, 0, 221, 43, 76, 51, 210, 171, 0, 60, 127, 0, 0, 0, 221, 43, 210, 43, 76, 51, 0, 60, 127, 0, 0, 0, 221, 43, 210, 171, 76, 51, 0, 60, 127, 0, 0, 0, 221, 43, 87, 177, 87, 49, 0, 60, 127, 0, 0, 0, 221, 43, 76, 179, 210, 43, 0, 60, 127, 0, 0, 0, 221, 43, 76, 179, 210, 171, 0, 60, 127, 0, 0, 0, 221, 43, 87, 177, 87, 177, 0, 60, 127, 0, 0, 0, 221, 43, 210, 171, 76, 179, 0, 60, 127, 0, 0, 0, 221, 43, 210, 43, 76, 179, 0, 60, 127, 0, 0, 0, 221, 43, 87, 49, 87, 177, 0, 60, 127, 0, 0, 0, 221, 171, 87, 177, 87, 177, 0, 60, 0, 193, 147, 0, 221, 171, 210, 171, 76, 179, 0, 60, 0, 193, 147, 0, 221, 43, 210, 171, 76, 179, 0, 60, 0, 193, 147, 0, 221, 43, 87, 177, 87, 177, 0, 60, 0, 193, 147, 0, 221, 171, 210, 43, 76, 51, 0, 60, 0, 0, 126, 0, 221, 171, 210, 171, 76, 51, 0, 60, 0, 0, 126, 0, 221, 43, 210, 171, 76, 51, 0, 60, 0, 0, 126, 0, 221, 43, 210, 43, 76, 51, 0, 60, 0, 0, 126, 0, 221, 171, 210, 171, 76, 179, 0, 60, 0, 0, 129, 0, 221, 171, 210, 43, 76, 179, 0, 60, 0, 0, 129, 0, 221, 43, 210, 43, 76, 179, 0, 60, 0, 0, 129, 0, 221, 43, 210, 171, 76, 179, 0, 60, 0, 0, 129, 0, 221, 171, 210, 171, 76, 51, 0, 60, 0, 193, 109, 0, 221, 171, 87, 177, 87, 49, 0, 60, 0, 193, 109, 0, 221, 43, 87, 177, 87, 49, 0, 60, 0, 193, 109, 0, 221, 43, 210, 171, 76, 51, 0, 60, 0, 193, 109, 0, 221, 171, 210, 43, 76, 179, 0, 60, 0, 63, 147, 0, 221, 171, 87, 49, 87, 177, 0, 60, 0, 63, 147, 0, 221, 43, 87, 49, 87, 177, 0, 60, 0, 63, 147, 0, 221, 43, 210, 43, 76, 179, 0, 60, 0, 63, 147, 0, 221, 171, 87, 177, 87, 49, 0, 60, 0, 147, 63, 0, 221, 171, 76, 179, 210, 43, 0, 60, 0, 147, 63, 0, 221, 43, 76, 179, 210, 43, 0, 60, 0, 147, 63, 0, 221, 43, 87, 177, 87, 49, 0, 60, 0, 147, 63, 0, 221, 171, 87, 49, 87, 177, 0, 60, 0, 109, 193, 0, 221, 171, 76, 51, 210, 171, 0, 60, 0, 109, 193, 0, 221, 43, 76, 51, 210, 171, 0, 60, 0, 109, 193, 0, 221, 43, 87, 49, 87, 177, 0, 60, 0, 109, 193, 0, 221, 171, 76, 179, 210, 43, 0, 60, 0, 130, 0, 0, 221, 171, 76, 179, 210, 171, 0, 60, 0, 130, 0, 0, 221, 43, 76, 179, 210, 171, 0, 60, 0, 130, 0, 0, 221, 43, 76, 179, 210, 43, 0, 60, 0, 130, 0, 0, 221, 171, 76, 51, 210, 43, 0, 60, 0, 109, 63, 0, 221, 171, 87, 49, 87, 49, 0, 60, 0, 109, 63, 0, 221, 43, 87, 49, 87, 49, 0, 60, 0, 109, 63, 0, 221, 43, 76, 51, 210, 43, 0, 60, 0, 109, 63, 0, 221, 171, 76, 51, 210, 171, 0, 60, 0, 127, 0, 0, 221, 171, 76, 51, 210, 43, 0, 60, 0, 127, 0, 0, 221, 43, 76, 51, 210, 43, 0, 60, 0, 127, 0, 0, 221, 43, 76, 51, 210, 171, 0, 60, 0, 127, 0, 0, 221, 171, 76, 179, 210, 171, 0, 60, 0, 147, 193, 0, 221, 171, 87, 177, 87, 177, 0, 60, 0, 147, 193, 0, 221, 43, 87, 177, 87, 177, 0, 60, 0, 147, 193, 0, 221, 43, 76, 179, 210, 171, 0, 60, 0, 147, 193, 0, 221, 171, 87, 49, 87, 49, 0, 60, 0, 63, 109, 0, 221, 171, 210, 43, 76, 51, 0, 60, 0, 63, 109, 0, 221, 43, 210, 43, 76, 51, 0, 60, 0, 63, 109, 0, 221, 43, 87, 49, 87, 49, 0, 60, 0, 63, 109, 0 ),
"array_index_data": PoolByteArray( 0, 0, 2, 0, 1, 0, 1, 0, 4, 0, 3, 0, 4, 0, 6, 0, 5, 0, 6, 0, 8, 0, 7, 0, 8, 0, 10, 0, 9, 0, 10, 0, 2, 0, 11, 0, 1, 0, 2, 0, 4, 0, 4, 0, 8, 0, 6, 0, 8, 0, 2, 0, 10, 0, 4, 0, 2, 0, 8, 0, 12, 0, 14, 0, 13, 0, 13, 0, 16, 0, 15, 0, 16, 0, 18, 0, 17, 0, 18, 0, 20, 0, 19, 0, 20, 0, 22, 0, 21, 0, 22, 0, 14, 0, 23, 0, 13, 0, 14, 0, 16, 0, 16, 0, 20, 0, 18, 0, 20, 0, 14, 0, 22, 0, 16, 0, 14, 0, 20, 0, 24, 0, 26, 0, 25, 0, 24, 0, 27, 0, 26, 0, 28, 0, 30, 0, 29, 0, 28, 0, 31, 0, 30, 0, 32, 0, 34, 0, 33, 0, 32, 0, 35, 0, 34, 0, 36, 0, 38, 0, 37, 0, 36, 0, 39, 0, 38, 0, 40, 0, 42, 0, 41, 0, 40, 0, 43, 0, 42, 0, 44, 0, 46, 0, 45, 0, 44, 0, 47, 0, 46, 0, 48, 0, 50, 0, 49, 0, 48, 0, 51, 0, 50, 0, 52, 0, 54, 0, 53, 0, 52, 0, 55, 0, 54, 0, 56, 0, 58, 0, 57, 0, 56, 0, 59, 0, 58, 0, 60, 0, 62, 0, 61, 0, 60, 0, 63, 0, 62, 0, 64, 0, 66, 0, 65, 0, 64, 0, 67, 0, 66, 0, 68, 0, 70, 0, 69, 0, 68, 0, 71, 0, 70, 0 ),
"blend_shape_data": [  ],
"format": 98051,
"index_count": 132,
"material": ExtResource( 3 ),
"name": "Material.001",
"primitive": 4,
"skeleton_aabb": [  ],
"vertex_count": 72
}

[sub_resource type="ArrayMesh" id=2]
surfaces/0 = {
"aabb": AABB( -0.0614569, -0.228035, -0.228035, 0.122914, 0.45608, 0.45607 ),
"array_data": PoolByteArray( 221, 171, 76, 51, 210, 43, 0, 60, 130, 0, 0, 0, 221, 171, 76, 51, 210, 171, 0, 60, 130, 0, 0, 0, 221, 171, 87, 49, 87, 49, 0, 60, 130, 0, 0, 0, 221, 171, 87, 49, 87, 177, 0, 60, 130, 0, 0, 0, 221, 171, 210, 43, 76, 179, 0, 60, 130, 0, 0, 0, 221, 171, 210, 171, 76, 179, 0, 60, 130, 0, 0, 0, 221, 171, 87, 177, 87, 177, 0, 60, 130, 0, 0, 0, 221, 171, 76, 179, 210, 171, 0, 60, 130, 0, 0, 0, 221, 171, 76, 179, 210, 43, 0, 60, 130, 0, 0, 0, 221, 171, 87, 177, 87, 49, 0, 60, 130, 0, 0, 0, 221, 171, 210, 171, 76, 51, 0, 60, 130, 0, 0, 0, 221, 171, 210, 43, 76, 51, 0, 60, 130, 0, 0, 0, 221, 43, 76, 51, 210, 43, 0, 60, 127, 0, 0, 0, 221, 43, 87, 49, 87, 49, 0, 60, 127, 0, 0, 0, 221, 43, 76, 51, 210, 171, 0, 60, 127, 0, 0, 0, 221, 43, 210, 43, 76, 51, 0, 60, 127, 0, 0, 0, 221, 43, 210, 171, 76, 51, 0, 60, 127, 0, 0, 0, 221, 43, 87, 177, 87, 49, 0, 60, 127, 0, 0, 0, 221, 43, 76, 179, 210, 43, 0, 60, 127, 0, 0, 0, 221, 43, 76, 179, 210, 171, 0, 60, 127, 0, 0, 0, 221, 43, 87, 177, 87, 177, 0, 60, 127, 0, 0, 0, 221, 43, 210, 171, 76, 179, 0, 60, 127, 0, 0, 0, 221, 43, 210, 43, 76, 179, 0, 60, 127, 0, 0, 0, 221, 43, 87, 49, 87, 177, 0, 60, 127, 0, 0, 0, 221, 171, 87, 177, 87, 177, 0, 60, 0, 193, 147, 0, 221, 171, 210, 171, 76, 179, 0, 60, 0, 193, 147, 0, 221, 43, 210, 171, 76, 179, 0, 60, 0, 193, 147, 0, 221, 43, 87, 177, 87, 177, 0, 60, 0, 193, 147, 0, 221, 171, 210, 43, 76, 51, 0, 60, 0, 0, 126, 0, 221, 171, 210, 171, 76, 51, 0, 60, 0, 0, 126, 0, 221, 43, 210, 171, 76, 51, 0, 60, 0, 0, 126, 0, 221, 43, 210, 43, 76, 51, 0, 60, 0, 0, 126, 0, 221, 171, 210, 171, 76, 179, 0, 60, 0, 0, 129, 0, 221, 171, 210, 43, 76, 179, 0, 60, 0, 0, 129, 0, 221, 43, 210, 43, 76, 179, 0, 60, 0, 0, 129, 0, 221, 43, 210, 171, 76, 179, 0, 60, 0, 0, 129, 0, 221, 171, 210, 171, 76, 51, 0, 60, 0, 193, 109, 0, 221, 171, 87, 177, 87, 49, 0, 60, 0, 193, 109, 0, 221, 43, 87, 177, 87, 49, 0, 60, 0, 193, 109, 0, 221, 43, 210, 171, 76, 51, 0, 60, 0, 193, 109, 0, 221, 171, 210, 43, 76, 179, 0, 60, 0, 63, 147, 0, 221, 171, 87, 49, 87, 177, 0, 60, 0, 63, 147, 0, 221, 43, 87, 49, 87, 177, 0, 60, 0, 63, 147, 0, 221, 43, 210, 43, 76, 179, 0, 60, 0, 63, 147, 0, 221, 171, 87, 177, 87, 49, 0, 60, 0, 147, 63, 0, 221, 171, 76, 179, 210, 43, 0, 60, 0, 147, 63, 0, 221, 43, 76, 179, 210, 43, 0, 60, 0, 147, 63, 0, 221, 43, 87, 177, 87, 49, 0, 60, 0, 147, 63, 0, 221, 171, 87, 49, 87, 177, 0, 60, 0, 109, 193, 0, 221, 171, 76, 51, 210, 171, 0, 60, 0, 109, 193, 0, 221, 43, 76, 51, 210, 171, 0, 60, 0, 109, 193, 0, 221, 43, 87, 49, 87, 177, 0, 60, 0, 109, 193, 0, 221, 171, 76, 179, 210, 43, 0, 60, 0, 130, 0, 0, 221, 171, 76, 179, 210, 171, 0, 60, 0, 130, 0, 0, 221, 43, 76, 179, 210, 171, 0, 60, 0, 130, 0, 0, 221, 43, 76, 179, 210, 43, 0, 60, 0, 130, 0, 0, 221, 171, 76, 51, 210, 43, 0, 60, 0, 109, 63, 0, 221, 171, 87, 49, 87, 49, 0, 60, 0, 109, 63, 0, 221, 43, 87, 49, 87, 49, 0, 60, 0, 109, 63, 0, 221, 43, 76, 51, 210, 43, 0, 60, 0, 109, 63, 0, 221, 171, 76, 51, 210, 171, 0, 60, 0, 127, 0, 0, 221, 171, 76, 51, 210, 43, 0, 60, 0, 127, 0, 0, 221, 43, 76, 51, 210, 43, 0, 60, 0, 127, 0, 0, 221, 43, 76, 51, 210, 171, 0, 60, 0, 127, 0, 0, 221, 171, 76, 179, 210, 171, 0, 60, 0, 147, 193, 0, 221, 171, 87, 177, 87, 177, 0, 60, 0, 147, 193, 0, 221, 43, 87, 177, 87, 177, 0, 60, 0, 147, 193, 0, 221, 43, 76, 179, 210, 171, 0, 60, 0, 147, 193, 0, 221, 171, 87, 49, 87, 49, 0, 60, 0, 63, 109, 0, 221, 171, 210, 43, 76, 51, 0, 60, 0, 63, 109, 0, 221, 43, 210, 43, 76, 51, 0, 60, 0, 63, 109, 0, 221, 43, 87, 49, 87, 49, 0, 60, 0, 63, 109, 0 ),
"array_index_data": PoolByteArray( 0, 0, 2, 0, 1, 0, 1, 0, 4, 0, 3, 0, 4, 0, 6, 0, 5, 0, 6, 0, 8, 0, 7, 0, 8, 0, 10, 0, 9, 0, 10, 0, 2, 0, 11, 0, 1, 0, 2, 0, 4, 0, 4, 0, 8, 0, 6, 0, 8, 0, 2, 0, 10, 0, 4, 0, 2, 0, 8, 0, 12, 0, 14, 0, 13, 0, 13, 0, 16, 0, 15, 0, 16, 0, 18, 0, 17, 0, 18, 0, 20, 0, 19, 0, 20, 0, 22, 0, 21, 0, 22, 0, 14, 0, 23, 0, 13, 0, 14, 0, 16, 0, 16, 0, 20, 0, 18, 0, 20, 0, 14, 0, 22, 0, 16, 0, 14, 0, 20, 0, 24, 0, 26, 0, 25, 0, 24, 0, 27, 0, 26, 0, 28, 0, 30, 0, 29, 0, 28, 0, 31, 0, 30, 0, 32, 0, 34, 0, 33, 0, 32, 0, 35, 0, 34, 0, 36, 0, 38, 0, 37, 0, 36, 0, 39, 0, 38, 0, 40, 0, 42, 0, 41, 0, 40, 0, 43, 0, 42, 0, 44, 0, 46, 0, 45, 0, 44, 0, 47, 0, 46, 0, 48, 0, 50, 0, 49, 0, 48, 0, 51, 0, 50, 0, 52, 0, 54, 0, 53, 0, 52, 0, 55, 0, 54, 0, 56, 0, 58, 0, 57, 0, 56, 0, 59, 0, 58, 0, 60, 0, 62, 0, 61, 0, 60, 0, 63, 0, 62, 0, 64, 0, 66, 0, 65, 0, 64, 0, 67, 0, 66, 0, 68, 0, 70, 0, 69, 0, 68, 0, 71, 0, 70, 0 ),
"blend_shape_data": [  ],
"format": 98051,
"index_count": 132,
"material": ExtResource( 3 ),
"name": "Material.001",
"primitive": 4,
"skeleton_aabb": [  ],
"vertex_count": 72
}

[sub_resource type="ArrayMesh" id=3]
surfaces/0 = {
"aabb": AABB( -0.061457, -0.228035, -0.228035, 0.122924, 0.45608, 0.45607 ),
"array_data": PoolByteArray( 221, 43, 76, 51, 210, 43, 0, 60, 127, 0, 0, 0, 221, 43, 87, 49, 87, 49, 0, 60, 127, 0, 0, 0, 221, 43, 76, 51, 210, 171, 0, 60, 127, 0, 0, 0, 221, 43, 210, 43, 76, 51, 0, 60, 127, 0, 0, 0, 221, 43, 210, 171, 76, 51, 0, 60, 127, 0, 0, 0, 221, 43, 87, 177, 87, 49, 0, 60, 127, 0, 0, 0, 221, 43, 76, 179, 210, 43, 0, 60, 127, 0, 0, 0, 221, 43, 76, 179, 210, 171, 0, 60, 127, 0, 0, 0, 221, 43, 87, 177, 87, 177, 0, 60, 127, 0, 0, 0, 221, 43, 210, 171, 76, 179, 0, 60, 127, 0, 0, 0, 221, 43, 210, 43, 76, 179, 0, 60, 127, 0, 0, 0, 221, 43, 87, 49, 87, 177, 0, 60, 127, 0, 0, 0, 221, 171, 76, 51, 210, 43, 0, 60, 130, 0, 0, 0, 221, 171, 76, 51, 210, 171, 0, 60, 130, 0, 0, 0, 221, 171, 87, 49, 87, 49, 0, 60, 130, 0, 0, 0, 221, 171, 87, 49, 87, 177, 0, 60, 130, 0, 0, 0, 221, 171, 210, 43, 76, 179, 0, 60, 130, 0, 0, 0, 221, 171, 210, 171, 76, 179, 0, 60, 130, 0, 0, 0, 221, 171, 87, 177, 87, 177, 0, 60, 130, 0, 0, 0, 221, 171, 76, 179, 210, 171, 0, 60, 130, 0, 0, 0, 221, 171, 76, 179, 210, 43, 0, 60, 130, 0, 0, 0, 221, 171, 87, 177, 87, 49, 0, 60, 130, 0, 0, 0, 221, 171, 210, 171, 76, 51, 0, 60, 130, 0, 0, 0, 221, 171, 210, 43, 76, 51, 0, 60, 130, 0, 0, 0, 221, 43, 87, 177, 87, 177, 0, 60, 0, 193, 147, 0, 221, 171, 87, 177, 87, 177, 0, 60, 0, 193, 147, 0, 221, 171, 210, 171, 76, 179, 0, 60, 0, 193, 147, 0, 221, 43, 210, 171, 76, 179, 0, 60, 0, 193, 147, 0, 221, 43, 210, 43, 76, 51, 0, 60, 0, 0, 126, 0, 221, 171, 210, 43, 76, 51, 0, 60, 0, 0, 126, 0, 221, 171, 210, 171, 76, 51, 0, 60, 0, 0, 126, 0, 221, 43, 210, 171, 76, 51, 0, 60, 0, 0, 126, 0, 221, 43, 210, 171, 76, 179, 0, 60, 0, 0, 129, 0, 221, 171, 210, 171, 76, 179, 0, 60, 0, 0, 129, 0, 221, 171, 210, 43, 76, 179, 0, 60, 0, 0, 129, 0, 221, 43, 210, 43, 76, 179, 0, 60, 0, 0, 129, 0, 221, 43, 210, 171, 76, 51, 0, 60, 0, 193, 109, 0, 221, 171, 210, 171, 76, 51, 0, 60, 0, 193, 109, 0, 221, 171, 87, 177, 87, 49, 0, 60, 0, 193, 109, 0, 221, 43, 87, 177, 87, 49, 0, 60, 0, 193, 109, 0, 221, 43, 210, 43, 76, 179, 0, 60, 0, 63, 147, 0, 221, 171, 210, 43, 76, 179, 0, 60, 0, 63, 147, 0, 221, 171, 87, 49, 87, 177, 0, 60, 0, 63, 147, 0, 221, 43, 87, 49, 87, 177, 0, 60, 0, 63, 147, 0, 221, 43, 87, 177, 87, 49, 0, 60, 0, 147, 63, 0, 221, 171, 87, 177, 87, 49, 0, 60, 0, 147, 63, 0, 221, 171, 76, 179, 210, 43, 0, 60, 0, 147, 63, 0, 221, 43, 76, 179, 210, 43, 0, 60, 0, 147, 63, 0, 221, 43, 87, 49, 87, 177, 0, 60, 0, 109, 193, 0, 221, 171, 87, 49, 87, 177, 0, 60, 0, 109, 193, 0, 221, 171, 76, 51, 210, 171, 0, 60, 0, 109, 193, 0, 221, 43, 76, 51, 210, 171, 0, 60, 0, 109, 193, 0, 221, 43, 76, 179, 210, 43, 0, 60, 0, 130, 0, 0, 221, 171, 76, 179, 210, 43, 0, 60, 0, 130, 0, 0, 221, 171, 76, 179, 210, 171, 0, 60, 0, 130, 0, 0, 221, 43, 76, 179, 210, 171, 0, 60, 0, 130, 0, 0, 221, 43, 76, 51, 210, 43, 0, 60, 0, 109, 63, 0, 221, 171, 76, 51, 210, 43, 0, 60, 0, 109, 63, 0, 221, 171, 87, 49, 87, 49, 0, 60, 0, 109, 63, 0, 221, 43, 87, 49, 87, 49, 0, 60, 0, 109, 63, 0, 221, 171, 76, 51, 210, 43, 0, 60, 0, 127, 0, 0, 221, 43, 76, 51, 210, 43, 0, 60, 0, 127, 0, 0, 221, 43, 76, 51, 210, 171, 0, 60, 0, 127, 0, 0, 221, 171, 76, 51, 210, 171, 0, 60, 0, 127, 0, 0, 221, 43, 76, 179, 210, 171, 0, 60, 0, 147, 193, 0, 221, 171, 76, 179, 210, 171, 0, 60, 0, 147, 193, 0, 221, 171, 87, 177, 87, 177, 0, 60, 0, 147, 193, 0, 221, 43, 87, 177, 87, 177, 0, 60, 0, 147, 193, 0, 221, 43, 87, 49, 87, 49, 0, 60, 0, 63, 109, 0, 221, 171, 87, 49, 87, 49, 0, 60, 0, 63, 109, 0, 221, 171, 210, 43, 76, 51, 0, 60, 0, 63, 109, 0, 221, 43, 210, 43, 76, 51, 0, 60, 0, 63, 109, 0 ),
"array_index_data": PoolByteArray( 0, 0, 2, 0, 1, 0, 1, 0, 4, 0, 3, 0, 4, 0, 6, 0, 5, 0, 6, 0, 8, 0, 7, 0, 8, 0, 10, 0, 9, 0, 10, 0, 2, 0, 11, 0, 1, 0, 2, 0, 4, 0, 4, 0, 8, 0, 6, 0, 8, 0, 2, 0, 10, 0, 4, 0, 2, 0, 8, 0, 12, 0, 14, 0, 13, 0, 13, 0, 16, 0, 15, 0, 16, 0, 18, 0, 17, 0, 18, 0, 20, 0, 19, 0, 20, 0, 22, 0, 21, 0, 22, 0, 14, 0, 23, 0, 13, 0, 14, 0, 16, 0, 16, 0, 20, 0, 18, 0, 20, 0, 14, 0, 22, 0, 16, 0, 14, 0, 20, 0, 24, 0, 26, 0, 25, 0, 24, 0, 27, 0, 26, 0, 28, 0, 30, 0, 29, 0, 28, 0, 31, 0, 30, 0, 32, 0, 34, 0, 33, 0, 32, 0, 35, 0, 34, 0, 36, 0, 38, 0, 37, 0, 36, 0, 39, 0, 38, 0, 40, 0, 42, 0, 41, 0, 40, 0, 43, 0, 42, 0, 44, 0, 46, 0, 45, 0, 44, 0, 47, 0, 46, 0, 48, 0, 50, 0, 49, 0, 48, 0, 51, 0, 50, 0, 52, 0, 54, 0, 53, 0, 52, 0, 55, 0, 54, 0, 56, 0, 58, 0, 57, 0, 56, 0, 59, 0, 58, 0, 60, 0, 62, 0, 61, 0, 60, 0, 63, 0, 62, 0, 64, 0, 66, 0, 65, 0, 64, 0, 67, 0, 66, 0, 68, 0, 70, 0, 69, 0, 68, 0, 71, 0, 70, 0 ),
"blend_shape_data": [  ],
"format": 98051,
"index_count": 132,
"material": ExtResource( 3 ),
"name": "Material.001",
"primitive": 4,
"skeleton_aabb": [  ],
"vertex_count": 72
}

[sub_resource type="ArrayMesh" id=4]
surfaces/0 = {
"aabb": AABB( -0.061457, -0.228035, -0.228035, 0.122924, 0.45608, 0.45607 ),
"array_data": PoolByteArray( 221, 43, 76, 51, 210, 43, 0, 60, 127, 0, 0, 0, 221, 43, 87, 49, 87, 49, 0, 60, 127, 0, 0, 0, 221, 43, 76, 51, 210, 171, 0, 60, 127, 0, 0, 0, 221, 43, 210, 43, 76, 51, 0, 60, 127, 0, 0, 0, 221, 43, 210, 171, 76, 51, 0, 60, 127, 0, 0, 0, 221, 43, 87, 177, 87, 49, 0, 60, 127, 0, 0, 0, 221, 43, 76, 179, 210, 43, 0, 60, 127, 0, 0, 0, 221, 43, 76, 179, 210, 171, 0, 60, 127, 0, 0, 0, 221, 43, 87, 177, 87, 177, 0, 60, 127, 0, 0, 0, 221, 43, 210, 171, 76, 179, 0, 60, 127, 0, 0, 0, 221, 43, 210, 43, 76, 179, 0, 60, 127, 0, 0, 0, 221, 43, 87, 49, 87, 177, 0, 60, 127, 0, 0, 0, 221, 171, 76, 51, 210, 43, 0, 60, 130, 0, 0, 0, 221, 171, 76, 51, 210, 171, 0, 60, 130, 0, 0, 0, 221, 171, 87, 49, 87, 49, 0, 60, 130, 0, 0, 0, 221, 171, 87, 49, 87, 177, 0, 60, 130, 0, 0, 0, 221, 171, 210, 43, 76, 179, 0, 60, 130, 0, 0, 0, 221, 171, 210, 171, 76, 179, 0, 60, 130, 0, 0, 0, 221, 171, 87, 177, 87, 177, 0, 60, 130, 0, 0, 0, 221, 171, 76, 179, 210, 171, 0, 60, 130, 0, 0, 0, 221, 171, 76, 179, 210, 43, 0, 60, 130, 0, 0, 0, 221, 171, 87, 177, 87, 49, 0, 60, 130, 0, 0, 0, 221, 171, 210, 171, 76, 51, 0, 60, 130, 0, 0, 0, 221, 171, 210, 43, 76, 51, 0, 60, 130, 0, 0, 0, 221, 43, 87, 177, 87, 177, 0, 60, 0, 193, 147, 0, 221, 171, 87, 177, 87, 177, 0, 60, 0, 193, 147, 0, 221, 171, 210, 171, 76, 179, 0, 60, 0, 193, 147, 0, 221, 43, 210, 171, 76, 179, 0, 60, 0, 193, 147, 0, 221, 43, 210, 43, 76, 51, 0, 60, 0, 0, 126, 0, 221, 171, 210, 43, 76, 51, 0, 60, 0, 0, 126, 0, 221, 171, 210, 171, 76, 51, 0, 60, 0, 0, 126, 0, 221, 43, 210, 171, 76, 51, 0, 60, 0, 0, 126, 0, 221, 43, 210, 171, 76, 179, 0, 60, 0, 0, 129, 0, 221, 171, 210, 171, 76, 179, 0, 60, 0, 0, 129, 0, 221, 171, 210, 43, 76, 179, 0, 60, 0, 0, 129, 0, 221, 43, 210, 43, 76, 179, 0, 60, 0, 0, 129, 0, 221, 43, 210, 171, 76, 51, 0, 60, 0, 193, 109, 0, 221, 171, 210, 171, 76, 51, 0, 60, 0, 193, 109, 0, 221, 171, 87, 177, 87, 49, 0, 60, 0, 193, 109, 0, 221, 43, 87, 177, 87, 49, 0, 60, 0, 193, 109, 0, 221, 43, 210, 43, 76, 179, 0, 60, 0, 63, 147, 0, 221, 171, 210, 43, 76, 179, 0, 60, 0, 63, 147, 0, 221, 171, 87, 49, 87, 177, 0, 60, 0, 63, 147, 0, 221, 43, 87, 49, 87, 177, 0, 60, 0, 63, 147, 0, 221, 43, 87, 177, 87, 49, 0, 60, 0, 147, 63, 0, 221, 171, 87, 177, 87, 49, 0, 60, 0, 147, 63, 0, 221, 171, 76, 179, 210, 43, 0, 60, 0, 147, 63, 0, 221, 43, 76, 179, 210, 43, 0, 60, 0, 147, 63, 0, 221, 43, 87, 49, 87, 177, 0, 60, 0, 109, 193, 0, 221, 171, 87, 49, 87, 177, 0, 60, 0, 109, 193, 0, 221, 171, 76, 51, 210, 171, 0, 60, 0, 109, 193, 0, 221, 43, 76, 51, 210, 171, 0, 60, 0, 109, 193, 0, 221, 43, 76, 179, 210, 43, 0, 60, 0, 130, 0, 0, 221, 171, 76, 179, 210, 43, 0, 60, 0, 130, 0, 0, 221, 171, 76, 179, 210, 171, 0, 60, 0, 130, 0, 0, 221, 43, 76, 179, 210, 171, 0, 60, 0, 130, 0, 0, 221, 43, 76, 51, 210, 43, 0, 60, 0, 109, 63, 0, 221, 171, 76, 51, 210, 43, 0, 60, 0, 109, 63, 0, 221, 171, 87, 49, 87, 49, 0, 60, 0, 109, 63, 0, 221, 43, 87, 49, 87, 49, 0, 60, 0, 109, 63, 0, 221, 171, 76, 51, 210, 43, 0, 60, 0, 127, 0, 0, 221, 43, 76, 51, 210, 43, 0, 60, 0, 127, 0, 0, 221, 43, 76, 51, 210, 171, 0, 60, 0, 127, 0, 0, 221, 171, 76, 51, 210, 171, 0, 60, 0, 127, 0, 0, 221, 43, 76, 179, 210, 171, 0, 60, 0, 147, 193, 0, 221, 171, 76, 179, 210, 171, 0, 60, 0, 147, 193, 0, 221, 171, 87, 177, 87, 177, 0, 60, 0, 147, 193, 0, 221, 43, 87, 177, 87, 177, 0, 60, 0, 147, 193, 0, 221, 43, 87, 49, 87, 49, 0, 60, 0, 63, 109, 0, 221, 171, 87, 49, 87, 49, 0, 60, 0, 63, 109, 0, 221, 171, 210, 43, 76, 51, 0, 60, 0, 63, 109, 0, 221, 43, 210, 43, 76, 51, 0, 60, 0, 63, 109, 0 ),
"array_index_data": PoolByteArray( 0, 0, 2, 0, 1, 0, 1, 0, 4, 0, 3, 0, 4, 0, 6, 0, 5, 0, 6, 0, 8, 0, 7, 0, 8, 0, 10, 0, 9, 0, 10, 0, 2, 0, 11, 0, 1, 0, 2, 0, 4, 0, 4, 0, 8, 0, 6, 0, 8, 0, 2, 0, 10, 0, 4, 0, 2, 0, 8, 0, 12, 0, 14, 0, 13, 0, 13, 0, 16, 0, 15, 0, 16, 0, 18, 0, 17, 0, 18, 0, 20, 0, 19, 0, 20, 0, 22, 0, 21, 0, 22, 0, 14, 0, 23, 0, 13, 0, 14, 0, 16, 0, 16, 0, 20, 0, 18, 0, 20, 0, 14, 0, 22, 0, 16, 0, 14, 0, 20, 0, 24, 0, 26, 0, 25, 0, 24, 0, 27, 0, 26, 0, 28, 0, 30, 0, 29, 0, 28, 0, 31, 0, 30, 0, 32, 0, 34, 0, 33, 0, 32, 0, 35, 0, 34, 0, 36, 0, 38, 0, 37, 0, 36, 0, 39, 0, 38, 0, 40, 0, 42, 0, 41, 0, 40, 0, 43, 0, 42, 0, 44, 0, 46, 0, 45, 0, 44, 0, 47, 0, 46, 0, 48, 0, 50, 0, 49, 0, 48, 0, 51, 0, 50, 0, 52, 0, 54, 0, 53, 0, 52, 0, 55, 0, 54, 0, 56, 0, 58, 0, 57, 0, 56, 0, 59, 0, 58, 0, 60, 0, 62, 0, 61, 0, 60, 0, 63, 0, 62, 0, 64, 0, 66, 0, 65, 0, 64, 0, 67, 0, 66, 0, 68, 0, 70, 0, 69, 0, 68, 0, 71, 0, 70, 0 ),
"blend_shape_data": [  ],
"format": 98051,
"index_count": 132,
"material": ExtResource( 3 ),
"name": "Material.001",
"primitive": 4,
"skeleton_aabb": [  ],
"vertex_count": 72
}

[sub_resource type="ArrayMesh" id=5]
surfaces/0 = {
"aabb": AABB( -0.654197, -0.437319, -1.98218, 1.30839, 0.674851, 3.89317 ),
"array_data": PoolByteArray( 87, 176, 154, 177, 238, 62, 0, 60, 130, 0, 0, 0, 87, 176, 154, 177, 164, 63, 0, 60, 130, 0, 0, 0, 87, 176, 153, 51, 164, 63, 0, 60, 130, 0, 0, 0, 87, 176, 153, 51, 238, 62, 0, 60, 130, 0, 0, 0, 87, 176, 153, 51, 238, 62, 0, 60, 0, 0, 129, 0, 8, 48, 153, 51, 238, 62, 0, 60, 0, 0, 129, 0, 8, 48, 154, 177, 238, 62, 0, 60, 0, 0, 129, 0, 87, 176, 154, 177, 238, 62, 0, 60, 0, 0, 129, 0, 8, 48, 153, 51, 238, 62, 0, 60, 127, 0, 0, 0, 8, 48, 153, 51, 164, 63, 0, 60, 127, 0, 0, 0, 8, 48, 154, 177, 164, 63, 0, 60, 127, 0, 0, 0, 8, 48, 154, 177, 238, 62, 0, 60, 127, 0, 0, 0, 87, 176, 154, 177, 164, 63, 0, 60, 0, 0, 126, 0, 8, 48, 154, 177, 164, 63, 0, 60, 0, 0, 126, 0, 8, 48, 153, 51, 164, 63, 0, 60, 0, 0, 126, 0, 87, 176, 153, 51, 164, 63, 0, 60, 0, 0, 126, 0, 87, 176, 154, 177, 164, 63, 0, 60, 0, 130, 0, 0, 87, 176, 154, 177, 238, 62, 0, 60, 0, 130, 0, 0, 8, 48, 154, 177, 238, 62, 0, 60, 0, 130, 0, 0, 8, 48, 154, 177, 164, 63, 0, 60, 0, 130, 0, 0, 8, 48, 153, 51, 164, 63, 0, 60, 0, 127, 0, 0, 8, 48, 153, 51, 238, 62, 0, 60, 0, 127, 0, 0, 87, 176, 153, 51, 238, 62, 0, 60, 0, 127, 0, 0, 87, 176, 153, 51, 164, 63, 0, 60, 0, 127, 0, 0, 0, 0, 233, 175, 167, 191, 0, 60, 0, 27, 132, 0, 5, 56, 233, 175, 167, 191, 0, 60, 0, 27, 132, 0, 5, 56, 255, 182, 237, 191, 0, 60, 0, 27, 132, 0, 0, 0, 255, 182, 237, 191, 0, 60, 0, 27, 132, 0, 5, 56, 255, 182, 237, 191, 0, 60, 127, 0, 0, 0, 5, 56, 233, 175, 167, 191, 0, 60, 127, 0, 0, 0, 5, 56, 221, 175, 196, 190, 0, 60, 127, 0, 0, 0, 5, 56, 255, 182, 69, 191, 0, 60, 127, 0, 0, 0, 5, 184, 221, 175, 108, 189, 0, 60, 130, 0, 0, 0, 5, 184, 242, 175, 56, 188, 0, 60, 130, 0, 0, 0, 5, 184, 41, 38, 56, 188, 0, 60, 130, 0, 0, 0, 5, 184, 125, 38, 108, 189, 0, 60, 130, 0, 0, 0, 5, 56, 221, 175, 108, 189, 0, 60, 12, 52, 115, 0, 5, 56, 255, 182, 235, 188, 0, 60, 12, 52, 115, 0, 59, 57, 255, 182, 235, 188, 0, 60, 12, 52, 115, 0, 59, 57, 13, 177, 125, 189, 0, 60, 12, 52, 115, 0, 5, 56, 233, 175, 167, 191, 0, 60, 0, 0, 129, 0, 0, 0, 233, 175, 167, 191, 0, 60, 0, 0, 129, 0, 0, 0, 78, 38, 167, 191, 0, 60, 0, 0, 129, 0, 5, 56, 78, 38, 167, 191, 0, 60, 0, 0, 129, 0, 5, 56, 255, 182, 69, 191, 0, 60, 12, 52, 141, 0, 5, 56, 221, 175, 196, 190, 0, 60, 12, 52, 141, 0, 59, 57, 13, 177, 179, 190, 0, 60, 12, 52, 141, 0, 59, 57, 255, 182, 69, 191, 0, 60, 12, 52, 141, 0, 5, 56, 221, 175, 196, 190, 0, 60, 28, 123, 0, 0, 5, 56, 221, 175, 108, 189, 0, 60, 28, 123, 0, 0, 59, 57, 13, 177, 125, 189, 0, 60, 28, 123, 0, 0, 59, 57, 13, 177, 179, 190, 0, 60, 28, 123, 0, 0, 5, 184, 255, 182, 237, 191, 0, 60, 0, 27, 132, 0, 5, 184, 233, 175, 167, 191, 0, 60, 0, 27, 132, 0, 5, 184, 255, 182, 237, 191, 0, 60, 130, 0, 0, 0, 5, 184, 255, 182, 69, 191, 0, 60, 130, 0, 0, 0, 5, 184, 221, 175, 196, 190, 0, 60, 130, 0, 0, 0, 5, 184, 233, 175, 167, 191, 0, 60, 130, 0, 0, 0, 5, 184, 221, 175, 108, 189, 0, 60, 244, 52, 115, 0, 59, 185, 13, 177, 125, 189, 0, 60, 244, 52, 115, 0, 59, 185, 255, 182, 235, 188, 0, 60, 244, 52, 115, 0, 5, 184, 255, 182, 235, 188, 0, 60, 244, 52, 115, 0, 5, 184, 255, 182, 69, 191, 0, 60, 244, 52, 141, 0, 59, 185, 255, 182, 69, 191, 0, 60, 244, 52, 141, 0, 59, 185, 13, 177, 179, 190, 0, 60, 244, 52, 141, 0, 5, 184, 221, 175, 196, 190, 0, 60, 244, 52, 141, 0, 5, 184, 221, 175, 196, 190, 0, 60, 228, 123, 0, 0, 59, 185, 13, 177, 179, 190, 0, 60, 228, 123, 0, 0, 59, 185, 13, 177, 125, 189, 0, 60, 228, 123, 0, 0, 5, 184, 221, 175, 108, 189, 0, 60, 228, 123, 0, 0, 5, 184, 233, 175, 77, 178, 0, 60, 127, 0, 0, 0, 5, 184, 221, 175, 179, 182, 0, 60, 127, 0, 0, 0, 5, 184, 125, 38, 179, 182, 0, 60, 127, 0, 0, 0, 5, 184, 78, 38, 77, 178, 0, 60, 127, 0, 0, 0, 5, 56, 221, 175, 9, 186, 0, 60, 130, 0, 0, 0, 5, 56, 221, 175, 179, 182, 0, 60, 130, 0, 0, 0, 5, 56, 125, 38, 179, 182, 0, 60, 130, 0, 0, 0, 5, 56, 125, 38, 9, 186, 0, 60, 130, 0, 0, 0, 0, 0, 233, 175, 77, 178, 0, 60, 0, 229, 132, 0, 5, 56, 233, 175, 77, 178, 0, 60, 0, 229, 132, 0, 5, 56, 255, 182, 27, 176, 0, 60, 0, 229, 132, 0, 0, 0, 255, 182, 27, 176, 0, 60, 0, 229, 132, 0, 5, 56, 255, 182, 27, 176, 0, 60, 130, 0, 0, 0, 5, 56, 233, 175, 77, 178, 0, 60, 130, 0, 0, 0, 5, 56, 255, 182, 175, 180, 0, 60, 130, 0, 0, 0, 5, 56, 242, 175, 56, 188, 0, 60, 130, 0, 0, 0, 5, 56, 41, 38, 56, 188, 0, 60, 130, 0, 0, 0, 5, 56, 221, 175, 9, 186, 0, 60, 244, 205, 115, 0, 5, 56, 255, 182, 11, 187, 0, 60, 244, 205, 115, 0, 59, 57, 255, 182, 11, 187, 0, 60, 244, 205, 115, 0, 59, 57, 13, 177, 230, 185, 0, 60, 244, 205, 115, 0, 5, 184, 221, 175, 9, 186, 0, 60, 127, 0, 0, 0, 5, 184, 242, 175, 56, 188, 0, 60, 127, 0, 0, 0, 5, 184, 41, 38, 56, 188, 0, 60, 127, 0, 0, 0, 5, 184, 125, 38, 9, 186, 0, 60, 127, 0, 0, 0, 5, 56, 255, 182, 175, 180, 0, 60, 244, 205, 141, 0, 5, 56, 221, 175, 179, 182, 0, 60, 244, 205, 141, 0, 59, 57, 13, 177, 248, 182, 0, 60, 244, 205, 141, 0, 59, 57, 255, 182, 175, 180, 0, 60, 244, 205, 141, 0, 5, 56, 221, 175, 179, 182, 0, 60, 228, 133, 0, 0, 5, 56, 221, 175, 9, 186, 0, 60, 228, 133, 0, 0, 59, 57, 13, 177, 230, 185, 0, 60, 228, 133, 0, 0, 59, 57, 13, 177, 248, 182, 0, 60, 228, 133, 0, 0, 5, 56, 255, 182, 11, 187, 0, 60, 0, 130, 0, 0, 5, 56, 255, 182, 56, 188, 0, 60, 0, 130, 0, 0, 59, 57, 255, 182, 56, 188, 0, 60, 0, 130, 0, 0, 59, 57, 255, 182, 11, 187, 0, 60, 0, 130, 0, 0, 5, 184, 255, 182, 27, 176, 0, 60, 0, 229, 132, 0, 5, 184, 233, 175, 77, 178, 0, 60, 0, 229, 132, 0, 5, 184, 255, 182, 27, 176, 0, 60, 127, 0, 0, 0, 5, 184, 255, 182, 175, 180, 0, 60, 127, 0, 0, 0, 5, 184, 255, 182, 11, 187, 0, 60, 127, 0, 0, 0, 5, 184, 255, 182, 56, 188, 0, 60, 127, 0, 0, 0, 5, 184, 221, 175, 9, 186, 0, 60, 12, 205, 115, 0, 59, 185, 13, 177, 230, 185, 0, 60, 12, 205, 115, 0, 59, 185, 255, 182, 11, 187, 0, 60, 12, 205, 115, 0, 5, 184, 255, 182, 11, 187, 0, 60, 12, 205, 115, 0, 5, 56, 255, 182, 56, 188, 0, 60, 130, 0, 0, 0, 5, 56, 255, 182, 11, 187, 0, 60, 130, 0, 0, 0, 5, 184, 255, 182, 175, 180, 0, 60, 12, 205, 141, 0, 59, 185, 255, 182, 175, 180, 0, 60, 12, 205, 141, 0, 59, 185, 13, 177, 248, 182, 0, 60, 12, 205, 141, 0, 5, 184, 221, 175, 179, 182, 0, 60, 12, 205, 141, 0, 5, 184, 221, 175, 179, 182, 0, 60, 28, 133, 0, 0, 59, 185, 13, 177, 248, 182, 0, 60, 28, 133, 0, 0, 59, 185, 13, 177, 230, 185, 0, 60, 28, 133, 0, 0, 5, 184, 221, 175, 9, 186, 0, 60, 28, 133, 0, 0, 5, 184, 255, 182, 11, 187, 0, 60, 0, 130, 0, 0, 59, 185, 255, 182, 11, 187, 0, 60, 0, 130, 0, 0, 59, 185, 255, 182, 56, 188, 0, 60, 0, 130, 0, 0, 5, 184, 255, 182, 56, 188, 0, 60, 0, 130, 0, 0, 5, 184, 125, 38, 196, 190, 0, 60, 130, 0, 0, 0, 5, 184, 233, 175, 167, 191, 0, 60, 0, 0, 129, 0, 5, 184, 78, 38, 167, 191, 0, 60, 0, 0, 129, 0, 5, 56, 78, 38, 167, 191, 0, 60, 127, 0, 0, 0, 5, 56, 125, 38, 196, 190, 0, 60, 127, 0, 0, 0, 0, 0, 255, 182, 56, 188, 0, 60, 0, 130, 0, 0, 0, 0, 255, 182, 237, 191, 0, 60, 0, 130, 0, 0, 5, 56, 255, 182, 237, 191, 0, 60, 0, 130, 0, 0, 5, 56, 255, 182, 69, 191, 0, 60, 0, 130, 0, 0, 5, 56, 255, 182, 69, 191, 0, 60, 0, 0, 0, 0, 5, 56, 255, 182, 235, 188, 0, 60, 0, 0, 0, 0, 5, 56, 255, 182, 56, 188, 0, 60, 0, 0, 0, 0, 5, 56, 255, 182, 235, 188, 0, 60, 0, 127, 0, 0, 5, 56, 255, 182, 56, 188, 0, 60, 0, 127, 0, 0, 59, 57, 255, 182, 56, 188, 0, 60, 0, 127, 0, 0, 59, 57, 255, 182, 235, 188, 0, 60, 0, 127, 0, 0, 5, 184, 255, 182, 235, 188, 0, 60, 0, 0, 0, 0, 5, 184, 255, 182, 69, 191, 0, 60, 0, 0, 0, 0, 5, 184, 255, 182, 237, 191, 0, 60, 0, 0, 0, 0, 5, 184, 255, 182, 237, 191, 0, 60, 0, 130, 0, 0, 5, 184, 255, 182, 56, 188, 0, 60, 0, 0, 0, 0, 5, 184, 255, 182, 235, 188, 0, 60, 130, 0, 0, 0, 5, 184, 255, 182, 56, 188, 0, 60, 130, 0, 0, 0, 5, 56, 255, 182, 56, 188, 0, 60, 127, 0, 0, 0, 5, 56, 255, 182, 235, 188, 0, 60, 127, 0, 0, 0, 5, 56, 221, 175, 108, 189, 0, 60, 127, 0, 0, 0, 5, 56, 242, 175, 56, 188, 0, 60, 127, 0, 0, 0, 5, 184, 255, 182, 235, 188, 0, 60, 0, 127, 0, 0, 59, 185, 255, 182, 235, 188, 0, 60, 0, 127, 0, 0, 59, 185, 255, 182, 56, 188, 0, 60, 0, 127, 0, 0, 5, 184, 255, 182, 56, 188, 0, 60, 0, 127, 0, 0, 0, 0, 255, 182, 56, 188, 0, 60, 0, 127, 0, 0, 0, 0, 255, 182, 27, 176, 0, 60, 0, 127, 0, 0, 5, 56, 255, 182, 27, 176, 0, 60, 0, 127, 0, 0, 5, 56, 255, 182, 175, 180, 0, 60, 0, 127, 0, 0, 5, 56, 255, 182, 175, 180, 0, 60, 0, 0, 0, 0, 5, 56, 255, 182, 11, 187, 0, 60, 0, 0, 0, 0, 5, 184, 255, 182, 11, 187, 0, 60, 0, 0, 0, 0, 5, 184, 255, 182, 175, 180, 0, 60, 0, 0, 0, 0, 5, 184, 255, 182, 27, 176, 0, 60, 0, 0, 0, 0, 5, 184, 255, 182, 27, 176, 0, 60, 0, 127, 0, 0, 0, 0, 78, 38, 167, 191, 0, 60, 0, 127, 0, 0, 5, 184, 78, 38, 167, 191, 0, 60, 0, 127, 0, 0, 5, 184, 125, 38, 196, 190, 0, 60, 0, 127, 0, 0, 5, 56, 78, 38, 167, 191, 0, 60, 0, 127, 0, 0, 5, 56, 125, 38, 196, 190, 0, 60, 0, 127, 0, 0, 5, 184, 125, 38, 108, 189, 0, 60, 0, 127, 0, 0, 5, 56, 125, 38, 108, 189, 0, 60, 0, 127, 0, 0, 5, 56, 125, 38, 196, 190, 0, 60, 0, 127, 0, 0, 5, 184, 125, 38, 196, 190, 0, 60, 0, 127, 0, 0, 0, 0, 78, 38, 77, 178, 0, 60, 0, 130, 0, 0, 5, 184, 78, 38, 77, 178, 0, 60, 0, 130, 0, 0, 5, 184, 125, 38, 179, 182, 0, 60, 0, 130, 0, 0, 5, 56, 78, 38, 77, 178, 0, 60, 0, 130, 0, 0, 5, 56, 125, 38, 179, 182, 0, 60, 0, 130, 0, 0, 5, 184, 125, 38, 9, 186, 0, 60, 0, 130, 0, 0, 5, 56, 125, 38, 9, 186, 0, 60, 0, 130, 0, 0, 5, 56, 125, 38, 179, 182, 0, 60, 0, 130, 0, 0, 5, 184, 125, 38, 179, 182, 0, 60, 0, 130, 0, 0, 5, 184, 41, 38, 56, 188, 0, 60, 0, 130, 0, 0, 5, 56, 41, 38, 56, 188, 0, 60, 0, 130, 0, 0, 5, 56, 125, 38, 9, 186, 0, 60, 0, 130, 0, 0, 5, 184, 125, 38, 9, 186, 0, 60, 0, 130, 0, 0, 5, 184, 41, 38, 56, 188, 0, 60, 0, 127, 0, 0, 5, 56, 41, 38, 56, 188, 0, 60, 0, 127, 0, 0, 5, 56, 125, 38, 108, 189, 0, 60, 0, 127, 0, 0, 5, 184, 125, 38, 108, 189, 0, 60, 0, 127, 0, 0, 5, 56, 125, 38, 108, 189, 0, 60, 127, 0, 0, 0, 5, 184, 78, 38, 167, 191, 0, 60, 130, 0, 0, 0, 5, 56, 233, 175, 77, 178, 0, 60, 0, 0, 129, 0, 0, 0, 233, 175, 77, 178, 0, 60, 0, 0, 129, 0, 0, 0, 78, 38, 77, 178, 0, 60, 0, 0, 129, 0, 5, 56, 78, 38, 77, 178, 0, 60, 0, 0, 129, 0, 5, 184, 233, 175, 77, 178, 0, 60, 0, 0, 129, 0, 5, 184, 78, 38, 77, 178, 0, 60, 0, 0, 129, 0, 5, 56, 78, 38, 77, 178, 0, 60, 130, 0, 0, 0, 5, 56, 41, 38, 56, 188, 0, 60, 127, 0, 0, 0 ),
"array_index_data": PoolByteArray( 0, 0, 2, 0, 1, 0, 0, 0, 3, 0, 2, 0, 4, 0, 6, 0, 5, 0, 4, 0, 7, 0, 6, 0, 8, 0, 10, 0, 9, 0, 8, 0, 11, 0, 10, 0, 12, 0, 14, 0, 13, 0, 12, 0, 15, 0, 14, 0, 16, 0, 18, 0, 17, 0, 16, 0, 19, 0, 18, 0, 20, 0, 22, 0, 21, 0, 20, 0, 23, 0, 22, 0, 24, 0, 26, 0, 25, 0, 24, 0, 27, 0, 26, 0, 28, 0, 30, 0, 29, 0, 28, 0, 31, 0, 30, 0, 32, 0, 34, 0, 33, 0, 32, 0, 35, 0, 34, 0, 36, 0, 38, 0, 37, 0, 36, 0, 39, 0, 38, 0, 40, 0, 42, 0, 41, 0, 40, 0, 43, 0, 42, 0, 44, 0, 46, 0, 45, 0, 44, 0, 47, 0, 46, 0, 48, 0, 50, 0, 49, 0, 48, 0, 51, 0, 50, 0, 24, 0, 52, 0, 27, 0, 24, 0, 53, 0, 52, 0, 54, 0, 56, 0, 55, 0, 54, 0, 57, 0, 56, 0, 58, 0, 60, 0, 59, 0, 58, 0, 61, 0, 60, 0, 62, 0, 64, 0, 63, 0, 62, 0, 65, 0, 64, 0, 66, 0, 68, 0, 67, 0, 66, 0, 69, 0, 68, 0, 70, 0, 72, 0, 71, 0, 70, 0, 73, 0, 72, 0, 74, 0, 76, 0, 75, 0, 74, 0, 77, 0, 76, 0, 78, 0, 80, 0, 79, 0, 78, 0, 81, 0, 80, 0, 82, 0, 75, 0, 83, 0, 82, 0, 84, 0, 75, 0, 85, 0, 77, 0, 74, 0, 85, 0, 86, 0, 77, 0, 87, 0, 89, 0, 88, 0, 87, 0, 90, 0, 89, 0, 91, 0, 93, 0, 92, 0, 91, 0, 94, 0, 93, 0, 95, 0, 97, 0, 96, 0, 95, 0, 98, 0, 97, 0, 99, 0, 101, 0, 100, 0, 99, 0, 102, 0, 101, 0, 103, 0, 105, 0, 104, 0, 103, 0, 106, 0, 105, 0, 78, 0, 107, 0, 81, 0, 78, 0, 108, 0, 107, 0, 109, 0, 71, 0, 110, 0, 109, 0, 70, 0, 71, 0, 92, 0, 111, 0, 91, 0, 92, 0, 112, 0, 111, 0, 113, 0, 115, 0, 114, 0, 113, 0, 116, 0, 115, 0, 117, 0, 74, 0, 118, 0, 117, 0, 85, 0, 74, 0, 119, 0, 121, 0, 120, 0, 119, 0, 122, 0, 121, 0, 123, 0, 125, 0, 124, 0, 123, 0, 126, 0, 125, 0, 127, 0, 129, 0, 128, 0, 127, 0, 130, 0, 129, 0, 56, 0, 35, 0, 32, 0, 56, 0, 131, 0, 35, 0, 41, 0, 133, 0, 132, 0, 41, 0, 42, 0, 133, 0, 30, 0, 134, 0, 29, 0, 30, 0, 135, 0, 134, 0, 136, 0, 104, 0, 137, 0, 137, 0, 139, 0, 138, 0, 140, 0, 142, 0, 141, 0, 137, 0, 104, 0, 139, 0, 143, 0, 145, 0, 144, 0, 143, 0, 146, 0, 145, 0, 136, 0, 137, 0, 130, 0, 147, 0, 149, 0, 148, 0, 130, 0, 137, 0, 150, 0, 151, 0, 149, 0, 147, 0, 33, 0, 152, 0, 32, 0, 33, 0, 153, 0, 152, 0, 154, 0, 156, 0, 155, 0, 154, 0, 157, 0, 156, 0, 158, 0, 160, 0, 159, 0, 158, 0, 161, 0, 160, 0, 71, 0, 94, 0, 91, 0, 71, 0, 72, 0, 94, 0, 162, 0, 144, 0, 163, 0, 163, 0, 165, 0, 164, 0, 166, 0, 142, 0, 167, 0, 163, 0, 144, 0, 165, 0, 162, 0, 163, 0, 161, 0, 168, 0, 170, 0, 169, 0, 161, 0, 163, 0, 171, 0, 151, 0, 170, 0, 168, 0, 172, 0, 174, 0, 173, 0, 175, 0, 176, 0, 172, 0, 174, 0, 172, 0, 176, 0, 177, 0, 179, 0, 178, 0, 177, 0, 180, 0, 179, 0, 181, 0, 183, 0, 182, 0, 184, 0, 185, 0, 181, 0, 183, 0, 181, 0, 185, 0, 186, 0, 188, 0, 187, 0, 186, 0, 189, 0, 188, 0, 190, 0, 192, 0, 191, 0, 190, 0, 193, 0, 192, 0, 194, 0, 196, 0, 195, 0, 194, 0, 197, 0, 196, 0, 156, 0, 135, 0, 30, 0, 156, 0, 198, 0, 135, 0, 57, 0, 131, 0, 56, 0, 57, 0, 199, 0, 131, 0, 200, 0, 202, 0, 201, 0, 200, 0, 203, 0, 202, 0, 201, 0, 205, 0, 204, 0, 201, 0, 202, 0, 205, 0, 75, 0, 206, 0, 83, 0, 75, 0, 76, 0, 206, 0, 157, 0, 198, 0, 156, 0, 157, 0, 207, 0, 198, 0 ),
"blend_shape_data": [  ],
"format": 98051,
"index_count": 390,
"material": ExtResource( 3 ),
"name": "Material.001",
"primitive": 4,
"skeleton_aabb": [  ],
"vertex_count": 208
}
surfaces/1 = {
"aabb": AABB( -0.50249, -0.437319, -1.81763, 1.00499, 0.314404, 1.52475 ),
"array_data": PoolByteArray( 5, 56, 255, 182, 69, 191, 0, 60, 127, 0, 0, 0, 5, 56, 221, 175, 196, 190, 0, 60, 127, 0, 0, 0, 5, 56, 221, 175, 108, 189, 0, 60, 127, 0, 0, 0, 5, 56, 255, 182, 235, 188, 0, 60, 127, 0, 0, 0, 5, 184, 255, 182, 69, 191, 0, 60, 130, 0, 0, 0, 5, 184, 255, 182, 235, 188, 0, 60, 130, 0, 0, 0, 5, 184, 221, 175, 108, 189, 0, 60, 130, 0, 0, 0, 5, 184, 221, 175, 196, 190, 0, 60, 130, 0, 0, 0, 5, 56, 255, 182, 175, 180, 0, 60, 130, 0, 0, 0, 5, 56, 221, 175, 179, 182, 0, 60, 130, 0, 0, 0, 5, 56, 221, 175, 9, 186, 0, 60, 130, 0, 0, 0, 5, 56, 255, 182, 11, 187, 0, 60, 130, 0, 0, 0, 5, 184, 255, 182, 175, 180, 0, 60, 127, 0, 0, 0, 5, 184, 255, 182, 11, 187, 0, 60, 127, 0, 0, 0, 5, 184, 221, 175, 9, 186, 0, 60, 127, 0, 0, 0, 5, 184, 221, 175, 179, 182, 0, 60, 127, 0, 0, 0 ),
"array_index_data": PoolByteArray( 0, 0, 2, 0, 1, 0, 0, 0, 3, 0, 2, 0, 4, 0, 6, 0, 5, 0, 4, 0, 7, 0, 6, 0, 8, 0, 10, 0, 9, 0, 8, 0, 11, 0, 10, 0, 12, 0, 14, 0, 13, 0, 12, 0, 15, 0, 14, 0 ),
"blend_shape_data": [  ],
"format": 98051,
"index_count": 24,
"material": ExtResource( 4 ),
"name": "Material.000",
"primitive": 4,
"skeleton_aabb": [  ],
"vertex_count": 16
}
surfaces/2 = {
"aabb": AABB( -0.625081, -0.00771013, -2.00664, 1.24051, 1.12235, 4.20021 ),
"array_data": PoolByteArray( 0, 185, 117, 60, 99, 64, 0, 60, 130, 0, 0, 0, 0, 185, 117, 60, 3, 192, 0, 60, 130, 0, 0, 0, 0, 185, 229, 159, 3, 192, 0, 60, 130, 0, 0, 0, 0, 185, 229, 159, 99, 64, 0, 60, 130, 0, 0, 0, 0, 185, 117, 60, 3, 192, 0, 60, 0, 0, 129, 0, 236, 56, 117, 60, 3, 192, 0, 60, 0, 0, 129, 0, 236, 56, 229, 159, 3, 192, 0, 60, 0, 0, 129, 0, 0, 185, 229, 159, 3, 192, 0, 60, 0, 0, 129, 0, 236, 56, 117, 60, 3, 192, 0, 60, 127, 0, 0, 0, 236, 56, 117, 60, 99, 64, 0, 60, 127, 0, 0, 0, 236, 56, 229, 159, 99, 64, 0, 60, 127, 0, 0, 0, 236, 56, 229, 159, 3, 192, 0, 60, 127, 0, 0, 0, 236, 56, 117, 60, 99, 64, 0, 60, 0, 0, 126, 0, 0, 185, 117, 60, 99, 64, 0, 60, 0, 0, 126, 0, 0, 185, 229, 159, 99, 64, 0, 60, 0, 0, 126, 0, 236, 56, 229, 159, 99, 64, 0, 60, 0, 0, 126, 0, 0, 185, 229, 159, 99, 64, 0, 60, 0, 130, 0, 0, 0, 185, 229, 159, 3, 192, 0, 60, 0, 130, 0, 0, 236, 56, 229, 159, 3, 192, 0, 60, 0, 130, 0, 0, 236, 56, 229, 159, 99, 64, 0, 60, 0, 130, 0, 0, 236, 56, 117, 60, 99, 64, 0, 60, 0, 127, 0, 0, 236, 56, 117, 60, 3, 192, 0, 60, 0, 127, 0, 0, 0, 185, 117, 60, 3, 192, 0, 60, 0, 127, 0, 0, 0, 185, 117, 60, 99, 64, 0, 60, 0, 127, 0, 0 ),
"array_index_data": PoolByteArray( 0, 0, 2, 0, 1, 0, 0, 0, 3, 0, 2, 0, 4, 0, 6, 0, 5, 0, 4, 0, 7, 0, 6, 0, 8, 0, 10, 0, 9, 0, 8, 0, 11, 0, 10, 0, 12, 0, 14, 0, 13, 0, 12, 0, 15, 0, 14, 0, 16, 0, 18, 0, 17, 0, 16, 0, 19, 0, 18, 0, 20, 0, 22, 0, 21, 0, 20, 0, 23, 0, 22, 0 ),
"blend_shape_data": [  ],
"format": 98051,
"index_count": 36,
"material": ExtResource( 1 ),
"name": "Material",
"primitive": 4,
"skeleton_aabb": [  ],
"vertex_count": 24
}

[sub_resource type="BoxShape" id=6]
extents = Vector3( 0.748914, 0.8, 2.1 )

[sub_resource type="PlaneMesh" id=24]
size = Vector2( 1000, 1000 )

[sub_resource type="SpatialMaterial" id=25]
albedo_color = Color( 0, 0, 0, 1 )

[node name="Truck" type="Spatial"]
script = ExtResource( 10 )
_cab = NodePath("Cab")
engine_force_forward = 25
brake_strength = 1
cruise_control_min_kmh = 20

[node name="IsoCamera" type="Camera" parent="."]
transform = Transform( -0.857167, 0.364187, -0.364187, 0, 0.707107, 0.707107, 0.515038, 0.606109, -0.606109, -20, 40, -35 )
cull_mask = 1
projection = 1
size = 40.0

[node name="PinJoint" type="ConeTwistJoint" parent="."]
transform = Transform( -4.37114e-08, -1, 0, 1, -4.37114e-08, 0, 0, 0, 1, 0, 0.704587, -0.626413 )
nodes/node_a = NodePath("../Cab")
nodes/node_b = NodePath("../Trailer")
swing_span = 15.0
twist_span = 45.0
relaxation = 4.24

[node name="Cab" type="VehicleBody" parent="." groups=["CarCollision"]]
transform = Transform( 1, 0, 1.74846e-07, 0, 1, 0, -1.74846e-07, 0, 1, 2.32969e-07, 0, 0 )
collision_layer = 16417
collision_mask = 181
script = ExtResource( 8 )

[node name="CabMesh" type="MeshInstance" parent="Cab"]
_import_path = NodePath("BODY-vehicle")
use_in_baked_light = true
mesh = SubResource( 13 )
material/0 = null
material/1 = null
material/2 = null

[node name="FakeCabin" type="Spatial" parent="Cab/CabMesh"]
transform = Transform( 1, 0, 0, 0, 1, 0, 0, 0, 1, 0, 2.56337, 0 )

[node name="MeshInstance" type="MeshInstance" parent="Cab/CabMesh/FakeCabin"]
transform = Transform( -1, 0, 1.50996e-08, 0, 0.228, 0, -1.50996e-07, 0, -0.1, -0.0010459, -2.15445, 0.404508 )
layers = 524288
cast_shadow = 0
mesh = SubResource( 17 )
skeleton = NodePath("../../../CabinCamera")
material/0 = ExtResource( 2 )

[node name="MeshInstance2" type="MeshInstance" parent="Cab/CabMesh/FakeCabin/MeshInstance"]
transform = Transform( 1, 0, 6.47374e-09, 0, 0.201754, 0, -6.35732e-07, 0, 1, -4.65661e-10, 2.58535, -0.0378995 )
layers = 524288
mesh = SubResource( 17 )
skeleton = NodePath("../../../../CabinCamera")
material/0 = SubResource( 19 )

[node name="MeshInstance3" type="MeshInstance" parent="Cab/CabMesh/FakeCabin/MeshInstance"]
transform = Transform( -0.1, 0, -1.50996e-07, 0, 1.25877, 0, 1.50996e-07, 0, -10, -0.906347, -0.259869, 9.23368 )
layers = 524288
mesh = SubResource( 20 )
skeleton = NodePath("../..")
material/0 = ExtResource( 2 )

[node name="MeshInstance4" type="MeshInstance" parent="Cab/CabMesh/FakeCabin/MeshInstance"]
transform = Transform( -0.1, 0, -1.50996e-07, 0, 1.25877, 0, 1.50996e-07, 0, -10, -0.906347, 3.63798, 9.23368 )
layers = 524288
mesh = SubResource( 20 )
skeleton = NodePath("../..")
material/0 = ExtResource( 2 )

[node name="MeshInstance5" type="MeshInstance" parent="Cab/CabMesh/FakeCabin/MeshInstance"]
transform = Transform( -0.1, 0, -1.50996e-07, 0, 1.25877, 0, 1.50996e-07, 0, -10, -0.906347, 1.28596, 13.1718 )
layers = 524288
mesh = SubResource( 20 )
skeleton = NodePath("../..")
material/0 = ExtResource( 2 )

[node name="MeshInstance8" type="MeshInstance" parent="Cab/CabMesh/FakeCabin/MeshInstance"]
transform = Transform( -0.1, 0, -1.50996e-07, 0, 1.25877, 0, 1.50996e-07, 0, -10, 0.893477, -0.259869, 9.23368 )
layers = 524288
mesh = SubResource( 20 )
skeleton = NodePath("../..")
material/0 = ExtResource( 2 )

[node name="MeshInstance9" type="MeshInstance" parent="Cab/CabMesh/FakeCabin/MeshInstance"]
transform = Transform( -0.1, 0, -1.50996e-07, 0, 1.25877, 0, 1.50996e-07, 0, -10, 0.893477, 3.63798, 9.23368 )
layers = 524288
mesh = SubResource( 20 )
skeleton = NodePath("../..")
material/0 = ExtResource( 2 )

[node name="MeshInstance10" type="MeshInstance" parent="Cab/CabMesh/FakeCabin/MeshInstance"]
transform = Transform( -0.1, 0, -1.50996e-07, 0, 1.25877, 0, 1.50996e-07, 0, -10, 0.893477, 1.28596, 13.1718 )
layers = 524288
mesh = SubResource( 20 )
skeleton = NodePath("../..")
material/0 = ExtResource( 2 )

[node name="MeshInstance6" type="MeshInstance" parent="Cab/CabMesh/FakeCabin/MeshInstance"]
transform = Transform( -0.1, 0, -1.96295e-09, 0, 1.25877, 0, 1.50996e-07, 0, -0.13, -0.906347, 1.28596, -0.843699 )
layers = 524288
mesh = SubResource( 20 )
skeleton = NodePath("../..")
material/0 = ExtResource( 2 )

[node name="MeshInstance11" type="MeshInstance" parent="Cab/CabMesh/FakeCabin/MeshInstance"]
transform = Transform( -0.1, 0, -1.96295e-09, 0, 1.25877, 0, 1.50996e-07, 0, -0.13, 0.889133, 1.28596, -0.843701 )
layers = 524288
mesh = SubResource( 20 )
skeleton = NodePath("../..")
material/0 = ExtResource( 2 )

[node name="CabCollision" type="CollisionShape" parent="Cab"]
transform = Transform( 1, 0, 0, 0, 1, 0, 0, 0, 1, 0, 0.571059, 0.132248 )
shape = SubResource( 14 )

[node name="Wheel1" type="VehicleWheel" parent="Cab"]
transform = Transform( 1, 0, 0, 0, 1, 0, 0, 0, 1, 0.573678, 0.000773743, 1.10416 )
use_as_traction = true
use_as_steering = true
wheel_roll_influence = 0.4
wheel_radius = 0.23
wheel_friction_slip = 1.0
suspension_stiffness = 28.0
damping_compression = 0.88

[node name="Wheel1" type="MeshInstance" parent="Cab/Wheel1"]
_import_path = NodePath("BODY-vehicle/wheel1-wheel")
use_in_baked_light = true
mesh = SubResource( 7 )
material/0 = null

[node name="Wheel2" type="VehicleWheel" parent="Cab"]
transform = Transform( 1, 0, 0, 0, 1, 0, 0, 0, 1, 0.573678, 0.000773743, -0.783403 )
use_as_traction = true
wheel_roll_influence = 0.4
wheel_radius = 0.23
wheel_friction_slip = 1.0
suspension_stiffness = 28.0
damping_compression = 0.88

[node name="Wheel2" type="MeshInstance" parent="Cab/Wheel2"]
_import_path = NodePath("BODY-vehicle/wheel2-wheel")
use_in_baked_light = true
mesh = SubResource( 8 )
material/0 = null

[node name="Wheel3" type="VehicleWheel" parent="Cab"]
transform = Transform( 1, 0, 0, 0, 1, 0, 0, 0, 1, -0.573678, 0.000773743, 1.10416 )
use_as_traction = true
use_as_steering = true
wheel_roll_influence = 0.4
wheel_radius = 0.23
wheel_friction_slip = 1.0
suspension_stiffness = 28.0
damping_compression = 0.88

[node name="Wheel3" type="MeshInstance" parent="Cab/Wheel3"]
_import_path = NodePath("BODY-vehicle/wheel3-wheel")
use_in_baked_light = true
mesh = SubResource( 9 )
material/0 = null

[node name="Wheel4" type="VehicleWheel" parent="Cab"]
transform = Transform( 1, 0, 0, 0, 1, 0, 0, 0, 1, -0.573678, 0.000773743, -0.783403 )
use_as_traction = true
wheel_roll_influence = 0.4
wheel_radius = 0.23
wheel_friction_slip = 1.0
suspension_stiffness = 28.0
damping_compression = 0.88

[node name="Wheel4" type="MeshInstance" parent="Cab/Wheel4"]
_import_path = NodePath("BODY-vehicle/wheel4-wheel")
use_in_baked_light = true
mesh = SubResource( 10 )
material/0 = null

[node name="GasTimer" type="Timer" parent="Cab"]
wait_time = 30.0

[node name="CabinCamera" type="Camera" parent="Cab"]
transform = Transform( -0.998134, 0, 0.0610486, 0, 1, 0, -0.0610486, 0, -0.998134, -0.0369892, 0.72553, 0.256098 )
cull_mask = 524289
current = true
fov = 50.0
far = 500.0
script = ExtResource( 9 )

[node name="ReverseAudio" type="AudioStreamPlayer3D" parent="Cab"]
stream = ExtResource( 7 )
unit_db = -10.0

[node name="Radio" type="AudioStreamPlayer" parent="Cab"]
stream = ExtResource( 5 )

[node name="MotorAudio" type="AudioStreamPlayer3D" parent="Cab"]
transform = Transform( 1, 0, -1.74846e-07, 0, 1, 0, 1.74846e-07, 0, 1, -3.53073e-07, 0.383904, 0.686913 )
stream = ExtResource( 12 )
unit_db = -10.0

[node name="ThrottleAudio" type="AudioStreamPlayer3D" parent="Cab"]
transform = Transform( 1, 0, -1.74846e-07, 0, 1, 0, 1.74846e-07, 0, 1, -3.53073e-07, 0.383904, 0.686913 )
stream = ExtResource( 13 )
unit_db = -10.0

[node name="ThrottleTimer" type="Timer" parent="Cab/ThrottleAudio"]

[node name="TruckHUD" type="CanvasLayer" parent="Cab"]

[node name="CenterContainer" type="CenterContainer" parent="Cab/TruckHUD"]
anchor_left = 0.5
anchor_top = 1.0
anchor_right = 0.5
anchor_bottom = 1.0
margin_left = -960.0
margin_top = -456.0
margin_right = 960.0
margin_bottom = 23.0
__meta__ = {
"_edit_use_anchors_": false
}

[node name="Parking_Brake" type="Label" parent="Cab/TruckHUD/CenterContainer"]
visible = false
margin_left = 718.0
margin_top = 210.0
margin_right = 1202.0
margin_bottom = 268.0
custom_fonts/font = SubResource( 16 )
text = "Parking brake activated."
align = 1

[node name="AICarStopperArea" type="Area" parent="Cab"]
collision_layer = 0
collision_mask = 0
input_ray_pickable = false
monitorable = false

[node name="CollisionShape" type="CollisionShape" parent="Cab/AICarStopperArea"]
transform = Transform( 1, 0, 0, 0, 1, 0, 0, 0, 1, 0, 1, 0 )
shape = SubResource( 23 )

[node name="MeshInstance" type="MeshInstance" parent="Cab/AICarStopperArea"]
transform = Transform( 1, 0, 0, 0, 1, 0, 0, 0, 1, 1.74846e-07, 4, -1 )
visible = false
material_override = SubResource( 26 )
mesh = SubResource( 27 )
material/0 = null

[node name="Trailer" type="VehicleBody" parent="." groups=["CarCollision"]]
transform = Transform( 1, 0, 1.74846e-07, 0, 1, 0, -1.74846e-07, 0, 1, -2.32969e-07, 0.414197, -2.66485 )
collision_layer = 16418
collision_mask = 53
mass = 5.0

[node name="TWheel1" type="VehicleWheel" parent="Trailer"]
transform = Transform( 1, 0, 0, 0, 1, -1.49012e-08, 0, 0, 1, 0.573678, -0.402732, -1.53277 )
wheel_roll_influence = 0.4
wheel_radius = 0.1
wheel_friction_slip = 1.0
suspension_stiffness = 28.0
damping_compression = 0.88

[node name="TWheel1" type="MeshInstance" parent="Trailer/TWheel1"]
_import_path = NodePath("TRAILER-vehicle/twheel1-wheel")
use_in_baked_light = true
mesh = SubResource( 1 )
material/0 = null

[node name="TWheel2" type="VehicleWheel" parent="Trailer"]
transform = Transform( 1, 0, 0, 0, 1, -1.49012e-08, 0, 0, 1, 0.573678, -0.402732, -0.600809 )
wheel_roll_influence = 0.4
wheel_radius = 0.23
wheel_friction_slip = 1.0
suspension_stiffness = 28.0
damping_compression = 0.88

[node name="TWheel2" type="MeshInstance" parent="Trailer/TWheel2"]
_import_path = NodePath("TRAILER-vehicle/twheel2-wheel")
use_in_baked_light = true
mesh = SubResource( 2 )
material/0 = null

[node name="TWheel3" type="VehicleWheel" parent="Trailer"]
transform = Transform( 1, 0, 0, 0, 1, -1.49012e-08, 0, 0, 1, -0.573678, -0.402732, -1.53277 )
wheel_roll_influence = 0.4
wheel_radius = 0.1
wheel_friction_slip = 1.0
suspension_stiffness = 28.0
damping_compression = 0.88

[node name="TWheel3" type="MeshInstance" parent="Trailer/TWheel3"]
_import_path = NodePath("TRAILER-vehicle/twheel3-wheel")
use_in_baked_light = true
mesh = SubResource( 3 )
material/0 = null

[node name="TWheel4" type="VehicleWheel" parent="Trailer"]
transform = Transform( 1, 0, 0, 0, 1, -1.49012e-08, 0, 0, 1, -0.573678, -0.402732, -0.600809 )
wheel_roll_influence = 0.4
wheel_radius = 0.23
wheel_friction_slip = 1.0
suspension_stiffness = 20.0
damping_compression = 0.88

[node name="TWheel4" type="MeshInstance" parent="Trailer/TWheel4"]
_import_path = NodePath("TRAILER-vehicle/twheel4-wheel")
use_in_baked_light = true
mesh = SubResource( 4 )
material/0 = null

[node name="Trailer" type="MeshInstance" parent="Trailer"]
_import_path = NodePath("TRAILER-vehicle")
use_in_baked_light = true
mesh = SubResource( 5 )
material/0 = null
material/1 = null
material/2 = null

[node name="CollisionShape" type="CollisionShape" parent="Trailer"]
transform = Transform( 1, 0, 0, 0, 1, 0, 0, 0, 1, 0, 0.283046, -0.0335202 )
shape = SubResource( 6 )

[node name="MeshInstance" type="MeshInstance" parent="."]
visible = false
mesh = SubResource( 24 )
material/0 = SubResource( 25 )

[connection signal="body_entered" from="Cab" to="Cab" method="_on_Body_body_entered"]
[connection signal="timeout" from="Cab/GasTimer" to="Cab" method="_on_GasTimer_timeout"]
[connection signal="finished" from="Cab/ThrottleAudio" to="Cab" method="_on_ThrottleAudio_finished"]
[connection signal="timeout" from="Cab/ThrottleAudio/ThrottleTimer" to="Cab" method="_on_ThrottleTimer_timeout"]
[connection signal="body_entered" from="Cab/AICarStopperArea" to="." method="_on_AICarStopperArea_body_entered"]
[connection signal="body_exited" from="Cab/AICarStopperArea" to="." method="_on_AICarStopperArea_body_exited"]
