# Blender v3.1.2 OBJ File: 'Fir.blend'
# www.blender.org
mtllib ga_gm_environment_tree_pine.mtl
o Cone.002_Cone.004
v 0.000000 9.200001 -1.000000
v 0.382683 9.200001 -0.923880
v 0.707107 9.200001 -0.707107
v 0.923880 9.200001 -0.382683
v 1.000000 9.200001 0.000000
v 0.923880 9.200001 0.382683
v 0.707107 9.200001 0.707107
v 0.382683 9.200001 0.923880
v -0.000000 9.200001 1.000000
v -0.382683 9.200001 0.923880
v -0.707107 9.200001 0.707107
v -0.923880 9.200001 0.382684
v -1.000000 9.200001 -0.000000
v -0.923879 9.200001 -0.382684
v -0.707107 9.200001 -0.707107
v -0.382683 9.200001 -0.923880
v 0.000000 12.200001 0.000000
v 0.000000 1.300000 -3.000000
v 1.148050 1.300000 -2.771638
v 2.121320 1.300000 -2.121320
v 2.771638 1.300000 -1.148050
v 3.000000 1.300000 0.000000
v 2.771639 1.300000 1.148050
v 2.121320 1.300000 2.121320
v 1.148050 1.300000 2.771638
v -0.000000 1.300000 3.000000
v -1.148050 1.300000 2.771638
v -2.121320 1.300000 2.121320
v -2.771638 1.300000 1.148051
v -3.000000 1.300000 -0.000000
v -2.771638 1.300000 -1.148051
v -2.121321 1.300000 -2.121320
v -1.148050 1.300000 -2.771639
v 0.000000 9.300000 0.000000
v 0.000000 5.300000 -2.000000
v 0.765367 5.300000 -1.847759
v 1.414214 5.300000 -1.414214
v 1.847759 5.300000 -0.765367
v 2.000000 5.300000 0.000000
v 1.847759 5.300000 0.765367
v 1.414214 5.300000 1.414214
v 0.765367 5.300000 1.847759
v -0.000000 5.300000 2.000000
v -0.765367 5.300000 1.847759
v -1.414213 5.300000 1.414214
v -1.847759 5.300000 0.765367
v -2.000000 5.300000 -0.000000
v -1.847759 5.300000 -0.765367
v -1.414214 5.300000 -1.414213
v -0.765367 5.300000 -1.847759
v 0.000000 11.300000 0.000000
vt 0.250000 0.490000
vt 0.250000 0.250000
vt 0.341844 0.471731
vt 0.419706 0.419706
vt 0.471731 0.341844
vt 0.490000 0.250000
vt 0.471731 0.158156
vt 0.419706 0.080294
vt 0.341844 0.028269
vt 0.250000 0.010000
vt 0.158156 0.028269
vt 0.080294 0.080294
vt 0.028269 0.158156
vt 0.010000 0.250000
vt 0.028269 0.341844
vt 0.080294 0.419706
vt 0.750000 0.490000
vt 0.841844 0.471731
vt 0.919706 0.419706
vt 0.971731 0.341844
vt 0.990000 0.250000
vt 0.971731 0.158156
vt 0.919706 0.080294
vt 0.841844 0.028269
vt 0.750000 0.010000
vt 0.658156 0.028269
vt 0.580294 0.080294
vt 0.528269 0.158156
vt 0.510000 0.250000
vt 0.528269 0.341844
vt 0.580294 0.419706
vt 0.658156 0.471731
vt 0.158156 0.471731
vt 0.250000 0.490000
vt 0.250000 0.250000
vt 0.341844 0.471731
vt 0.419706 0.419706
vt 0.471731 0.341844
vt 0.490000 0.250000
vt 0.471731 0.158156
vt 0.419706 0.080294
vt 0.341844 0.028269
vt 0.250000 0.010000
vt 0.158156 0.028269
vt 0.080294 0.080294
vt 0.028269 0.158156
vt 0.010000 0.250000
vt 0.028269 0.341844
vt 0.080294 0.419706
vt 0.750000 0.490000
vt 0.841844 0.471731
vt 0.919706 0.419706
vt 0.971731 0.341844
vt 0.990000 0.250000
vt 0.971731 0.158156
vt 0.919706 0.080294
vt 0.841844 0.028269
vt 0.750000 0.010000
vt 0.658156 0.028269
vt 0.580294 0.080294
vt 0.528269 0.158156
vt 0.510000 0.250000
vt 0.528269 0.341844
vt 0.580294 0.419706
vt 0.658156 0.471731
vt 0.158156 0.471731
vt 0.250000 0.490000
vt 0.250000 0.250000
vt 0.341844 0.471731
vt 0.419706 0.419706
vt 0.471731 0.341844
vt 0.490000 0.250000
vt 0.471731 0.158156
vt 0.419706 0.080294
vt 0.341844 0.028269
vt 0.250000 0.010000
vt 0.158156 0.028269
vt 0.080294 0.080294
vt 0.028269 0.158156
vt 0.010000 0.250000
vt 0.028269 0.341844
vt 0.080294 0.419706
vt 0.750000 0.490000
vt 0.841844 0.471731
vt 0.919706 0.419706
vt 0.971731 0.341844
vt 0.990000 0.250000
vt 0.971731 0.158156
vt 0.919706 0.080294
vt 0.841844 0.028269
vt 0.750000 0.010000
vt 0.658156 0.028269
vt 0.580294 0.080294
vt 0.528269 0.158156
vt 0.510000 0.250000
vt 0.528269 0.341844
vt 0.580294 0.419706
vt 0.658156 0.471731
vt 0.158156 0.471731
vn 0.1854 0.3107 -0.9322
vn 0.5281 0.3107 -0.7903
vn 0.7903 0.3107 -0.5281
vn 0.9322 0.3107 -0.1854
vn 0.9322 0.3107 0.1854
vn 0.7903 0.3107 0.5281
vn 0.5281 0.3107 0.7903
vn 0.1854 0.3107 0.9322
vn -0.1854 0.3107 0.9322
vn -0.5281 0.3107 0.7903
vn -0.7903 0.3107 0.5281
vn -0.9322 0.3107 0.1854
vn -0.9322 0.3107 -0.1854
vn -0.7903 0.3107 -0.5281
vn 0.0000 -1.0000 -0.0000
vn -0.5281 0.3107 -0.7903
vn -0.1854 0.3107 -0.9322
vn 0.1831 0.3452 -0.9205
vn 0.5214 0.3452 -0.7804
vn 0.7804 0.3452 -0.5214
vn 0.9205 0.3452 -0.1831
vn 0.9205 0.3452 0.1831
vn 0.7804 0.3452 0.5214
vn 0.5214 0.3452 0.7804
vn 0.1831 0.3452 0.9205
vn -0.1831 0.3452 0.9205
vn -0.5214 0.3452 0.7804
vn -0.7804 0.3452 0.5214
vn -0.9205 0.3452 0.1831
vn -0.9205 0.3452 -0.1831
vn -0.7804 0.3452 -0.5214
vn -0.5214 0.3452 -0.7804
vn -0.1831 0.3452 -0.9205
usemtl Leafs
s off
f 1/1/1 17/2/1 2/3/1
f 2/3/2 17/2/2 3/4/2
f 3/4/3 17/2/3 4/5/3
f 4/5/4 17/2/4 5/6/4
f 5/6/5 17/2/5 6/7/5
f 6/7/6 17/2/6 7/8/6
f 7/8/7 17/2/7 8/9/7
f 8/9/8 17/2/8 9/10/8
f 9/10/9 17/2/9 10/11/9
f 10/11/10 17/2/10 11/12/10
f 11/12/11 17/2/11 12/13/11
f 12/13/12 17/2/12 13/14/12
f 13/14/13 17/2/13 14/15/13
f 14/15/14 17/2/14 15/16/14
f 1/17/15 2/18/15 3/19/15 4/20/15 5/21/15 6/22/15 7/23/15 8/24/15 9/25/15 10/26/15 11/27/15 12/28/15 13/29/15 14/30/15 15/31/15 16/32/15
f 15/16/16 17/2/16 16/33/16
f 16/33/17 17/2/17 1/1/17
f 18/34/18 34/35/18 19/36/18
f 19/36/19 34/35/19 20/37/19
f 20/37/20 34/35/20 21/38/20
f 21/38/21 34/35/21 22/39/21
f 22/39/22 34/35/22 23/40/22
f 23/40/23 34/35/23 24/41/23
f 24/41/24 34/35/24 25/42/24
f 25/42/25 34/35/25 26/43/25
f 26/43/26 34/35/26 27/44/26
f 27/44/27 34/35/27 28/45/27
f 28/45/28 34/35/28 29/46/28
f 29/46/29 34/35/29 30/47/29
f 30/47/30 34/35/30 31/48/30
f 31/48/31 34/35/31 32/49/31
f 18/50/15 19/51/15 20/52/15 21/53/15 22/54/15 23/55/15 24/56/15 25/57/15 26/58/15 27/59/15 28/60/15 29/61/15 30/62/15 31/63/15 32/64/15 33/65/15
f 32/49/32 34/35/32 33/66/32
f 33/66/33 34/35/33 18/34/33
f 35/67/1 51/68/1 36/69/1
f 36/69/2 51/68/2 37/70/2
f 37/70/3 51/68/3 38/71/3
f 38/71/4 51/68/4 39/72/4
f 39/72/5 51/68/5 40/73/5
f 40/73/6 51/68/6 41/74/6
f 41/74/7 51/68/7 42/75/7
f 42/75/8 51/68/8 43/76/8
f 43/76/9 51/68/9 44/77/9
f 44/77/10 51/68/10 45/78/10
f 45/78/11 51/68/11 46/79/11
f 46/79/12 51/68/12 47/80/12
f 47/80/13 51/68/13 48/81/13
f 48/81/14 51/68/14 49/82/14
f 35/83/15 36/84/15 37/85/15 38/86/15 39/87/15 40/88/15 41/89/15 42/90/15 43/91/15 44/92/15 45/93/15 46/94/15 47/95/15 48/96/15 49/97/15 50/98/15
f 49/82/16 51/68/16 50/99/16
f 50/99/17 51/68/17 35/67/17
o Cylinder_Cylinder.001
v 0.000000 0.000000 -0.400000
v 0.000000 2.000000 -0.400000
v 0.153073 0.000000 -0.369552
v 0.153073 2.000000 -0.369552
v 0.282843 0.000000 -0.282843
v 0.282843 2.000000 -0.282843
v 0.369552 0.000000 -0.153073
v 0.369552 2.000000 -0.153073
v 0.400000 0.000000 0.000000
v 0.400000 2.000000 0.000000
v 0.369552 0.000000 0.153073
v 0.369552 2.000000 0.153073
v 0.282843 0.000000 0.282843
v 0.282843 2.000000 0.282843
v 0.153073 0.000000 0.369552
v 0.153073 2.000000 0.369552
v -0.000000 0.000000 0.400000
v -0.000000 2.000000 0.400000
v -0.153073 0.000000 0.369552
v -0.153073 2.000000 0.369552
v -0.282843 0.000000 0.282843
v -0.282843 2.000000 0.282843
v -0.369552 0.000000 0.153073
v -0.369552 2.000000 0.153073
v -0.400000 0.000000 -0.000000
v -0.400000 2.000000 -0.000000
v -0.369552 0.000000 -0.153073
v -0.369552 2.000000 -0.153073
v -0.282843 0.000000 -0.282843
v -0.282843 2.000000 -0.282843
v -0.153073 0.000000 -0.369552
v -0.153073 2.000000 -0.369552
vt 1.000000 0.500000
vt 1.000000 1.000000
vt 0.937500 1.000000
vt 0.937500 0.500000
vt 0.875000 1.000000
vt 0.875000 0.500000
vt 0.812500 1.000000
vt 0.812500 0.500000
vt 0.750000 1.000000
vt 0.750000 0.500000
vt 0.687500 1.000000
vt 0.687500 0.500000
vt 0.625000 1.000000
vt 0.625000 0.500000
vt 0.562500 1.000000
vt 0.562500 0.500000
vt 0.500000 1.000000
vt 0.500000 0.500000
vt 0.437500 1.000000
vt 0.437500 0.500000
vt 0.375000 1.000000
vt 0.375000 0.500000
vt 0.312500 1.000000
vt 0.312500 0.500000
vt 0.250000 1.000000
vt 0.250000 0.500000
vt 0.187500 1.000000
vt 0.187500 0.500000
vt 0.125000 1.000000
vt 0.125000 0.500000
vt 0.341844 0.471731
vt 0.250000 0.490000
vt 0.158156 0.471731
vt 0.080294 0.419706
vt 0.028269 0.341844
vt 0.010000 0.250000
vt 0.028269 0.158156
vt 0.080294 0.080294
vt 0.158156 0.028269
vt 0.250000 0.010000
vt 0.341844 0.028269
vt 0.419706 0.080294
vt 0.471731 0.158156
vt 0.490000 0.250000
vt 0.471731 0.341844
vt 0.419706 0.419706
vt 0.062500 1.000000
vt 0.062500 0.500000
vt 0.000000 1.000000
vt 0.000000 0.500000
vt 0.750000 0.490000
vt 0.841844 0.471731
vt 0.919706 0.419706
vt 0.971731 0.341844
vt 0.990000 0.250000
vt 0.971731 0.158156
vt 0.919706 0.080294
vt 0.841844 0.028269
vt 0.750000 0.010000
vt 0.658156 0.028269
vt 0.580294 0.080294
vt 0.528269 0.158156
vt 0.510000 0.250000
vt 0.528269 0.341844
vt 0.580294 0.419706
vt 0.658156 0.471731
vn 0.1951 0.0000 -0.9808
vn 0.5556 0.0000 -0.8315
vn 0.8315 0.0000 -0.5556
vn 0.9808 0.0000 -0.1951
vn 0.9808 0.0000 0.1951
vn 0.8315 0.0000 0.5556
vn 0.5556 0.0000 0.8315
vn 0.1951 0.0000 0.9808
vn -0.1951 0.0000 0.9808
vn -0.5556 0.0000 0.8315
vn -0.8315 0.0000 0.5556
vn -0.9808 0.0000 0.1951
vn -0.9808 0.0000 -0.1951
vn -0.8315 0.0000 -0.5556
vn 0.0000 1.0000 -0.0000
vn -0.5556 0.0000 -0.8315
vn -0.1951 0.0000 -0.9808
vn 0.0000 -1.0000 0.0000
usemtl Tree
s off
f 52/100/34 53/101/34 55/102/34 54/103/34
f 54/103/35 55/102/35 57/104/35 56/105/35
f 56/105/36 57/104/36 59/106/36 58/107/36
f 58/107/37 59/106/37 61/108/37 60/109/37
f 60/109/38 61/108/38 63/110/38 62/111/38
f 62/111/39 63/110/39 65/112/39 64/113/39
f 64/113/40 65/112/40 67/114/40 66/115/40
f 66/115/41 67/114/41 69/116/41 68/117/41
f 68/117/42 69/116/42 71/118/42 70/119/42
f 70/119/43 71/118/43 73/120/43 72/121/43
f 72/121/44 73/120/44 75/122/44 74/123/44
f 74/123/45 75/122/45 77/124/45 76/125/45
f 76/125/46 77/124/46 79/126/46 78/127/46
f 78/127/47 79/126/47 81/128/47 80/129/47
f 55/130/48 53/131/48 83/132/48 81/133/48 79/134/48 77/135/48 75/136/48 73/137/48 71/138/48 69/139/48 67/140/48 65/141/48 63/142/48 61/143/48 59/144/48 57/145/48
f 80/129/49 81/128/49 83/146/49 82/147/49
f 82/147/50 83/146/50 53/148/50 52/149/50
f 52/150/51 54/151/51 56/152/51 58/153/51 60/154/51 62/155/51 64/156/51 66/157/51 68/158/51 70/159/51 72/160/51 74/161/51 76/162/51 78/163/51 80/164/51 82/165/51
