# Blender MTL File: 'Needsblend.blend'
# Material Count: 6

newmtl Doors
Ns 359.999993
Ka 1.000000 1.000000 1.000000
Kd 0.152325 0.152325 0.152325
Ks 0.500000 0.500000 0.500000
Ke 0.000000 0.000000 0.000000
Ni 1.000000
d 1.000000
illum 2

newmtl House
Ns 359.999993
Ka 1.000000 1.000000 1.000000
Kd 1.000000 1.000000 1.000000
Ks 0.500000 0.500000 0.500000
Ke 0.000000 0.000000 0.000000
Ni 1.000000
d 1.000000
illum 2

newmtl None
Ns 500
Ka 0.8 0.8 0.8
Kd 0.8 0.8 0.8
Ks 0.8 0.8 0.8
d 1
illum 2

newmtl Roof
Ns 359.999993
Ka 1.000000 1.000000 1.000000
Kd 0.114972 0.334510 0.800000
Ks 0.500000 0.500000 0.500000
Ke 0.000000 0.000000 0.000000
Ni 1.000000
d 1.000000
illum 2

newmtl Street.001
Ns 359.999993
Ka 1.000000 1.000000 1.000000
Kd 0.799103 0.701102 0.723055
Ks 0.500000 0.500000 0.500000
Ke 0.000000 0.000000 0.000000
Ni 1.000000
d 1.000000
illum 2

newmtl Street.002
Ns 359.999993
Ka 1.000000 1.000000 1.000000
Kd 0.020289 0.020289 0.020289
Ks 0.500000 0.500000 0.500000
Ke 0.000000 0.000000 0.000000
Ni 1.000000
d 1.000000
illum 2
