[gd_scene load_steps=4 format=2]

[ext_resource path="res://scenes_and_scripts/world/ai_car.gd" type="Script" id=1]
[ext_resource path="res://assets/sounds/atmosphere/ga_sounds_atmo_horns.wav" type="AudioStream" id=2]
[ext_resource path="res://assets/sounds/atmosphere/ga_sounds_atmo_car_driving_away.ogg" type="AudioStream" id=3]

[node name="PathCar" type="PathFollow" groups=["PathFollow"]]
rotation_mode = 4
loop = false
script = ExtResource( 1 )
max_default_speed = 10
min_default_speed = 10
spawn_probability = 0.3

[node name="RayCast" type="RayCast" parent="."]
transform = Transform( 0.965926, 0, -0.258819, 0, 1, 0, 0.258819, 0, 0.965926, 0, 0.617979, 1 )
enabled = true
cast_to = Vector3( 0, 0, 3 )
collision_mask = 32036
collide_with_areas = true
debug_shape_thickness = 5.0

[node name="RayCast2" type="RayCast" parent="."]
transform = Transform( 0.968058, 0, 0.250727, 0, 1, 0, -0.250727, 0, 0.968058, 0, 0.617979, 1 )
enabled = true
cast_to = Vector3( 0, 0, 3 )
collision_mask = 32036
collide_with_areas = true
debug_shape_thickness = 5.0

[node name="DeleteTimer" type="Timer" parent="."]
one_shot = true

[node name="Driving" type="AudioStreamPlayer3D" parent="."]
transform = Transform( 1, 0, 0, 0, 1, 0, 0, 0, 1, 0, 0.412346, 0 )
stream = ExtResource( 3 )
max_distance = 30.0

[node name="IndicatorTimer" type="Timer" parent="."]

[node name="Horns" type="AudioStreamPlayer3D" parent="."]
stream = ExtResource( 2 )
unit_size = 25.0

[node name="HornTimer" type="Timer" parent="."]

[connection signal="end_reached" from="." to="." method="_on_PathCar_end_reached"]
[connection signal="timeout" from="DeleteTimer" to="." method="_on_DeleteTimer_timeout"]
[connection signal="timeout" from="IndicatorTimer" to="." method="_on_IndicatorTimer_timeout"]
[connection signal="timeout" from="HornTimer" to="." method="_on_HornTimer_timeout"]
