# Blender MTL File: 'office-building_joined.blend'
# Material Count: 4

newmtl Fassade
Ns 359.999993
Ka 1.000000 1.000000 1.000000
Kd 0.106535 0.058742 0.035467
Ks 0.500000 0.500000 0.500000
Ke 0.000000 0.000000 0.000000
Ni 1.000000
d 1.000000
illum 2

newmtl Roof
Ns 359.999993
Ka 1.000000 1.000000 1.000000
Kd 0.152325 0.152325 0.152325
Ks 0.500000 0.500000 0.500000
Ke 0.000000 0.000000 0.000000
Ni 1.000000
d 1.000000
illum 2

newmtl Stone
Ns 359.999993
Ka 1.000000 1.000000 1.000000
Kd 0.527719 0.458854 0.348137
Ks 0.500000 0.500000 0.500000
Ke 0.000000 0.000000 0.000000
Ni 1.000000
d 1.000000
illum 2

newmtl Window
Ns 359.999993
Ka 1.000000 1.000000 1.000000
Kd 0.475810 0.473950 0.507068
Ks 0.500000 0.500000 0.500000
Ke 0.000000 0.000000 0.000000
Ni 1.000000
d 1.000000
illum 2
