# Blender v3.2.0 OBJ File: 'FINAL_STREET_COLLECTION_SAVEGAME.blend'
# www.blender.org
mtllib ga_gm_streets_countrytpad_curve_big_no_grass.mtl
o Plane.004
v 4.499984 0.000000 -85.000000
v 4.501212 0.000000 -72.006462
v 4.999984 0.000000 -85.000000
v 5.001211 0.000000 -72.007179
v 4.299984 0.000000 -85.000000
v 4.301212 -0.000000 -72.006172
v 0.299984 0.000000 -85.000000
v 0.301216 0.000000 -72.000427
v 0.099983 0.000000 -85.000000
v 0.101216 0.000000 -72.000145
v -0.100001 0.000000 -85.000000
v -0.098784 0.000000 -71.999855
v -0.300001 0.000000 -85.000000
v -0.298783 -0.000000 -71.999573
v -4.300001 0.000000 -85.000000
v -4.298779 -0.000000 -71.993828
v -4.500016 0.000000 -85.000000
v -4.498779 0.000000 -71.993538
v -5.000016 0.000000 -85.000000
v 4.501212 0.000000 -72.006462
v 4.579887 -0.000000 -62.086456
v 5.001211 0.000000 -72.007179
v 5.079796 -0.000000 -62.096012
v 4.301212 -0.000000 -72.006172
v 4.379924 0.000000 -62.082634
v 0.301216 0.000000 -72.000427
v 0.380655 -0.000000 -62.006180
v 0.101216 0.000000 -72.000145
v 0.180691 0.000000 -62.002357
v -0.098784 0.000000 -71.999855
v -0.019272 -0.000000 -61.998535
v -0.298783 -0.000000 -71.999573
v -0.219235 0.000000 -61.994713
v -4.298779 -0.000000 -71.993828
v -4.218504 0.000000 -61.918259
v -4.498779 0.000000 -71.993538
v -4.418468 0.000000 -61.914436
v 4.579887 -0.000000 -62.086456
v 4.951385 -0.000000 -52.290707
v 5.079796 -0.000000 -62.096012
v 5.450401 0.000000 -52.322071
v 4.379924 0.000000 -62.082634
v 4.751780 0.000000 -52.278160
v 0.380655 -0.000000 -62.006180
v 0.759656 -0.000000 -52.027260
v 0.180691 0.000000 -62.002357
v 0.560049 0.000000 -52.014713
v -0.019272 -0.000000 -61.998535
v 0.360443 -0.000000 -52.002171
v -0.219235 0.000000 -61.994713
v 0.160837 0.000000 -51.989624
v -4.218504 0.000000 -61.918259
v -3.831287 0.000000 -51.738724
v -4.418468 0.000000 -61.914436
v -4.030893 0.000000 -51.726177
v -4.529908 0.000000 -51.694813
v 4.951385 -0.000000 -52.290707
v 5.904367 0.000000 -42.700115
v 5.450401 0.000000 -52.322071
v 6.399290 0.000000 -42.771191
v 4.751780 0.000000 -52.278160
v 5.706398 0.000000 -42.671688
v 0.759656 -0.000000 -52.027260
v 1.747017 0.000000 -42.103092
v 0.560049 0.000000 -52.014713
v 1.549047 0.000000 -42.074661
v 0.360443 -0.000000 -52.002171
v 1.351078 0.000000 -42.046234
v 0.160837 0.000000 -51.989624
v 1.153109 -0.000000 -42.017803
v -3.831287 0.000000 -51.738724
v -2.806273 0.000000 -41.449207
v -4.030893 0.000000 -51.726177
v -3.004241 0.000000 -41.420780
v -4.529908 0.000000 -51.694813
v -3.499164 -0.000000 -41.349705
v 5.904367 0.000000 -42.700115
v 7.788067 0.000000 -33.495251
v 6.399290 0.000000 -42.771191
v 8.269244 0.000000 -33.631149
v 5.706398 0.000000 -42.671688
v 7.595595 0.000000 -33.440891
v 1.747017 0.000000 -42.103092
v 3.746174 0.000000 -32.353714
v 1.549047 0.000000 -42.074661
v 3.553702 0.000000 -32.299355
v 1.351078 0.000000 -42.046234
v 3.361231 -0.000000 -32.244995
v 1.153109 -0.000000 -42.017803
v 3.168760 -0.000000 -32.190636
v -2.806273 0.000000 -41.449207
v -0.680661 0.000000 -31.103456
v -3.004241 0.000000 -41.420780
v -0.873132 -0.000000 -31.049097
v -3.499164 -0.000000 -41.349705
v -1.354310 0.000000 -30.913200
v 7.788067 0.000000 -33.495251
v 11.070160 -0.000000 -25.068953
v 8.269244 0.000000 -33.631149
v 11.512722 0.000000 -25.301632
v 7.595595 0.000000 -33.440891
v 10.893135 0.000000 -24.975882
v 3.746174 0.000000 -32.353714
v 7.352641 0.000000 -23.114456
v 3.553702 0.000000 -32.299355
v 7.175615 0.000000 -23.021385
v 3.361231 -0.000000 -32.244995
v 6.998591 0.000000 -22.928314
v 3.168760 -0.000000 -32.190636
v 6.821567 -0.000000 -22.835243
v -0.680661 0.000000 -31.103456
v 3.281072 0.000000 -20.973818
v -0.873132 -0.000000 -31.049097
v 3.104048 0.000000 -20.880747
v -1.354310 0.000000 -30.913200
v 2.661486 0.000000 -20.648067
v 11.070160 -0.000000 -25.068953
v 16.127048 0.000000 -17.983868
v 11.512722 0.000000 -25.301632
v 16.487785 0.000000 -18.330090
v 10.893135 0.000000 -24.975882
v 15.982754 0.000000 -17.845379
v 7.352641 0.000000 -23.114456
v 13.096867 0.000000 -15.075603
v 7.175615 0.000000 -23.021385
v 12.952572 0.000000 -14.937115
v 6.998591 0.000000 -22.928314
v 12.808277 0.000000 -14.798626
v 6.821567 -0.000000 -22.835243
v 12.663982 0.000000 -14.660137
v 3.281072 0.000000 -20.973818
v 9.778095 0.000000 -11.890362
v 3.104048 0.000000 -20.880747
v 9.633801 0.000000 -11.751873
v 2.661486 0.000000 -20.648067
v 9.273064 0.000000 -11.405650
v 16.127048 0.000000 -17.983868
v 22.992382 0.000000 -12.634480
v 16.487785 0.000000 -18.330090
v 23.242823 0.000000 -13.067238
v 15.982754 0.000000 -17.845379
v 22.892204 0.000000 -12.461377
v 13.096867 0.000000 -15.075603
v 20.888676 0.000000 -8.999316
v 12.952572 0.000000 -14.937115
v 20.788500 0.000000 -8.826212
v 12.808277 0.000000 -14.798626
v 20.688322 0.000000 -8.653110
v 12.663982 0.000000 -14.660137
v 20.588146 0.000000 -8.480006
v 9.778095 0.000000 -11.890362
v 18.584616 0.000000 -5.017945
v 9.633801 0.000000 -11.751873
v 18.484440 0.000000 -4.844842
v 9.273064 0.000000 -11.405650
v 18.233999 0.000000 -4.412085
v 22.992382 0.000000 -12.634480
v 31.278584 0.000000 -9.021575
v 23.242823 0.000000 -13.067238
v 31.433430 0.000000 -9.496993
v 22.892204 0.000000 -12.461377
v 31.216644 0.000000 -8.831408
v 20.888676 0.000000 -8.999316
v 29.977863 0.000000 -5.028063
v 20.788500 0.000000 -8.826212
v 29.915924 0.000000 -4.837895
v 20.688322 0.000000 -8.653110
v 29.853989 0.000000 -4.647728
v 20.588146 0.000000 -8.480006
v 29.792049 0.000000 -4.457561
v 18.584616 0.000000 -5.017945
v 28.553268 0.000000 -0.654216
v 18.484440 0.000000 -4.844842
v 28.491329 0.000000 -0.464049
v 18.233999 0.000000 -4.412085
v 28.336483 0.000000 0.011369
v 31.278584 0.000000 -9.021575
v 40.393581 0.000000 -6.790065
v 31.433430 0.000000 -9.496993
v 40.482971 0.000000 -7.282010
v 31.216644 0.000000 -8.831408
v 40.357826 0.000000 -6.593287
v 29.977863 0.000000 -5.028063
v 39.642700 0.000000 -2.657732
v 29.915924 0.000000 -4.837895
v 39.606945 0.000000 -2.460954
v 29.853989 0.000000 -4.647728
v 39.571186 0.000000 -2.264176
v 29.792049 0.000000 -4.457561
v 39.535431 0.000000 -2.067399
v 28.553268 0.000000 -0.654216
v 38.820305 0.000000 1.868156
v 28.491329 0.000000 -0.464049
v 38.784550 0.000000 2.064934
v 28.336483 0.000000 0.011369
v 38.695160 0.000000 2.556879
v 40.393581 0.000000 -6.790065
v 49.926033 0.000000 -5.510483
v 40.482971 0.000000 -7.282010
v 49.973755 0.000000 -6.008200
v 40.357826 0.000000 -6.593287
v 49.906940 0.000000 -5.311396
v 39.642700 0.000000 -2.657732
v 49.525158 0.000000 -1.329657
v 39.606945 0.000000 -2.460954
v 49.506069 0.000000 -1.130569
v 39.571186 0.000000 -2.264176
v 49.486980 0.000000 -0.931483
v 39.535431 0.000000 -2.067399
v 49.467892 0.000000 -0.732396
v 38.820305 0.000000 1.868156
v 49.086109 0.000000 3.249343
v 38.784550 0.000000 2.064934
v 49.067017 0.000000 3.448430
v 38.695160 0.000000 2.556879
v 49.019295 0.000000 3.946147
v 49.926033 0.000000 -5.510483
v 59.672661 0.000000 -4.854190
v 49.973755 0.000000 -6.008200
v 59.694893 0.000000 -5.353696
v 49.906940 0.000000 -5.311396
v 59.663765 0.000000 -4.654388
v 49.525158 0.000000 -1.329657
v 59.485878 0.000000 -0.658346
v 49.506069 0.000000 -1.130569
v 59.476982 0.000000 -0.458543
v 49.486980 0.000000 -0.931483
v 59.468086 0.000000 -0.258741
v 49.467892 0.000000 -0.732396
v 59.459190 0.000000 -0.058939
v 49.086109 0.000000 3.249343
v 59.281303 0.000000 3.937104
v 49.067017 0.000000 3.448430
v 59.272408 0.000000 4.136905
v 49.019295 0.000000 3.946147
v 59.250175 0.000000 4.636411
v 59.672661 0.000000 -4.854190
v 69.537048 0.000000 -4.575881
v 59.694893 0.000000 -5.353696
v 69.544708 0.000000 -5.075823
v 59.663765 0.000000 -4.654388
v 69.533989 0.000000 -4.375904
v 59.485878 0.000000 -0.658346
v 69.472725 0.000000 -0.376375
v 59.476982 0.000000 -0.458543
v 69.469666 0.000000 -0.176397
v 59.468086 0.000000 -0.258741
v 69.466599 0.000000 0.023579
v 59.459190 0.000000 -0.058939
v 69.463539 0.000000 0.223555
v 59.281303 0.000000 3.937104
v 69.402275 0.000000 4.223086
v 59.272408 0.000000 4.136905
v 69.399216 0.000000 4.423063
v 59.250175 0.000000 4.636411
v 69.391556 0.000000 4.923005
v 69.537048 0.000000 -4.575881
v 79.478210 0.000000 -4.504507
v 69.544708 0.000000 -5.075823
v 79.479370 0.000000 -5.004506
v 69.533989 0.000000 -4.375904
v 79.477753 0.000000 -4.304507
v 69.472725 0.000000 -0.376375
v 79.468483 0.000000 -0.304518
v 69.469666 0.000000 -0.176397
v 79.468018 0.000000 -0.104518
v 69.466599 0.000000 0.023579
v 79.467560 0.000000 0.095482
v 69.463539 0.000000 0.223555
v 79.467094 0.000000 0.295481
v 69.402275 0.000000 4.223086
v 79.457825 0.000000 4.295471
v 69.399216 0.000000 4.423063
v 79.457367 0.000000 4.495470
v 69.391556 0.000000 4.923005
v 79.456207 0.000000 4.995469
v 79.478210 0.000000 -4.504507
v 95.000000 0.000000 -4.499999
v 79.479370 0.000000 -5.004506
v 95.000000 0.000000 -5.000000
v 79.477753 0.000000 -4.304507
v 95.000000 0.000000 -4.299999
v 79.468483 0.000000 -0.304518
v 95.000000 0.000000 -0.299999
v 79.468018 0.000000 -0.104518
v 95.000000 0.000000 -0.099999
v 79.467560 0.000000 0.095482
v 95.000000 0.000000 0.100000
v 79.467094 0.000000 0.295481
v 95.000000 0.000000 0.300001
v 79.457825 0.000000 4.295471
v 95.000000 0.000000 4.300002
v 79.457367 0.000000 4.495470
v 95.000000 0.000000 4.500000
v 79.456207 0.000000 4.995469
v 95.000000 0.000000 5.000000
v -4.852455 0.000000 -60.172276
v -4.852462 -0.000000 -71.993034
v -4.852458 0.000000 -61.906139
v -4.852458 0.000000 -61.906139
v -4.852462 -0.000000 -71.993034
vt 1.000000 0.000000
vt 0.000000 0.000000
vt 0.000000 0.000000
vt 1.000000 0.000000
vt 1.000000 0.000000
vt 0.000000 0.000000
vt 0.000000 0.000000
vt 1.000000 0.000000
vt 1.000000 0.000000
vt 0.000000 0.000000
vt 0.000000 0.000000
vt 1.000000 0.000000
vt 1.000000 0.000000
vt 0.000000 0.000000
vt 0.000000 0.000000
vt 1.000000 0.000000
vt 1.000000 0.000000
vt 0.000000 0.000000
vt 0.000000 0.000000
vt 1.000000 0.000000
vt 1.000000 0.000000
vt 0.000000 0.000000
vt 0.000000 0.000000
vt 1.000000 0.000000
vt 1.000000 0.000000
vt 0.000000 0.000000
vt 0.000000 0.000000
vt 1.000000 0.000000
vt 1.000000 0.000000
vt 0.000000 0.000000
vt 0.000000 0.000000
vt 1.000000 0.000000
vt 1.000000 0.000000
vt 0.000000 0.000000
vt 0.000000 0.000000
vt 1.000000 0.000000
vt 1.000000 0.000000
vt 0.000000 0.000000
vt 0.000000 0.000000
vt 1.000000 0.000000
vt 1.000000 0.000000
vt 0.000000 0.000000
vt 0.000000 0.000000
vt 1.000000 0.000000
vt 1.000000 0.000000
vt 0.000000 0.000000
vt 0.000000 0.000000
vt 1.000000 0.000000
vt 1.000000 0.000000
vt 0.000000 0.000000
vt 0.000000 0.000000
vt 1.000000 0.000000
vt 1.000000 0.000000
vt 0.000000 0.000000
vt 0.000000 0.000000
vt 1.000000 0.000000
vt 1.000000 0.000000
vt 0.000000 0.000000
vt 0.000000 0.000000
vt 1.000000 0.000000
vt 1.000000 0.000000
vt 0.000000 0.000000
vt 0.000000 0.000000
vt 1.000000 0.000000
vt 1.000000 0.000000
vt 0.000000 0.000000
vt 0.000000 0.000000
vt 1.000000 0.000000
vt 1.000000 0.000000
vt 0.000000 0.000000
vt 0.000000 0.000000
vt 1.000000 0.000000
vt 1.000000 0.000000
vt 0.000000 0.000000
vt 0.000000 0.000000
vt 1.000000 0.000000
vt 1.000000 0.000000
vt 0.000000 0.000000
vt 0.000000 0.000000
vt 1.000000 0.000000
vt 1.000000 0.000000
vt 0.000000 0.000000
vt 0.000000 0.000000
vt 1.000000 0.000000
vt 1.000000 0.000000
vt 0.000000 0.000000
vt 0.000000 0.000000
vt 1.000000 0.000000
vt 1.000000 0.000000
vt 0.000000 0.000000
vt 0.000000 0.000000
vt 1.000000 0.000000
vt 1.000000 0.000000
vt 0.000000 0.000000
vt 0.000000 0.000000
vt 1.000000 0.000000
vt 1.000000 0.000000
vt 0.000000 0.000000
vt 0.000000 0.000000
vt 1.000000 0.000000
vt 1.000000 0.000000
vt 0.000000 0.000000
vt 0.000000 0.000000
vt 1.000000 0.000000
vt 1.000000 0.000000
vt 0.000000 0.000000
vt 0.000000 0.000000
vt 1.000000 0.000000
vt 1.000000 0.000000
vt 0.000000 0.000000
vt 0.000000 0.000000
vt 1.000000 0.000000
vt 1.000000 0.000000
vt 0.000000 0.000000
vt 0.000000 0.000000
vt 1.000000 0.000000
vt 1.000000 0.000000
vt 0.000000 0.000000
vt 0.000000 0.000000
vt 1.000000 0.000000
vt 1.000000 1.000000
vt 0.000000 1.000000
vt 0.000000 0.000000
vt 1.000000 0.000000
vt 1.000000 0.000000
vt 0.000000 0.000000
vt 0.000000 0.000000
vt 1.000000 0.000000
vt 1.000000 0.000000
vt 0.000000 0.000000
vt 0.000000 0.000000
vt 1.000000 0.000000
vt 1.000000 1.000000
vt 0.000000 1.000000
vt 0.000000 0.000000
vt 1.000000 0.000000
vt 1.000000 0.000000
vt 0.000000 0.000000
vt 0.000000 0.000000
vt 1.000000 0.000000
vt 1.000000 0.000000
vt 0.000000 0.000000
vt 0.000000 0.000000
vt 1.000000 0.000000
vt 1.000000 1.000000
vt 0.000000 1.000000
vt 0.000000 0.000000
vt 1.000000 0.000000
vt 1.000000 0.000000
vt 0.000000 0.000000
vt 0.000000 0.000000
vt 1.000000 0.000000
vt 1.000000 0.000000
vt 0.000000 0.000000
vt 0.000000 0.000000
vt 0.169696 0.000000
vt 1.000000 0.000000
vt 1.000000 1.000000
vt 0.000000 1.000000
vt 0.000000 0.000000
vt 1.000000 0.000000
vt 1.000000 0.000000
vt 0.000000 0.000000
vt 0.000000 0.000000
vt 1.000000 0.000000
vt 1.000000 0.000000
vt 0.000000 0.000000
vt 0.000000 0.000000
vt 1.000000 0.000000
vt 1.000000 1.000000
vt 0.000000 1.000000
vt 0.000000 0.000000
vt 1.000000 0.000000
vt 1.000000 0.000000
vt 0.000000 0.000000
vt 0.000000 0.000000
vt 1.000000 0.000000
vt 1.000000 0.000000
vt 0.000000 0.000000
vt 0.000000 0.000000
vt 1.000000 0.000000
vt 1.000000 1.000000
vt 0.000000 1.000000
vt 0.000000 0.000000
vt 1.000000 0.000000
vt 1.000000 0.000000
vt 0.000000 0.000000
vt 0.000000 0.000000
vt 1.000000 0.000000
vt 1.000000 0.000000
vt 0.000000 0.000000
vt 0.000000 0.000000
vt 1.000000 0.000000
vt 1.000000 1.000000
vt 0.000000 1.000000
vt 0.000000 0.000000
vt 1.000000 0.000000
vt 1.000000 0.000000
vt 0.000000 0.000000
vt 0.000000 0.000000
vt 1.000000 0.000000
vt 1.000000 0.000000
vt 0.000000 0.000000
vt 0.000000 0.000000
vt 1.000000 0.000000
vt 1.000000 1.000000
vt 0.000000 1.000000
vt 0.000000 0.000000
vt 1.000000 0.000000
vt 1.000000 0.000000
vt 0.000000 0.000000
vt 0.000000 0.000000
vt 1.000000 0.000000
vt 1.000000 0.000000
vt 0.000000 0.000000
vt 0.000000 0.000000
vt 1.000000 0.000000
vt 1.000000 1.000000
vt 0.000000 1.000000
vt 0.000000 0.000000
vt 1.000000 0.000000
vt 1.000000 0.000000
vt 0.000000 0.000000
vt 0.000000 0.000000
vt 1.000000 0.000000
vt 1.000000 0.000000
vt 0.000000 0.000000
vt 0.000000 0.000000
vt 1.000000 0.000000
vt 1.000000 1.000000
vt 0.000000 1.000000
vt 0.000000 0.000000
vt 1.000000 0.000000
vt 1.000000 0.000000
vt 0.000000 0.000000
vt 0.000000 0.000000
vt 1.000000 0.000000
vt 1.000000 0.000000
vt 0.000000 0.000000
vt 0.000000 0.000000
vt 1.000000 0.000000
vt 1.000000 1.000000
vt 0.000000 1.000000
vt 0.000000 0.000000
vt 1.000000 0.000000
vt 1.000000 0.000000
vt 0.000000 0.000000
vt 0.000000 0.000000
vt 1.000000 0.000000
vt 1.000000 0.000000
vt 0.000000 0.000000
vt 0.000000 0.000000
vt 1.000000 0.000000
vt 1.000000 1.000000
vt 0.000000 1.000000
vt 0.000000 0.000000
vt 1.000000 0.000000
vt 1.000000 0.000000
vt 0.000000 0.000000
vt 0.000000 0.000000
vt 1.000000 0.000000
vt 1.000000 0.000000
vt 0.000000 0.000000
vt 0.000000 0.000000
vt 1.000000 0.000000
vt 1.000000 1.000000
vt 0.000000 1.000000
vt 0.000000 0.000000
vt 1.000000 0.000000
vt 1.000000 0.000000
vt 0.000000 0.000000
vt 0.000000 0.000000
vt 1.000000 0.000000
vt 1.000000 0.000000
vt 0.000000 0.000000
vt 0.000000 0.000000
vt 1.000000 0.000000
vt 1.000000 1.000000
vt 0.000000 1.000000
vt 0.000000 0.000000
vt 1.000000 0.000000
vt 1.000000 0.000000
vt 0.000000 0.000000
vt 0.000000 0.000000
vt 1.000000 0.000000
vt 1.000000 0.000000
vt 0.000000 0.000000
vt 0.000000 0.000000
vt 1.000000 0.000000
vt 1.000000 1.000000
vt 0.000000 1.000000
vt 0.000000 0.000000
vt 1.000000 0.000000
vt 1.000000 0.000000
vt 0.000000 0.000000
vt 0.000000 0.000000
vt 1.000000 0.000000
vt 1.000000 0.000000
vt 0.000000 0.000000
vt 0.000000 0.000000
vt 1.000000 0.000000
vn -0.0000 1.0000 0.0000
usemtl Concrete.002
s off
f 2/1/1 1/2/1 5/3/1 6/4/1
f 16/5/1 15/6/1 17/7/1 18/8/1
f 21/9/1 20/10/1 24/11/1 25/12/1
f 35/13/1 34/14/1 36/15/1 37/16/1
f 39/17/1 38/18/1 42/19/1 43/20/1
f 53/21/1 52/22/1 54/23/1 55/24/1
f 58/25/1 57/26/1 61/27/1 62/28/1
f 72/29/1 71/30/1 73/31/1 74/32/1
f 78/33/1 77/34/1 81/35/1 82/36/1
f 92/37/1 91/38/1 93/39/1 94/40/1
f 98/41/1 97/42/1 101/43/1 102/44/1
f 112/45/1 111/46/1 113/47/1 114/48/1
f 118/49/1 117/50/1 121/51/1 122/52/1
f 132/53/1 131/54/1 133/55/1 134/56/1
f 138/57/1 137/58/1 141/59/1 142/60/1
f 152/61/1 151/62/1 153/63/1 154/64/1
f 158/65/1 157/66/1 161/67/1 162/68/1
f 172/69/1 171/70/1 173/71/1 174/72/1
f 178/73/1 177/74/1 181/75/1 182/76/1
f 192/77/1 191/78/1 193/79/1 194/80/1
f 198/81/1 197/82/1 201/83/1 202/84/1
f 212/85/1 211/86/1 213/87/1 214/88/1
f 218/89/1 217/90/1 221/91/1 222/92/1
f 232/93/1 231/94/1 233/95/1 234/96/1
f 238/97/1 237/98/1 241/99/1 242/100/1
f 252/101/1 251/102/1 253/103/1 254/104/1
f 258/105/1 257/106/1 261/107/1 262/108/1
f 272/109/1 271/110/1 273/111/1 274/112/1
f 278/113/1 277/114/1 281/115/1 282/116/1
f 292/117/1 291/118/1 293/119/1 294/120/1
usemtl Tar.002
f 1/2/1 2/1/1 4/121/1 3/122/1
f 6/4/1 5/3/1 7/123/1 8/124/1
f 10/125/1 9/126/1 11/127/1 12/128/1
f 14/129/1 13/130/1 15/6/1 16/5/1
f 18/8/1 17/7/1 19/131/1 298/132/1
f 20/10/1 21/9/1 23/133/1 22/134/1
f 25/12/1 24/11/1 26/135/1 27/136/1
f 29/137/1 28/138/1 30/139/1 31/140/1
f 33/141/1 32/142/1 34/14/1 35/13/1
f 37/16/1 36/15/1 301/143/1 300/144/1
f 38/18/1 39/17/1 41/145/1 40/146/1
f 43/20/1 42/19/1 44/147/1 45/148/1
f 47/149/1 46/150/1 48/151/1 49/152/1
f 51/153/1 50/154/1 52/22/1 53/21/1
f 55/24/1 54/23/1 299/155/1 297/156/1 56/157/1
f 57/26/1 58/25/1 60/158/1 59/159/1
f 62/28/1 61/27/1 63/160/1 64/161/1
f 66/162/1 65/163/1 67/164/1 68/165/1
f 70/166/1 69/167/1 71/30/1 72/29/1
f 74/32/1 73/31/1 75/168/1 76/169/1
f 77/34/1 78/33/1 80/170/1 79/171/1
f 82/36/1 81/35/1 83/172/1 84/173/1
f 86/174/1 85/175/1 87/176/1 88/177/1
f 90/178/1 89/179/1 91/38/1 92/37/1
f 94/40/1 93/39/1 95/180/1 96/181/1
f 97/42/1 98/41/1 100/182/1 99/183/1
f 102/44/1 101/43/1 103/184/1 104/185/1
f 106/186/1 105/187/1 107/188/1 108/189/1
f 110/190/1 109/191/1 111/46/1 112/45/1
f 114/48/1 113/47/1 115/192/1 116/193/1
f 117/50/1 118/49/1 120/194/1 119/195/1
f 122/52/1 121/51/1 123/196/1 124/197/1
f 126/198/1 125/199/1 127/200/1 128/201/1
f 130/202/1 129/203/1 131/54/1 132/53/1
f 134/56/1 133/55/1 135/204/1 136/205/1
f 137/58/1 138/57/1 140/206/1 139/207/1
f 142/60/1 141/59/1 143/208/1 144/209/1
f 146/210/1 145/211/1 147/212/1 148/213/1
f 150/214/1 149/215/1 151/62/1 152/61/1
f 154/64/1 153/63/1 155/216/1 156/217/1
f 157/66/1 158/65/1 160/218/1 159/219/1
f 162/68/1 161/67/1 163/220/1 164/221/1
f 166/222/1 165/223/1 167/224/1 168/225/1
f 170/226/1 169/227/1 171/70/1 172/69/1
f 174/72/1 173/71/1 175/228/1 176/229/1
f 177/74/1 178/73/1 180/230/1 179/231/1
f 182/76/1 181/75/1 183/232/1 184/233/1
f 186/234/1 185/235/1 187/236/1 188/237/1
f 190/238/1 189/239/1 191/78/1 192/77/1
f 194/80/1 193/79/1 195/240/1 196/241/1
f 197/82/1 198/81/1 200/242/1 199/243/1
f 202/84/1 201/83/1 203/244/1 204/245/1
f 206/246/1 205/247/1 207/248/1 208/249/1
f 210/250/1 209/251/1 211/86/1 212/85/1
f 214/88/1 213/87/1 215/252/1 216/253/1
f 217/90/1 218/89/1 220/254/1 219/255/1
f 222/92/1 221/91/1 223/256/1 224/257/1
f 226/258/1 225/259/1 227/260/1 228/261/1
f 230/262/1 229/263/1 231/94/1 232/93/1
f 234/96/1 233/95/1 235/264/1 236/265/1
f 237/98/1 238/97/1 240/266/1 239/267/1
f 242/100/1 241/99/1 243/268/1 244/269/1
f 246/270/1 245/271/1 247/272/1 248/273/1
f 250/274/1 249/275/1 251/102/1 252/101/1
f 254/104/1 253/103/1 255/276/1 256/277/1
f 257/106/1 258/105/1 260/278/1 259/279/1
f 262/108/1 261/107/1 263/280/1 264/281/1
f 266/282/1 265/283/1 267/284/1 268/285/1
f 270/286/1 269/287/1 271/110/1 272/109/1
f 274/112/1 273/111/1 275/288/1 276/289/1
f 277/114/1 278/113/1 280/290/1 279/291/1
f 282/116/1 281/115/1 283/292/1 284/293/1
f 286/294/1 285/295/1 287/296/1 288/297/1
f 290/298/1 289/299/1 291/118/1 292/117/1
f 294/120/1 293/119/1 295/300/1 296/301/1
usemtl Yeollow.002
f 8/124/1 7/123/1 9/126/1 10/125/1
f 12/128/1 11/127/1 13/130/1 14/129/1
f 27/136/1 26/135/1 28/138/1 29/137/1
f 31/140/1 30/139/1 32/142/1 33/141/1
f 45/148/1 44/147/1 46/150/1 47/149/1
f 49/152/1 48/151/1 50/154/1 51/153/1
f 64/161/1 63/160/1 65/163/1 66/162/1
f 68/165/1 67/164/1 69/167/1 70/166/1
f 84/173/1 83/172/1 85/175/1 86/174/1
f 88/177/1 87/176/1 89/179/1 90/178/1
f 104/185/1 103/184/1 105/187/1 106/186/1
f 108/189/1 107/188/1 109/191/1 110/190/1
f 124/197/1 123/196/1 125/199/1 126/198/1
f 128/201/1 127/200/1 129/203/1 130/202/1
f 144/209/1 143/208/1 145/211/1 146/210/1
f 148/213/1 147/212/1 149/215/1 150/214/1
f 164/221/1 163/220/1 165/223/1 166/222/1
f 168/225/1 167/224/1 169/227/1 170/226/1
f 184/233/1 183/232/1 185/235/1 186/234/1
f 188/237/1 187/236/1 189/239/1 190/238/1
f 204/245/1 203/244/1 205/247/1 206/246/1
f 208/249/1 207/248/1 209/251/1 210/250/1
f 224/257/1 223/256/1 225/259/1 226/258/1
f 228/261/1 227/260/1 229/263/1 230/262/1
f 244/269/1 243/268/1 245/271/1 246/270/1
f 248/273/1 247/272/1 249/275/1 250/274/1
f 264/281/1 263/280/1 265/283/1 266/282/1
f 268/285/1 267/284/1 269/287/1 270/286/1
f 284/293/1 283/292/1 285/295/1 286/294/1
f 288/297/1 287/296/1 289/299/1 290/298/1
