# Blender v3.2.0 OBJ File: 'FINAL_STREET_COLLECTION_SAVEGAME.blend'
# www.blender.org
mtllib ga_gm_streets_crossing.mtl
o Plane_Plane.008
v -5.000000 0.000000 5.000000
v 5.000000 0.000000 5.000000
v -5.000000 0.000000 -5.000000
v 5.000000 0.000000 -5.000000
vt 0.000000 0.000000
vt 1.000000 0.000000
vt 1.000000 1.000000
vt 0.000000 1.000000
vn 0.0000 1.0000 0.0000
usemtl Tar
s off
f 1/1/1 2/2/1 4/3/1 3/4/1
o SidewalkRight.002_Cube.011
v 3.000000 0.000000 5.000000
v 3.000000 0.100000 5.000000
v 5.000000 0.000000 5.000000
v 5.000000 0.100000 5.000000
v 5.000000 0.000000 3.000000
v 5.000000 0.100000 3.000000
v 3.000000 0.000000 5.000000
v 5.000000 0.000000 3.000000
v 3.010956 0.000000 4.790943
v 3.043705 0.000000 4.584177
v 3.097887 0.000000 4.381966
v 3.172909 0.000000 4.186527
v 3.267949 0.000000 4.000000
v 3.381966 0.000000 3.824430
v 3.513710 0.000000 3.661739
v 3.661739 0.000000 3.513710
v 3.824430 0.000000 3.381966
v 4.000000 0.000000 3.267949
v 4.186527 0.000000 3.172909
v 4.381966 0.000000 3.097887
v 4.584177 0.000000 3.043705
v 4.790943 0.000000 3.010956
v 5.000000 0.100000 3.000000
v 3.000000 0.100000 5.000000
v 4.790943 0.100000 3.010956
v 4.584177 0.100000 3.043705
v 4.381966 0.100000 3.097887
v 4.186527 0.100000 3.172909
v 4.000000 0.100000 3.267949
v 3.824430 0.100000 3.381966
v 3.661739 0.100000 3.513710
v 3.513710 0.100000 3.661739
v 3.381966 0.100000 3.824430
v 3.267949 0.100000 4.000000
v 3.172909 0.100000 4.186527
v 3.097887 0.100000 4.381966
v 3.043705 0.100000 4.584177
v 3.010956 0.100000 4.790943
vt 0.375000 0.500000
vt 0.625000 0.500000
vt 0.625000 0.500000
vt 0.375000 0.500000
vt 0.651132 0.501370
vt 0.676978 0.505463
vt 0.702254 0.512236
vt 0.726684 0.521614
vt 0.750000 0.533494
vt 0.771946 0.547746
vt 0.792283 0.564214
vt 0.810786 0.582717
vt 0.827254 0.603054
vt 0.841506 0.625000
vt 0.853386 0.648316
vt 0.862764 0.672746
vt 0.869537 0.698022
vt 0.873631 0.723868
vt 0.875000 0.750000
vt 0.875000 0.750000
vt 0.625000 0.750000
vt 0.375000 0.750000
vt 0.625000 1.000000
vt 0.375000 1.000000
vt 0.375000 0.000000
vt 0.625000 0.000000
vt 0.625000 0.000000
vt 0.375000 0.000000
vt 0.375000 0.473868
vt 0.625000 0.473868
vt 0.375000 0.448022
vt 0.625000 0.448022
vt 0.375000 0.422746
vt 0.625000 0.422746
vt 0.375000 0.398316
vt 0.625000 0.398316
vt 0.375000 0.375000
vt 0.625000 0.375000
vt 0.375000 0.353054
vt 0.625000 0.353054
vt 0.375000 0.332717
vt 0.625000 0.332717
vt 0.375000 0.167283
vt 0.625000 0.167283
vt 0.375000 0.146946
vt 0.625000 0.146946
vt 0.375000 0.125000
vt 0.625000 0.125000
vt 0.375000 0.101684
vt 0.625000 0.101684
vt 0.375000 0.077254
vt 0.625000 0.077254
vt 0.375000 0.051978
vt 0.625000 0.051978
vt 0.375000 0.026132
vt 0.625000 0.026132
vt 0.125000 0.750000
vt 0.126370 0.723868
vt 0.130463 0.698022
vt 0.137236 0.672746
vt 0.146614 0.648316
vt 0.158494 0.625000
vt 0.172746 0.603054
vt 0.189214 0.582717
vt 0.207717 0.564214
vt 0.228054 0.547746
vt 0.250000 0.533494
vt 0.273316 0.521614
vt 0.297746 0.512236
vt 0.323022 0.505463
vt 0.348868 0.501370
vt 0.125000 0.750000
vn 0.0000 0.0000 1.0000
vn 0.0000 1.0000 0.0000
vn 1.0000 0.0000 0.0000
vn -0.0523 0.0000 -0.9986
vn -0.1564 0.0000 -0.9877
vn -0.2588 0.0000 -0.9659
vn -0.3584 0.0000 -0.9336
vn -0.4540 0.0000 -0.8910
vn -0.5446 0.0000 -0.8387
vn -0.6293 0.0000 -0.7771
vn -0.7071 0.0000 -0.7071
vn -0.7771 0.0000 -0.6293
vn -0.8387 0.0000 -0.5446
vn -0.8910 0.0000 -0.4540
vn -0.9336 0.0000 -0.3584
vn -0.9659 0.0000 -0.2588
vn -0.9877 0.0000 -0.1564
vn -0.9986 0.0000 -0.0523
vn 0.0000 -1.0000 0.0000
usemtl None
s off
f 12/5/2 27/6/2 10/7/2 9/8/2
f 10/7/3 27/6/3 29/9/3 30/10/3 31/11/3 32/12/3 33/13/3 34/14/3 35/15/3 36/16/3 37/17/3 38/18/3 39/19/3 40/20/3 41/21/3 42/22/3 28/23/3 6/24/3 8/25/3
f 9/8/4 10/7/4 8/25/4 7/26/4
f 7/26/2 8/25/2 6/27/2 5/28/2
f 5/29/2 6/30/2 28/31/2 11/32/2
f 27/6/5 12/5/5 26/33/5 29/34/5
f 29/34/6 26/33/6 25/35/6 30/36/6
f 30/36/7 25/35/7 24/37/7 31/38/7
f 31/38/8 24/37/8 23/39/8 32/40/8
f 32/40/9 23/39/9 22/41/9 33/42/9
f 33/42/10 22/41/10 21/43/10 34/44/10
f 34/44/11 21/43/11 20/45/11 35/46/11
f 35/46/12 20/45/12 19/47/12 36/48/12
f 36/48/13 19/47/13 18/49/13 37/50/13
f 37/50/14 18/49/14 17/51/14 38/52/14
f 38/52/15 17/51/15 16/53/15 39/54/15
f 39/54/16 16/53/16 15/55/16 40/56/16
f 40/56/17 15/55/17 14/57/17 41/58/17
f 41/58/18 14/57/18 13/59/18 42/60/18
f 42/60/19 13/59/19 11/32/19 28/31/19
f 11/61/20 13/62/20 14/63/20 15/64/20 16/65/20 17/66/20 18/67/20 19/68/20 20/69/20 21/70/20 22/71/20 23/72/20 24/73/20 25/74/20 26/75/20 12/5/20 9/8/20 7/26/20 5/76/20
o SidewalkRight.003_Cube.012
v -5.000000 0.000000 3.000000
v -5.000000 0.100000 3.000000
v -5.000000 0.000000 5.000000
v -5.000000 0.100000 5.000000
v -3.000000 0.000000 5.000000
v -3.000000 0.100000 5.000000
v -5.000000 0.000000 3.000000
v -3.000000 0.000000 5.000000
v -4.790943 0.000000 3.010956
v -4.584177 0.000000 3.043705
v -4.381966 0.000000 3.097887
v -4.186527 0.000000 3.172909
v -4.000000 0.000000 3.267949
v -3.824430 0.000000 3.381966
v -3.661739 0.000000 3.513710
v -3.513710 0.000000 3.661739
v -3.381966 0.000000 3.824430
v -3.267949 0.000000 4.000000
v -3.172909 0.000000 4.186527
v -3.097887 0.000000 4.381966
v -3.043705 0.000000 4.584177
v -3.010956 0.000000 4.790943
v -3.000000 0.100000 5.000000
v -5.000000 0.100000 3.000000
v -3.010956 0.100000 4.790943
v -3.043705 0.100000 4.584177
v -3.097887 0.100000 4.381966
v -3.172909 0.100000 4.186527
v -3.267949 0.100000 4.000000
v -3.381966 0.100000 3.824430
v -3.513710 0.100000 3.661739
v -3.661739 0.100000 3.513710
v -3.824430 0.100000 3.381966
v -4.000000 0.100000 3.267949
v -4.186527 0.100000 3.172909
v -4.381966 0.100000 3.097887
v -4.584177 0.100000 3.043705
v -4.790943 0.100000 3.010956
vt 0.375000 0.500000
vt 0.625000 0.500000
vt 0.625000 0.500000
vt 0.375000 0.500000
vt 0.651132 0.501370
vt 0.676978 0.505463
vt 0.702254 0.512236
vt 0.726684 0.521614
vt 0.750000 0.533494
vt 0.771946 0.547746
vt 0.792283 0.564214
vt 0.810786 0.582717
vt 0.827254 0.603054
vt 0.841506 0.625000
vt 0.853386 0.648316
vt 0.862764 0.672746
vt 0.869537 0.698022
vt 0.873631 0.723868
vt 0.875000 0.750000
vt 0.875000 0.750000
vt 0.625000 0.750000
vt 0.375000 0.750000
vt 0.625000 1.000000
vt 0.375000 1.000000
vt 0.375000 0.000000
vt 0.625000 0.000000
vt 0.625000 0.000000
vt 0.375000 0.000000
vt 0.375000 0.473868
vt 0.625000 0.473868
vt 0.375000 0.448022
vt 0.625000 0.448022
vt 0.375000 0.422746
vt 0.625000 0.422746
vt 0.375000 0.398316
vt 0.625000 0.398316
vt 0.375000 0.375000
vt 0.625000 0.375000
vt 0.375000 0.353054
vt 0.625000 0.353054
vt 0.375000 0.332717
vt 0.625000 0.332717
vt 0.375000 0.167283
vt 0.625000 0.167283
vt 0.375000 0.146946
vt 0.625000 0.146946
vt 0.375000 0.125000
vt 0.625000 0.125000
vt 0.375000 0.101684
vt 0.625000 0.101684
vt 0.375000 0.077254
vt 0.625000 0.077254
vt 0.375000 0.051978
vt 0.625000 0.051978
vt 0.375000 0.026132
vt 0.625000 0.026132
vt 0.125000 0.750000
vt 0.126370 0.723868
vt 0.130463 0.698022
vt 0.137236 0.672746
vt 0.146614 0.648316
vt 0.158494 0.625000
vt 0.172746 0.603054
vt 0.189214 0.582717
vt 0.207717 0.564214
vt 0.228054 0.547746
vt 0.250000 0.533494
vt 0.273316 0.521614
vt 0.297746 0.512236
vt 0.323022 0.505463
vt 0.348868 0.501370
vt 0.125000 0.750000
vn 0.0000 0.0000 1.0000
vn 0.0000 1.0000 -0.0000
vn -1.0000 0.0000 0.0000
vn 0.9986 0.0000 -0.0523
vn 0.9877 0.0000 -0.1564
vn 0.9659 0.0000 -0.2588
vn 0.9336 0.0000 -0.3584
vn 0.8910 0.0000 -0.4540
vn 0.8387 0.0000 -0.5446
vn 0.7771 0.0000 -0.6293
vn 0.7071 0.0000 -0.7071
vn 0.6293 0.0000 -0.7771
vn 0.5446 0.0000 -0.8387
vn 0.4540 0.0000 -0.8910
vn 0.3584 0.0000 -0.9336
vn 0.2588 0.0000 -0.9659
vn 0.1564 0.0000 -0.9877
vn 0.0523 0.0000 -0.9986
vn 0.0000 -1.0000 0.0000
usemtl None
s off
f 50/77/21 65/78/21 48/79/21 47/80/21
f 48/79/22 65/78/22 67/81/22 68/82/22 69/83/22 70/84/22 71/85/22 72/86/22 73/87/22 74/88/22 75/89/22 76/90/22 77/91/22 78/92/22 79/93/22 80/94/22 66/95/22 44/96/22 46/97/22
f 47/80/21 48/79/21 46/97/21 45/98/21
f 45/98/23 46/97/23 44/99/23 43/100/23
f 43/101/21 44/102/21 66/103/21 49/104/21
f 65/78/24 50/77/24 64/105/24 67/106/24
f 67/106/25 64/105/25 63/107/25 68/108/25
f 68/108/26 63/107/26 62/109/26 69/110/26
f 69/110/27 62/109/27 61/111/27 70/112/27
f 70/112/28 61/111/28 60/113/28 71/114/28
f 71/114/29 60/113/29 59/115/29 72/116/29
f 72/116/30 59/115/30 58/117/30 73/118/30
f 73/118/31 58/117/31 57/119/31 74/120/31
f 74/120/32 57/119/32 56/121/32 75/122/32
f 75/122/33 56/121/33 55/123/33 76/124/33
f 76/124/34 55/123/34 54/125/34 77/126/34
f 77/126/35 54/125/35 53/127/35 78/128/35
f 78/128/36 53/127/36 52/129/36 79/130/36
f 79/130/37 52/129/37 51/131/37 80/132/37
f 80/132/38 51/131/38 49/104/38 66/103/38
f 49/133/39 51/134/39 52/135/39 53/136/39 54/137/39 55/138/39 56/139/39 57/140/39 58/141/39 59/142/39 60/143/39 61/144/39 62/145/39 63/146/39 64/147/39 50/77/39 47/80/39 45/98/39 43/148/39
o SidewalkRight.004_Cube.013
v -3.000000 0.000000 -5.000000
v -3.000000 0.100000 -5.000000
v -5.000000 0.000000 -5.000000
v -5.000000 0.100000 -5.000000
v -5.000000 0.000000 -3.000000
v -5.000000 0.100000 -3.000000
v -3.000000 0.000000 -5.000000
v -5.000000 0.000000 -3.000000
v -3.010956 0.000000 -4.790943
v -3.043705 0.000000 -4.584177
v -3.097887 0.000000 -4.381966
v -3.172909 0.000000 -4.186527
v -3.267949 0.000000 -4.000000
v -3.381966 0.000000 -3.824430
v -3.513710 0.000000 -3.661739
v -3.661739 0.000000 -3.513710
v -3.824430 0.000000 -3.381966
v -4.000000 0.000000 -3.267949
v -4.186527 0.000000 -3.172909
v -4.381966 0.000000 -3.097887
v -4.584177 0.000000 -3.043705
v -4.790943 0.000000 -3.010956
v -5.000000 0.100000 -3.000000
v -3.000000 0.100000 -5.000000
v -4.790943 0.100000 -3.010956
v -4.584177 0.100000 -3.043705
v -4.381966 0.100000 -3.097887
v -4.186527 0.100000 -3.172909
v -4.000000 0.100000 -3.267949
v -3.824430 0.100000 -3.381966
v -3.661739 0.100000 -3.513710
v -3.513710 0.100000 -3.661739
v -3.381966 0.100000 -3.824430
v -3.267949 0.100000 -4.000000
v -3.172909 0.100000 -4.186527
v -3.097887 0.100000 -4.381966
v -3.043705 0.100000 -4.584177
v -3.010956 0.100000 -4.790943
vt 0.375000 0.500000
vt 0.625000 0.500000
vt 0.625000 0.500000
vt 0.375000 0.500000
vt 0.651132 0.501370
vt 0.676978 0.505463
vt 0.702254 0.512236
vt 0.726684 0.521614
vt 0.750000 0.533494
vt 0.771946 0.547746
vt 0.792283 0.564214
vt 0.810786 0.582717
vt 0.827254 0.603054
vt 0.841506 0.625000
vt 0.853386 0.648316
vt 0.862764 0.672746
vt 0.869537 0.698022
vt 0.873631 0.723868
vt 0.875000 0.750000
vt 0.875000 0.750000
vt 0.625000 0.750000
vt 0.375000 0.750000
vt 0.625000 1.000000
vt 0.375000 1.000000
vt 0.375000 0.000000
vt 0.625000 0.000000
vt 0.625000 0.000000
vt 0.375000 0.000000
vt 0.375000 0.473868
vt 0.625000 0.473868
vt 0.375000 0.448022
vt 0.625000 0.448022
vt 0.375000 0.422746
vt 0.625000 0.422746
vt 0.375000 0.398316
vt 0.625000 0.398316
vt 0.375000 0.375000
vt 0.625000 0.375000
vt 0.375000 0.353054
vt 0.625000 0.353054
vt 0.375000 0.332717
vt 0.625000 0.332717
vt 0.375000 0.167283
vt 0.625000 0.167283
vt 0.375000 0.146946
vt 0.625000 0.146946
vt 0.375000 0.125000
vt 0.625000 0.125000
vt 0.375000 0.101684
vt 0.625000 0.101684
vt 0.375000 0.077254
vt 0.625000 0.077254
vt 0.375000 0.051978
vt 0.625000 0.051978
vt 0.375000 0.026132
vt 0.625000 0.026132
vt 0.125000 0.750000
vt 0.126370 0.723868
vt 0.130463 0.698022
vt 0.137236 0.672746
vt 0.146614 0.648316
vt 0.158494 0.625000
vt 0.172746 0.603054
vt 0.189214 0.582717
vt 0.207717 0.564214
vt 0.228054 0.547746
vt 0.250000 0.533494
vt 0.273316 0.521614
vt 0.297746 0.512236
vt 0.323022 0.505463
vt 0.348868 0.501370
vt 0.125000 0.750000
vn 0.0000 0.0000 1.0000
vn 0.0000 1.0000 0.0000
vn -1.0000 0.0000 0.0000
vn 0.0000 0.0000 -1.0000
vn 0.0523 0.0000 0.9986
vn 0.1564 0.0000 0.9877
vn 0.2588 0.0000 0.9659
vn 0.3584 0.0000 0.9336
vn 0.4540 0.0000 0.8910
vn 0.5446 0.0000 0.8387
vn 0.6293 0.0000 0.7771
vn 0.7071 0.0000 0.7071
vn 0.7771 0.0000 0.6293
vn 0.8387 0.0000 0.5446
vn 0.8910 0.0000 0.4540
vn 0.9336 0.0000 0.3584
vn 0.9659 0.0000 0.2588
vn 0.9877 0.0000 0.1564
vn 0.9986 0.0000 0.0523
vn 0.0000 -1.0000 0.0000
usemtl None
s off
f 88/149/40 103/150/40 86/151/40 85/152/40
f 86/151/41 103/150/41 105/153/41 106/154/41 107/155/41 108/156/41 109/157/41 110/158/41 111/159/41 112/160/41 113/161/41 114/162/41 115/163/41 116/164/41 117/165/41 118/166/41 104/167/41 82/168/41 84/169/41
f 85/152/42 86/151/42 84/169/42 83/170/42
f 83/170/43 84/169/43 82/171/43 81/172/43
f 81/173/40 82/174/40 104/175/40 87/176/40
f 103/150/44 88/149/44 102/177/44 105/178/44
f 105/178/45 102/177/45 101/179/45 106/180/45
f 106/180/46 101/179/46 100/181/46 107/182/46
f 107/182/47 100/181/47 99/183/47 108/184/47
f 108/184/48 99/183/48 98/185/48 109/186/48
f 109/186/49 98/185/49 97/187/49 110/188/49
f 110/188/50 97/187/50 96/189/50 111/190/50
f 111/190/51 96/189/51 95/191/51 112/192/51
f 112/192/52 95/191/52 94/193/52 113/194/52
f 113/194/53 94/193/53 93/195/53 114/196/53
f 114/196/54 93/195/54 92/197/54 115/198/54
f 115/198/55 92/197/55 91/199/55 116/200/55
f 116/200/56 91/199/56 90/201/56 117/202/56
f 117/202/57 90/201/57 89/203/57 118/204/57
f 118/204/58 89/203/58 87/176/58 104/175/58
f 87/205/59 89/206/59 90/207/59 91/208/59 92/209/59 93/210/59 94/211/59 95/212/59 96/213/59 97/214/59 98/215/59 99/216/59 100/217/59 101/218/59 102/219/59 88/149/59 85/152/59 83/170/59 81/220/59
o SidewalkRight.005_Cube.014
v 5.000000 0.000000 -3.000000
v 5.000000 0.100000 -3.000000
v 5.000000 0.000000 -5.000000
v 5.000000 0.100000 -5.000000
v 3.000000 0.000000 -5.000000
v 3.000000 0.100000 -5.000000
v 5.000000 0.000000 -3.000000
v 3.000000 0.000000 -5.000000
v 4.790943 0.000000 -3.010956
v 4.584177 0.000000 -3.043705
v 4.381966 0.000000 -3.097887
v 4.186527 0.000000 -3.172909
v 4.000000 0.000000 -3.267949
v 3.824430 0.000000 -3.381966
v 3.661739 0.000000 -3.513710
v 3.513710 0.000000 -3.661739
v 3.381966 0.000000 -3.824430
v 3.267949 0.000000 -4.000000
v 3.172909 0.000000 -4.186527
v 3.097887 0.000000 -4.381966
v 3.043705 0.000000 -4.584177
v 3.010956 0.000000 -4.790943
v 3.000000 0.100000 -5.000000
v 5.000000 0.100000 -3.000000
v 3.010956 0.100000 -4.790943
v 3.043705 0.100000 -4.584177
v 3.097887 0.100000 -4.381966
v 3.172909 0.100000 -4.186527
v 3.267949 0.100000 -4.000000
v 3.381966 0.100000 -3.824430
v 3.513710 0.100000 -3.661739
v 3.661739 0.100000 -3.513710
v 3.824430 0.100000 -3.381966
v 4.000000 0.100000 -3.267949
v 4.186527 0.100000 -3.172909
v 4.381966 0.100000 -3.097887
v 4.584177 0.100000 -3.043705
v 4.790943 0.100000 -3.010956
vt 0.375000 0.500000
vt 0.625000 0.500000
vt 0.625000 0.500000
vt 0.375000 0.500000
vt 0.651132 0.501370
vt 0.676978 0.505463
vt 0.702254 0.512236
vt 0.726684 0.521614
vt 0.750000 0.533494
vt 0.771946 0.547746
vt 0.792283 0.564214
vt 0.810786 0.582717
vt 0.827254 0.603054
vt 0.841506 0.625000
vt 0.853386 0.648316
vt 0.862764 0.672746
vt 0.869537 0.698022
vt 0.873631 0.723868
vt 0.875000 0.750000
vt 0.875000 0.750000
vt 0.625000 0.750000
vt 0.375000 0.750000
vt 0.625000 1.000000
vt 0.375000 1.000000
vt 0.375000 0.000000
vt 0.625000 0.000000
vt 0.625000 0.000000
vt 0.375000 0.000000
vt 0.375000 0.473868
vt 0.625000 0.473868
vt 0.375000 0.448022
vt 0.625000 0.448022
vt 0.375000 0.422746
vt 0.625000 0.422746
vt 0.375000 0.398316
vt 0.625000 0.398316
vt 0.375000 0.375000
vt 0.625000 0.375000
vt 0.375000 0.353054
vt 0.625000 0.353054
vt 0.375000 0.332717
vt 0.625000 0.332717
vt 0.375000 0.167283
vt 0.625000 0.167283
vt 0.375000 0.146946
vt 0.625000 0.146946
vt 0.375000 0.125000
vt 0.625000 0.125000
vt 0.375000 0.101684
vt 0.625000 0.101684
vt 0.375000 0.077254
vt 0.625000 0.077254
vt 0.375000 0.051978
vt 0.625000 0.051978
vt 0.375000 0.026132
vt 0.625000 0.026132
vt 0.125000 0.750000
vt 0.126370 0.723868
vt 0.130463 0.698022
vt 0.137236 0.672746
vt 0.146614 0.648316
vt 0.158494 0.625000
vt 0.172746 0.603054
vt 0.189214 0.582717
vt 0.207717 0.564214
vt 0.228054 0.547746
vt 0.250000 0.533494
vt 0.273316 0.521614
vt 0.297746 0.512236
vt 0.323022 0.505463
vt 0.348868 0.501370
vt 0.125000 0.750000
vn 0.0000 0.0000 1.0000
vn 0.0000 1.0000 -0.0000
vn 0.0000 0.0000 -1.0000
vn 1.0000 0.0000 0.0000
vn -0.9986 0.0000 0.0523
vn -0.9877 0.0000 0.1564
vn -0.9659 0.0000 0.2588
vn -0.9336 0.0000 0.3584
vn -0.8910 0.0000 0.4540
vn -0.8387 0.0000 0.5446
vn -0.7771 0.0000 0.6293
vn -0.7071 0.0000 0.7071
vn -0.6293 0.0000 0.7771
vn -0.5446 0.0000 0.8387
vn -0.4540 0.0000 0.8910
vn -0.3584 0.0000 0.9336
vn -0.2588 0.0000 0.9659
vn -0.1564 0.0000 0.9877
vn -0.0523 0.0000 0.9986
vn 0.0000 -1.0000 0.0000
usemtl None
s off
f 126/221/60 141/222/60 124/223/60 123/224/60
f 124/223/61 141/222/61 143/225/61 144/226/61 145/227/61 146/228/61 147/229/61 148/230/61 149/231/61 150/232/61 151/233/61 152/234/61 153/235/61 154/236/61 155/237/61 156/238/61 142/239/61 120/240/61 122/241/61
f 123/224/62 124/223/62 122/241/62 121/242/62
f 121/242/63 122/241/63 120/243/63 119/244/63
f 119/245/60 120/246/60 142/247/60 125/248/60
f 141/222/64 126/221/64 140/249/64 143/250/64
f 143/250/65 140/249/65 139/251/65 144/252/65
f 144/252/66 139/251/66 138/253/66 145/254/66
f 145/254/67 138/253/67 137/255/67 146/256/67
f 146/256/68 137/255/68 136/257/68 147/258/68
f 147/258/69 136/257/69 135/259/69 148/260/69
f 148/260/70 135/259/70 134/261/70 149/262/70
f 149/262/71 134/261/71 133/263/71 150/264/71
f 150/264/72 133/263/72 132/265/72 151/266/72
f 151/266/73 132/265/73 131/267/73 152/268/73
f 152/268/74 131/267/74 130/269/74 153/270/74
f 153/270/75 130/269/75 129/271/75 154/272/75
f 154/272/76 129/271/76 128/273/76 155/274/76
f 155/274/77 128/273/77 127/275/77 156/276/77
f 156/276/78 127/275/78 125/248/78 142/247/78
f 125/277/79 127/278/79 128/279/79 129/280/79 130/281/79 131/282/79 132/283/79 133/284/79 134/285/79 135/286/79 136/287/79 137/288/79 138/289/79 139/290/79 140/291/79 126/221/79 123/224/79 121/242/79 119/292/79
