# Blender v3.0.1 OBJ File: 'streetCollection.blend'
# www.blender.org
mtllib highway_small_curve.mtl
o BundesstrasseStraight.001_Plane.001_Plane.005
v -4.510833 -0.000000 0.199594
v -5.746453 -0.000000 -0.073171
v -5.754308 -0.000000 0.126675
v -3.272619 -0.000000 0.330949
v -4.494488 -0.000000 0.000263
v -3.246897 0.000000 0.132610
v -7.000000 -0.010000 5.000000
v -7.000000 -0.010000 4.500000
v -2.927827 -0.010000 5.342539
v -2.837542 -0.010000 4.850759
v -7.000000 -0.010000 4.750001
v -2.882685 -0.010000 5.096649
v -7.000000 -0.010000 -5.000000
v -7.000000 -0.010000 -0.000000
v -7.000000 -0.010000 -4.500000
v -1.122109 -0.010000 -4.493080
v -2.024968 -0.010000 0.424730
v -1.212395 -0.010000 -4.001299
v -7.000000 -0.010000 -4.750001
v -1.167252 -0.010000 -4.247190
v 0.369871 -0.000000 1.118753
v -0.778901 -0.000000 0.588388
v -0.826635 -0.000000 0.782608
v 1.537334 -0.000000 1.541423
v 0.430727 -0.000000 0.928236
v 1.613089 -0.000000 1.356326
v -2.927827 -0.010000 5.342539
v -2.837542 -0.010000 4.850759
v 0.394479 -0.010000 6.403658
v 0.626018 -0.010000 5.960499
v -2.882685 -0.010000 5.096649
v 0.510249 -0.010000 6.182078
v -1.122109 -0.010000 -4.493080
v -2.024968 -0.010000 0.424730
v -1.212395 -0.010000 -4.001299
v 5.025253 -0.010000 -2.459522
v 2.709867 -0.010000 1.972068
v 4.793715 -0.010000 -2.016364
v -1.167252 -0.010000 -4.247190
v 4.909485 -0.010000 -2.237943
v 4.710681 -0.000000 3.443322
v 3.839758 -0.000000 2.526931
v 3.728218 -0.000000 2.692939
v 5.578903 -0.000000 4.320937
v 4.842511 -0.000000 3.292920
v 5.731024 -0.000000 4.191094
v 0.394479 -0.010000 6.403658
v 0.626018 -0.010000 5.960499
v 2.139010 -0.010000 7.895823
v 2.564197 -0.010000 7.632734
v 0.510249 -0.010000 6.182078
v 2.351603 -0.010000 7.764279
v 5.025253 -0.010000 -2.459522
v 2.709867 -0.010000 1.972068
v 4.793715 -0.010000 -2.016364
v 10.642744 -0.010000 2.634021
v 6.390877 -0.010000 5.264923
v 10.217557 -0.010000 2.897111
v 4.909485 -0.010000 -2.237943
v 10.430150 -0.010000 2.765566
v 7.288823 -0.000000 7.577722
v 7.058834 -0.000000 6.333309
v 6.875209 -0.000000 6.412567
v 7.566774 0.000000 8.785469
v 7.481032 -0.000000 7.522443
v 7.763575 0.000000 8.749838
v 2.139010 -0.010000 7.895823
v 2.564197 -0.010000 7.632734
v 2.866067 -0.010000 10.529344
v 3.363313 -0.010000 10.476931
v 2.351603 -0.010000 7.764279
v 3.114690 -0.010000 10.503138
v 10.642744 -0.010000 2.634021
v 6.390877 -0.010000 5.264923
v 10.217557 -0.010000 2.897111
v 12.810974 -0.010000 9.481080
v 7.838521 -0.010000 10.005212
v 12.313728 -0.010000 9.533493
v 10.430150 -0.010000 2.765566
v 12.562351 -0.010000 9.507286
v 7.881090 -0.000000 12.502669
v 8.035956 -0.000000 11.245848
v 7.836247 0.000000 11.256649
v 7.897266 -0.000000 13.750870
v 8.081038 0.000000 12.498105
v 8.097263 -0.000000 13.749657
v 2.866067 -0.010000 10.529344
v 3.363313 -0.010000 10.476931
v 2.999962 -0.010000 15.001565
v 3.499962 -0.010000 15.001434
v 3.114690 -0.010000 10.503138
v 3.249962 -0.010000 15.001500
v 12.810974 -0.010000 9.481080
v 7.838521 -0.010000 10.005212
v 12.313728 -0.010000 9.533493
v 12.999962 -0.010000 14.998950
v 7.999962 -0.010000 15.000257
v 12.499962 -0.010000 14.999081
v 12.562351 -0.010000 9.507286
v 12.749962 -0.010000 14.999015
vt 0.250000 0.000000
vt 0.125000 1.000000
vt 0.125000 0.000000
vt 0.375000 0.000000
vt 0.250000 1.000000
vt 0.375000 1.000000
vt 0.250000 0.000000
vt 0.125000 1.000000
vt 0.125000 0.000000
vt 0.375000 0.000000
vt 0.250000 1.000000
vt 0.375000 1.000000
vt 0.250000 0.000000
vt 0.125000 1.000000
vt 0.125000 0.000000
vt 0.375000 0.000000
vt 0.250000 1.000000
vt 0.375000 1.000000
vt 0.250000 0.000000
vt 0.125000 1.000000
vt 0.125000 0.000000
vt 0.375000 0.000000
vt 0.250000 1.000000
vt 0.375000 1.000000
vt 0.250000 0.000000
vt 0.125000 1.000000
vt 0.125000 0.000000
vt 0.375000 0.000000
vt 0.250000 1.000000
vt 0.375000 1.000000
vt 0.500000 0.200000
vt 0.500000 0.400000
vt 1.000000 0.400000
vt 1.000000 0.200000
vt 0.500000 0.200000
vt 1.000000 0.200000
vt 1.000000 0.400000
vt 0.500000 0.400000
vt 0.500000 0.200000
vt 0.500000 0.400000
vt 1.000000 0.400000
vt 1.000000 0.200000
vt 0.500000 0.200000
vt 1.000000 0.200000
vt 1.000000 0.400000
vt 0.500000 0.400000
vt 0.500000 0.200000
vt 0.500000 0.400000
vt 1.000000 0.400000
vt 1.000000 0.200000
vt 0.500000 0.200000
vt 1.000000 0.200000
vt 1.000000 0.400000
vt 0.500000 0.400000
vt 0.500000 0.200000
vt 0.500000 0.400000
vt 1.000000 0.400000
vt 1.000000 0.200000
vt 0.500000 0.200000
vt 1.000000 0.200000
vt 1.000000 0.400000
vt 0.500000 0.400000
vt 0.500000 0.200000
vt 0.500000 0.400000
vt 1.000000 0.400000
vt 1.000000 0.200000
vt 0.500000 0.200000
vt 1.000000 0.200000
vt 1.000000 0.400000
vt 0.500000 0.400000
vt 0.500000 1.000000
vt 1.000000 1.000000
vt 0.500000 0.000000
vt 1.000000 0.000000
vt 0.500000 0.000000
vt 1.000000 0.000000
vt 0.500000 1.000000
vt 1.000000 1.000000
vt 0.500000 0.000000
vt 1.000000 0.000000
vt 0.500000 0.000000
vt 1.000000 0.000000
vt 0.500000 1.000000
vt 1.000000 1.000000
vt 0.500000 0.000000
vt 1.000000 0.000000
vt 0.500000 0.000000
vt 1.000000 0.000000
vt 0.500000 1.000000
vt 1.000000 1.000000
vt 0.500000 0.000000
vt 1.000000 0.000000
vt 0.500000 0.000000
vt 1.000000 0.000000
vt 0.500000 1.000000
vt 1.000000 1.000000
vt 0.500000 0.000000
vt 1.000000 0.000000
vt 0.500000 0.000000
vt 1.000000 0.000000
vn -0.0000 1.0000 0.0000
usemtl None.005
s 1
f 1/1/1 2/2/1 3/3/1
f 4/4/1 5/5/1 1/1/1
f 1/1/1 5/5/1 2/2/1
f 4/4/1 6/6/1 5/5/1
f 21/7/1 22/8/1 23/9/1
f 24/10/1 25/11/1 21/7/1
f 21/7/1 25/11/1 22/8/1
f 24/10/1 26/12/1 25/11/1
f 41/13/1 42/14/1 43/15/1
f 44/16/1 45/17/1 41/13/1
f 41/13/1 45/17/1 42/14/1
f 44/16/1 46/18/1 45/17/1
f 61/19/1 62/20/1 63/21/1
f 64/22/1 65/23/1 61/19/1
f 61/19/1 65/23/1 62/20/1
f 64/22/1 66/24/1 65/23/1
f 81/25/1 82/26/1 83/27/1
f 84/28/1 85/29/1 81/25/1
f 81/25/1 85/29/1 82/26/1
f 84/28/1 86/30/1 85/29/1
usemtl None.004
s off
f 12/31/1 10/32/1 8/33/1 11/34/1
f 20/35/1 19/36/1 15/37/1 18/38/1
f 32/39/1 30/40/1 28/41/1 31/42/1
f 40/43/1 39/44/1 35/45/1 38/46/1
f 52/47/1 50/48/1 48/49/1 51/50/1
f 60/51/1 59/52/1 55/53/1 58/54/1
f 72/55/1 70/56/1 68/57/1 71/58/1
f 80/59/1 79/60/1 75/61/1 78/62/1
f 92/63/1 90/64/1 88/65/1 91/66/1
f 100/67/1 99/68/1 95/69/1 98/70/1
usemtl Material.006
f 10/32/1 17/71/1 14/72/1 8/33/1
f 9/73/1 12/31/1 11/34/1 7/74/1
f 18/38/1 15/37/1 14/72/1 17/71/1
f 16/75/1 13/76/1 19/36/1 20/35/1
f 30/40/1 37/77/1 34/78/1 28/41/1
f 29/79/1 32/39/1 31/42/1 27/80/1
f 38/46/1 35/45/1 34/78/1 37/77/1
f 36/81/1 33/82/1 39/44/1 40/43/1
f 50/48/1 57/83/1 54/84/1 48/49/1
f 49/85/1 52/47/1 51/50/1 47/86/1
f 58/54/1 55/53/1 54/84/1 57/83/1
f 56/87/1 53/88/1 59/52/1 60/51/1
f 70/56/1 77/89/1 74/90/1 68/57/1
f 69/91/1 72/55/1 71/58/1 67/92/1
f 78/62/1 75/61/1 74/90/1 77/89/1
f 76/93/1 73/94/1 79/60/1 80/59/1
f 90/64/1 97/95/1 94/96/1 88/65/1
f 89/97/1 92/63/1 91/66/1 87/98/1
f 98/70/1 95/69/1 94/96/1 97/95/1
f 96/99/1 93/100/1 99/68/1 100/67/1
