# Blender MTL File: 'FINAL_STREET_COLLECTION_SAVEGAME.blend'
# Material Count: 3

newmtl Concrete
Ns 359.999993
Ka 1.000000 1.000000 1.000000
Kd 0.800000 0.800000 0.800000
Ks 0.500000 0.500000 0.500000
Ke 0.000000 0.000000 0.000000
Ni 1.000000
d 1.000000
illum 2

newmtl None
Ns 500
Ka 0.8 0.8 0.8
Kd 0.8 0.8 0.8
Ks 0.8 0.8 0.8
d 1
illum 2

newmtl Tar
Ns 359.999993
Ka 1.000000 1.000000 1.000000
Kd 0.033103 0.033103 0.033103
Ks 0.500000 0.500000 0.500000
Ke 0.000000 0.000000 0.000000
Ni 1.000000
d 1.000000
illum 2
