# Blender MTL File: 'speed_sign.blend'
# Material Count: 4

newmtl Material.004
Ns 359.999993
Ka 1.000000 1.000000 1.000000
Kd 1.000000 1.000000 1.000000
Ks 0.500000 0.500000 0.500000
Ke 0.000000 0.000000 0.000000
Ni 1.000000
d 1.000000
illum 2

newmtl Material.009
Ns 359.999993
Ka 1.000000 1.000000 1.000000
Kd 1.000000 1.000000 1.000000
Ks 0.500000 0.500000 0.500000
Ke 0.000000 0.000000 0.000000
Ni 1.000000
d 1.000000
illum 2

newmtl Material.017
Ns 359.999993
Ka 1.000000 1.000000 1.000000
Kd 0.000000 0.002724 0.800000
Ks 0.500000 0.500000 0.500000
Ke 0.000000 0.000000 0.000000
Ni 1.000000
d 1.000000
illum 2

newmtl None
Ns 500
Ka 0.8 0.8 0.8
Kd 0.8 0.8 0.8
Ks 0.8 0.8 0.8
d 1
illum 2
