[gd_scene load_steps=5 format=2]

[ext_resource path="res://assets/3d/ground/ga_gm_ground_asphalt.obj" type="ArrayMesh" id=1]
[ext_resource path="res://assets/3d/ground/ga_gm_ground_grass.obj" type="ArrayMesh" id=2]

[sub_resource type="ConvexPolygonShape" id=9]
points = PoolVector3Array( 5, 0, 5, -5, 0, 5, 5, 0, -5, -5, 0, -5 )

[sub_resource type="ConvexPolygonShape" id=14]
points = PoolVector3Array( 5, 0, 5, -5, 0, 5, 5, 0, -5, -5, 0, -5 )

[node name="Spatial" type="Spatial"]

[node name="Concrete" type="MeshInstance" parent="."]
transform = Transform( 1, 0, 0, 0, 1, 0, 0, 0, 1, 0, 0, 10 )
mesh = ExtResource( 1 )
material/0 = null

[node name="StaticBody" type="StaticBody" parent="Concrete"]

[node name="CollisionShape" type="CollisionShape" parent="Concrete/StaticBody"]
shape = SubResource( 9 )

[node name="Grass" type="MeshInstance" parent="."]
mesh = ExtResource( 2 )
material/0 = null

[node name="StaticBody" type="StaticBody" parent="Grass"]

[node name="CollisionShape" type="CollisionShape" parent="Grass/StaticBody"]
shape = SubResource( 14 )
