[gd_scene load_steps=14 format=2]

[ext_resource path="res://scenes_and_scripts/grid_map/streets/crossing_lanes_component.gd" type="Script" id=1]

[sub_resource type="BoxShape" id=1]
extents = Vector3( 10, 1, 2 )

[sub_resource type="Curve3D" id=2]
_data = {
"points": PoolVector3Array( 0, 0, 0, 0, 0, 0, 2, 0, 5, 0, 0, 0, 0, 0, 0, 2, 0, -5 ),
"tilts": PoolRealArray( 0, 0 )
}

[sub_resource type="Curve3D" id=3]
_data = {
"points": PoolVector3Array( 0, 0, 0, 0, 0, 0, 2, 0, 5, -0.6, 0, 0.8, 0.6, 0, -0.8, 2.5, 0, 2.6, 0, 0, 0, 0, 0, 0, 5, 0, 2 ),
"tilts": PoolRealArray( 0, 0, 0 )
}

[sub_resource type="Curve3D" id=4]
_data = {
"points": PoolVector3Array( 0, 0, 0, 0, 0, 0, 2, 0, 5, 2, 0, 1.9, -2, 0, -1.9, 0.4, 0, -0.3, 0, 0, 0, 0, 0, 0, -5, 0, -2 ),
"tilts": PoolRealArray( 0, 0, 0 )
}

[sub_resource type="CubeMesh" id=8]

[sub_resource type="SpatialMaterial" id=9]
albedo_color = Color( 0.396078, 0.729412, 0.952941, 1 )

[sub_resource type="BoxShape" id=10]
extents = Vector3( 0.2, 1, 1.4 )

[sub_resource type="BoxShape" id=11]
extents = Vector3( 0.1, 1, 1 )

[sub_resource type="CubeMesh" id=12]

[sub_resource type="SpatialMaterial" id=13]
resource_name = "None"
albedo_color = Color( 0.8, 0.8, 0.8, 1 )
metallic = 0.8

[sub_resource type="SpatialMaterial" id=14]
resource_name = "Material"
albedo_color = Color( 0.020379, 0.020379, 0.020379, 1 )
metallic = 0.5

[sub_resource type="ArrayMesh" id=15]
surfaces/0 = {
"aabb": AABB( -5, 0, -5, 2.00001, 0.20001, 2 ),
"array_data": PoolByteArray( 0, 0, 64, 192, 205, 204, 76, 62, 0, 0, 160, 192, 0, 0, 127, 193, 0, 57, 0, 52, 0, 0, 64, 192, 0, 0, 0, 0, 0, 0, 160, 192, 0, 0, 127, 193, 0, 54, 0, 52, 0, 0, 160, 192, 0, 0, 0, 0, 0, 0, 160, 192, 129, 0, 0, 127, 0, 54, 0, 56, 0, 0, 160, 192, 205, 204, 76, 62, 0, 0, 64, 192, 129, 0, 0, 127, 0, 57, 0, 58, 0, 0, 160, 192, 0, 0, 0, 0, 0, 0, 64, 192, 129, 0, 0, 127, 0, 54, 0, 58, 0, 0, 64, 192, 0, 0, 0, 0, 0, 0, 160, 192, 127, 127, 0, 127, 0, 54, 0, 52, 0, 0, 160, 192, 205, 204, 76, 62, 0, 0, 160, 192, 127, 127, 0, 127, 0, 57, 0, 56, 0, 0, 160, 192, 0, 0, 0, 0, 0, 0, 160, 192, 127, 127, 0, 127, 0, 54, 0, 56, 112, 147, 65, 192, 205, 204, 76, 62, 250, 252, 149, 192, 0, 127, 0, 63, 80, 57, 12, 52, 200, 67, 70, 192, 205, 204, 76, 62, 17, 57, 140, 192, 0, 127, 0, 63, 158, 57, 50, 52, 0, 0, 160, 192, 205, 204, 76, 62, 0, 0, 160, 192, 0, 127, 0, 63, 0, 57, 0, 56, 0, 0, 160, 192, 205, 204, 76, 62, 0, 0, 64, 192, 0, 0, 127, 193, 0, 57, 0, 58, 0, 0, 160, 192, 0, 0, 0, 0, 0, 0, 64, 192, 0, 0, 127, 193, 0, 54, 0, 58, 112, 147, 65, 192, 0, 0, 0, 0, 250, 252, 149, 192, 117, 0, 0, 127, 0, 54, 191, 50, 0, 0, 64, 192, 205, 204, 76, 62, 0, 0, 160, 192, 117, 0, 0, 127, 0, 57, 0, 52, 0, 0, 64, 192, 0, 0, 0, 0, 0, 0, 160, 192, 117, 0, 0, 127, 0, 54, 0, 52, 200, 67, 70, 192, 0, 0, 0, 0, 17, 57, 140, 192, 102, 0, 0, 127, 0, 54, 135, 49, 112, 147, 65, 192, 205, 204, 76, 62, 250, 252, 149, 192, 102, 0, 0, 127, 0, 57, 191, 50, 112, 147, 65, 192, 0, 0, 0, 0, 250, 252, 149, 192, 102, 0, 0, 127, 0, 54, 191, 50, 128, 243, 77, 192, 0, 0, 0, 0, 210, 241, 130, 192, 89, 0, 0, 127, 0, 54, 94, 48, 200, 67, 70, 192, 205, 204, 76, 62, 17, 57, 140, 192, 89, 0, 0, 127, 0, 57, 135, 49, 200, 67, 70, 192, 0, 0, 0, 0, 17, 57, 140, 192, 89, 0, 0, 127, 0, 54, 135, 49, 32, 114, 88, 192, 0, 0, 0, 0, 118, 195, 116, 192, 78, 0, 0, 127, 0, 54, 152, 46, 128, 243, 77, 192, 205, 204, 76, 62, 210, 241, 130, 192, 78, 0, 0, 127, 0, 57, 94, 48, 128, 243, 77, 192, 0, 0, 0, 0, 210, 241, 130, 192, 78, 0, 0, 127, 0, 54, 94, 48, 136, 125, 101, 192, 0, 0, 0, 0, 137, 125, 101, 192, 68, 0, 0, 127, 0, 54, 0, 0, 32, 114, 88, 192, 205, 204, 76, 62, 118, 195, 116, 192, 68, 0, 0, 127, 0, 57, 152, 46, 32, 114, 88, 192, 0, 0, 0, 0, 118, 195, 116, 192, 68, 0, 0, 127, 0, 54, 152, 46, 112, 195, 116, 192, 0, 0, 0, 0, 34, 114, 88, 192, 58, 0, 0, 127, 0, 54, 44, 59, 136, 125, 101, 192, 205, 204, 76, 62, 137, 125, 101, 192, 58, 0, 0, 127, 0, 57, 0, 60, 136, 125, 101, 192, 0, 0, 0, 0, 137, 125, 101, 192, 58, 0, 0, 127, 0, 54, 0, 60, 210, 241, 130, 192, 0, 0, 0, 0, 128, 243, 77, 192, 48, 0, 0, 127, 0, 54, 232, 58, 112, 195, 116, 192, 205, 204, 76, 62, 34, 114, 88, 192, 48, 0, 0, 127, 0, 57, 44, 59, 112, 195, 116, 192, 0, 0, 0, 0, 34, 114, 88, 192, 48, 0, 0, 127, 0, 54, 44, 59, 16, 57, 140, 192, 0, 0, 0, 0, 200, 67, 70, 192, 37, 0, 0, 127, 0, 54, 158, 58, 210, 241, 130, 192, 205, 204, 76, 62, 128, 243, 77, 192, 37, 0, 0, 127, 0, 57, 232, 58, 210, 241, 130, 192, 0, 0, 0, 0, 128, 243, 77, 192, 37, 0, 0, 127, 0, 54, 232, 58, 250, 252, 149, 192, 0, 0, 0, 0, 108, 147, 65, 192, 24, 0, 0, 127, 0, 54, 80, 58, 16, 57, 140, 192, 205, 204, 76, 62, 200, 67, 70, 192, 24, 0, 0, 127, 0, 57, 158, 58, 16, 57, 140, 192, 0, 0, 0, 0, 200, 67, 70, 192, 24, 0, 0, 127, 0, 54, 158, 58, 0, 0, 160, 192, 0, 0, 0, 0, 0, 0, 64, 192, 9, 0, 0, 127, 0, 54, 0, 58, 250, 252, 149, 192, 205, 204, 76, 62, 108, 147, 65, 192, 9, 0, 0, 127, 0, 57, 80, 58, 250, 252, 149, 192, 0, 0, 0, 0, 108, 147, 65, 192, 9, 0, 0, 127, 0, 54, 80, 58, 200, 67, 70, 192, 0, 0, 0, 0, 17, 57, 140, 192, 0, 129, 127, 126, 195, 52, 50, 52, 112, 147, 65, 192, 0, 0, 0, 0, 250, 252, 149, 192, 0, 129, 129, 126, 95, 53, 12, 52, 0, 0, 160, 192, 0, 0, 0, 0, 0, 0, 160, 192, 0, 129, 127, 126, 0, 54, 0, 56, 0, 0, 160, 192, 205, 204, 76, 62, 0, 0, 160, 192, 129, 0, 0, 127, 0, 57, 0, 56, 0, 0, 64, 192, 205, 204, 76, 62, 0, 0, 160, 192, 127, 127, 0, 127, 0, 57, 0, 52, 0, 0, 160, 192, 205, 204, 76, 62, 0, 0, 64, 192, 0, 0, 127, 193, 0, 59, 0, 56, 0, 0, 160, 192, 205, 204, 76, 62, 0, 0, 160, 192, 0, 0, 127, 193, 0, 57, 0, 56, 250, 252, 149, 192, 205, 204, 76, 62, 108, 147, 65, 192, 0, 127, 0, 63, 249, 58, 95, 55, 0, 0, 160, 192, 205, 204, 76, 62, 0, 0, 64, 192, 0, 127, 0, 63, 0, 59, 0, 56, 16, 57, 140, 192, 205, 204, 76, 62, 200, 67, 70, 192, 0, 127, 0, 63, 230, 58, 195, 54, 210, 241, 130, 192, 205, 204, 76, 62, 128, 243, 77, 192, 0, 127, 0, 63, 200, 58, 47, 54, 112, 195, 116, 192, 205, 204, 76, 62, 34, 114, 88, 192, 0, 127, 0, 63, 158, 58, 166, 53, 136, 125, 101, 192, 205, 204, 76, 62, 137, 125, 101, 192, 0, 127, 0, 63, 106, 58, 43, 53, 32, 114, 88, 192, 205, 204, 76, 62, 118, 195, 116, 192, 0, 127, 0, 63, 44, 58, 195, 52, 128, 243, 77, 192, 205, 204, 76, 62, 210, 241, 130, 192, 0, 127, 0, 63, 232, 57, 111, 52, 112, 147, 65, 192, 205, 204, 76, 62, 250, 252, 149, 192, 0, 0, 127, 193, 80, 57, 12, 52, 0, 0, 64, 192, 205, 204, 76, 62, 0, 0, 160, 192, 0, 127, 0, 63, 0, 57, 0, 52, 112, 147, 65, 192, 205, 204, 76, 62, 250, 252, 149, 192, 117, 0, 0, 127, 0, 57, 191, 50, 200, 67, 70, 192, 205, 204, 76, 62, 17, 57, 140, 192, 102, 0, 0, 127, 0, 57, 135, 49, 128, 243, 77, 192, 205, 204, 76, 62, 210, 241, 130, 192, 89, 0, 0, 127, 0, 57, 94, 48, 32, 114, 88, 192, 205, 204, 76, 62, 118, 195, 116, 192, 78, 0, 0, 127, 0, 57, 152, 46, 136, 125, 101, 192, 205, 204, 76, 62, 137, 125, 101, 192, 68, 0, 0, 127, 0, 57, 0, 0, 32, 114, 88, 192, 205, 204, 76, 62, 118, 195, 116, 192, 68, 0, 0, 127, 0, 57, 152, 46, 136, 125, 101, 192, 0, 0, 0, 0, 137, 125, 101, 192, 68, 0, 0, 127, 0, 54, 0, 0, 112, 195, 116, 192, 205, 204, 76, 62, 34, 114, 88, 192, 58, 0, 0, 127, 0, 57, 44, 59, 210, 241, 130, 192, 205, 204, 76, 62, 128, 243, 77, 192, 48, 0, 0, 127, 0, 57, 232, 58, 16, 57, 140, 192, 205, 204, 76, 62, 200, 67, 70, 192, 37, 0, 0, 127, 0, 57, 158, 58, 250, 252, 149, 192, 205, 204, 76, 62, 108, 147, 65, 192, 24, 0, 0, 127, 0, 57, 80, 58, 0, 0, 160, 192, 205, 204, 76, 62, 0, 0, 64, 192, 9, 0, 0, 127, 0, 57, 0, 58, 0, 0, 160, 192, 0, 0, 0, 0, 0, 0, 64, 192, 0, 0, 127, 193, 0, 48, 0, 56, 0, 0, 160, 192, 0, 0, 0, 0, 0, 0, 160, 192, 0, 0, 127, 193, 0, 54, 0, 56, 112, 147, 65, 192, 0, 0, 0, 0, 250, 252, 149, 192, 0, 0, 127, 193, 95, 53, 12, 52, 0, 0, 160, 192, 0, 0, 0, 0, 0, 0, 64, 192, 0, 129, 127, 127, 0, 48, 0, 56, 250, 252, 149, 192, 0, 0, 0, 0, 108, 147, 65, 192, 0, 129, 127, 126, 25, 48, 95, 55, 0, 0, 64, 192, 0, 0, 0, 0, 0, 0, 160, 192, 0, 129, 127, 127, 0, 54, 0, 52, 16, 57, 140, 192, 0, 0, 0, 0, 200, 67, 70, 192, 0, 129, 129, 126, 100, 48, 195, 54, 210, 241, 130, 192, 0, 0, 0, 0, 128, 243, 77, 192, 0, 129, 127, 126, 223, 48, 47, 54, 112, 195, 116, 192, 0, 0, 0, 0, 34, 114, 88, 192, 0, 129, 129, 126, 135, 49, 166, 53, 136, 125, 101, 192, 0, 0, 0, 0, 137, 125, 101, 192, 0, 129, 129, 127, 87, 50, 43, 53, 32, 114, 88, 192, 0, 0, 0, 0, 118, 195, 116, 192, 0, 129, 129, 126, 76, 51, 195, 52, 128, 243, 77, 192, 0, 0, 0, 0, 210, 241, 130, 192, 0, 129, 129, 126, 47, 52, 111, 52 ),
"array_index_data": PoolByteArray( 0, 0, 1, 0, 1, 0, 2, 0, 3, 0, 4, 0, 5, 0, 6, 0, 7, 0, 8, 0, 9, 0, 10, 0, 11, 0, 12, 0, 12, 0, 13, 0, 14, 0, 15, 0, 16, 0, 17, 0, 18, 0, 19, 0, 20, 0, 21, 0, 22, 0, 23, 0, 24, 0, 25, 0, 26, 0, 27, 0, 28, 0, 29, 0, 30, 0, 31, 0, 32, 0, 33, 0, 34, 0, 35, 0, 36, 0, 37, 0, 38, 0, 39, 0, 40, 0, 41, 0, 42, 0, 43, 0, 44, 0, 45, 0, 0, 0, 1, 0, 0, 0, 46, 0, 3, 0, 2, 0, 47, 0, 6, 0, 5, 0, 48, 0, 49, 0, 48, 0, 50, 0, 51, 0, 10, 0, 52, 0, 50, 0, 10, 0, 53, 0, 52, 0, 10, 0, 54, 0, 53, 0, 10, 0, 55, 0, 54, 0, 10, 0, 56, 0, 55, 0, 10, 0, 57, 0, 56, 0, 10, 0, 9, 0, 57, 0, 10, 0, 0, 0, 58, 0, 0, 0, 10, 0, 59, 0, 8, 0, 11, 0, 12, 0, 11, 0, 60, 0, 14, 0, 13, 0, 61, 0, 17, 0, 16, 0, 62, 0, 20, 0, 19, 0, 63, 0, 23, 0, 22, 0, 64, 0, 65, 0, 66, 0, 67, 0, 29, 0, 28, 0, 68, 0, 32, 0, 31, 0, 69, 0, 35, 0, 34, 0, 70, 0, 38, 0, 37, 0, 71, 0, 41, 0, 40, 0, 72, 0, 72, 0, 73, 0, 1, 0, 1, 0, 74, 0, 45, 0, 75, 0, 76, 0, 77, 0, 45, 0, 44, 0, 45, 0, 78, 0, 79, 0, 76, 0, 78, 0, 45, 0, 79, 0, 80, 0, 45, 0, 81, 0, 82, 0, 45, 0, 80, 0, 81, 0, 45, 0, 83, 0, 43, 0, 45, 0, 82, 0, 83, 0, 45, 0 ),
"blend_shape_data": [  ],
"format": 2194711,
"index_count": 156,
"material": SubResource( 13 ),
"name": "None",
"primitive": 4,
"skeleton_aabb": [  ],
"vertex_count": 84
}
surfaces/1 = {
"aabb": AABB( -5, 0, 3, 2, 0.20001, 2 ),
"array_data": PoolByteArray( 0, 0, 160, 192, 205, 204, 76, 62, 0, 0, 64, 64, 0, 0, 127, 193, 0, 57, 0, 52, 0, 0, 160, 192, 0, 0, 0, 0, 0, 0, 64, 64, 0, 0, 127, 193, 0, 54, 0, 52, 0, 0, 160, 192, 0, 0, 0, 0, 0, 0, 160, 64, 0, 0, 0, 127, 0, 54, 0, 56, 0, 0, 64, 192, 205, 204, 76, 62, 0, 0, 160, 64, 0, 0, 0, 127, 0, 57, 0, 58, 0, 0, 64, 192, 0, 0, 0, 0, 0, 0, 160, 64, 0, 0, 0, 127, 0, 54, 0, 58, 0, 0, 160, 192, 0, 0, 0, 0, 0, 0, 64, 64, 129, 0, 0, 127, 0, 54, 0, 52, 0, 0, 160, 192, 205, 204, 76, 62, 0, 0, 160, 64, 129, 0, 0, 127, 0, 57, 0, 56, 0, 0, 160, 192, 0, 0, 0, 0, 0, 0, 160, 64, 129, 0, 0, 127, 0, 54, 0, 56, 250, 252, 149, 192, 205, 204, 76, 62, 108, 147, 65, 64, 0, 127, 127, 63, 80, 57, 12, 52, 16, 57, 140, 192, 205, 204, 76, 62, 200, 67, 70, 64, 0, 127, 126, 63, 158, 57, 50, 52, 0, 0, 160, 192, 205, 204, 76, 62, 0, 0, 160, 64, 0, 127, 126, 63, 0, 57, 0, 56, 250, 252, 149, 192, 0, 0, 0, 0, 108, 147, 65, 64, 127, 117, 0, 127, 0, 54, 191, 50, 0, 0, 160, 192, 205, 204, 76, 62, 0, 0, 64, 64, 127, 117, 0, 127, 0, 57, 0, 52, 0, 0, 160, 192, 0, 0, 0, 0, 0, 0, 64, 64, 127, 117, 0, 127, 0, 54, 0, 52, 16, 57, 140, 192, 0, 0, 0, 0, 200, 67, 70, 64, 127, 102, 0, 127, 0, 54, 135, 49, 250, 252, 149, 192, 205, 204, 76, 62, 108, 147, 65, 64, 127, 102, 0, 127, 0, 57, 191, 50, 250, 252, 149, 192, 0, 0, 0, 0, 108, 147, 65, 64, 127, 102, 0, 127, 0, 54, 191, 50, 210, 241, 130, 192, 0, 0, 0, 0, 128, 243, 77, 64, 127, 89, 0, 127, 0, 54, 94, 48, 16, 57, 140, 192, 205, 204, 76, 62, 200, 67, 70, 64, 127, 89, 0, 127, 0, 57, 135, 49, 16, 57, 140, 192, 0, 0, 0, 0, 200, 67, 70, 64, 127, 89, 0, 127, 0, 54, 135, 49, 120, 195, 116, 192, 0, 0, 0, 0, 34, 114, 88, 64, 127, 78, 0, 127, 0, 54, 152, 46, 210, 241, 130, 192, 205, 204, 76, 62, 128, 243, 77, 64, 127, 78, 0, 127, 0, 57, 94, 48, 210, 241, 130, 192, 0, 0, 0, 0, 128, 243, 77, 64, 127, 78, 0, 127, 0, 54, 94, 48, 136, 125, 101, 192, 0, 0, 0, 0, 133, 125, 101, 64, 127, 68, 0, 127, 0, 54, 0, 0, 120, 195, 116, 192, 205, 204, 76, 62, 34, 114, 88, 64, 127, 68, 0, 127, 0, 57, 152, 46, 120, 195, 116, 192, 0, 0, 0, 0, 34, 114, 88, 64, 127, 68, 0, 127, 0, 54, 152, 46, 32, 114, 88, 192, 0, 0, 0, 0, 118, 195, 116, 64, 127, 58, 0, 127, 0, 54, 44, 59, 136, 125, 101, 192, 205, 204, 76, 62, 133, 125, 101, 64, 127, 58, 0, 127, 0, 57, 0, 60, 136, 125, 101, 192, 0, 0, 0, 0, 133, 125, 101, 64, 127, 58, 0, 127, 0, 54, 0, 60, 128, 243, 77, 192, 0, 0, 0, 0, 210, 241, 130, 64, 127, 48, 0, 127, 0, 54, 232, 58, 32, 114, 88, 192, 205, 204, 76, 62, 118, 195, 116, 64, 127, 48, 0, 127, 0, 57, 44, 59, 32, 114, 88, 192, 0, 0, 0, 0, 118, 195, 116, 64, 127, 48, 0, 127, 0, 54, 44, 59, 200, 67, 70, 192, 0, 0, 0, 0, 17, 57, 140, 64, 127, 37, 0, 127, 0, 54, 158, 58, 128, 243, 77, 192, 205, 204, 76, 62, 210, 241, 130, 64, 127, 37, 0, 127, 0, 57, 232, 58, 128, 243, 77, 192, 0, 0, 0, 0, 210, 241, 130, 64, 127, 37, 0, 127, 0, 54, 232, 58, 112, 147, 65, 192, 0, 0, 0, 0, 250, 252, 149, 64, 127, 24, 0, 127, 0, 54, 80, 58, 200, 67, 70, 192, 205, 204, 76, 62, 17, 57, 140, 64, 127, 24, 0, 127, 0, 57, 158, 58, 200, 67, 70, 192, 0, 0, 0, 0, 17, 57, 140, 64, 127, 24, 0, 127, 0, 54, 158, 58, 0, 0, 64, 192, 0, 0, 0, 0, 0, 0, 160, 64, 127, 9, 0, 127, 0, 54, 0, 58, 112, 147, 65, 192, 205, 204, 76, 62, 250, 252, 149, 64, 127, 9, 0, 127, 0, 57, 80, 58, 112, 147, 65, 192, 0, 0, 0, 0, 250, 252, 149, 64, 127, 9, 0, 127, 0, 54, 80, 58, 16, 57, 140, 192, 0, 0, 0, 0, 200, 67, 70, 64, 0, 129, 129, 63, 195, 52, 50, 52, 250, 252, 149, 192, 0, 0, 0, 0, 108, 147, 65, 64, 0, 129, 130, 63, 95, 53, 12, 52, 0, 0, 160, 192, 0, 0, 0, 0, 0, 0, 160, 64, 0, 129, 129, 63, 0, 54, 0, 56, 0, 0, 160, 192, 205, 204, 76, 62, 0, 0, 160, 64, 0, 0, 0, 127, 0, 57, 0, 56, 0, 0, 160, 192, 205, 204, 76, 62, 0, 0, 64, 64, 129, 0, 0, 127, 0, 57, 0, 52, 0, 0, 64, 192, 205, 204, 76, 62, 0, 0, 160, 64, 0, 0, 127, 193, 0, 59, 0, 56, 112, 147, 65, 192, 205, 204, 76, 62, 250, 252, 149, 64, 0, 127, 126, 63, 249, 58, 95, 55, 0, 0, 64, 192, 205, 204, 76, 62, 0, 0, 160, 64, 0, 127, 127, 63, 0, 59, 0, 56, 200, 67, 70, 192, 205, 204, 76, 62, 17, 57, 140, 64, 0, 127, 127, 63, 230, 58, 195, 54, 128, 243, 77, 192, 205, 204, 76, 62, 210, 241, 130, 64, 0, 127, 126, 63, 200, 58, 47, 54, 32, 114, 88, 192, 205, 204, 76, 62, 118, 195, 116, 64, 0, 127, 127, 63, 158, 58, 166, 53, 136, 125, 101, 192, 205, 204, 76, 62, 133, 125, 101, 64, 0, 127, 126, 63, 106, 58, 43, 53, 120, 195, 116, 192, 205, 204, 76, 62, 34, 114, 88, 64, 0, 127, 127, 63, 44, 58, 195, 52, 210, 241, 130, 192, 205, 204, 76, 62, 128, 243, 77, 64, 0, 127, 127, 63, 232, 57, 111, 52, 250, 252, 149, 192, 205, 204, 76, 62, 108, 147, 65, 64, 0, 0, 127, 193, 80, 57, 12, 52, 0, 0, 160, 192, 205, 204, 76, 62, 0, 0, 64, 64, 0, 127, 127, 63, 0, 57, 0, 52, 250, 252, 149, 192, 205, 204, 76, 62, 108, 147, 65, 64, 127, 117, 0, 127, 0, 57, 191, 50, 16, 57, 140, 192, 205, 204, 76, 62, 200, 67, 70, 64, 127, 102, 0, 127, 0, 57, 135, 49, 210, 241, 130, 192, 205, 204, 76, 62, 128, 243, 77, 64, 127, 89, 0, 127, 0, 57, 94, 48, 120, 195, 116, 192, 205, 204, 76, 62, 34, 114, 88, 64, 127, 78, 0, 127, 0, 57, 152, 46, 136, 125, 101, 192, 205, 204, 76, 62, 133, 125, 101, 64, 127, 68, 0, 127, 0, 57, 0, 0, 32, 114, 88, 192, 205, 204, 76, 62, 118, 195, 116, 64, 127, 58, 0, 127, 0, 57, 44, 59, 128, 243, 77, 192, 205, 204, 76, 62, 210, 241, 130, 64, 127, 48, 0, 127, 0, 57, 232, 58, 200, 67, 70, 192, 205, 204, 76, 62, 17, 57, 140, 64, 127, 37, 0, 127, 0, 57, 158, 58, 112, 147, 65, 192, 205, 204, 76, 62, 250, 252, 149, 64, 127, 24, 0, 127, 0, 57, 80, 58, 0, 0, 64, 192, 205, 204, 76, 62, 0, 0, 160, 64, 127, 9, 0, 127, 0, 57, 0, 58, 0, 0, 64, 192, 0, 0, 0, 0, 0, 0, 160, 64, 0, 0, 127, 193, 0, 48, 0, 56, 250, 252, 149, 192, 0, 0, 0, 0, 108, 147, 65, 64, 0, 0, 127, 193, 95, 53, 12, 52, 0, 0, 64, 192, 0, 0, 0, 0, 0, 0, 160, 64, 0, 129, 129, 63, 0, 48, 0, 56, 112, 147, 65, 192, 0, 0, 0, 0, 250, 252, 149, 64, 0, 129, 129, 63, 25, 48, 95, 55, 0, 0, 160, 192, 0, 0, 0, 0, 0, 0, 64, 64, 0, 129, 130, 63, 0, 54, 0, 52, 200, 67, 70, 192, 0, 0, 0, 0, 17, 57, 140, 64, 0, 129, 130, 63, 100, 48, 195, 54, 128, 243, 77, 192, 0, 0, 0, 0, 210, 241, 130, 64, 0, 129, 129, 63, 223, 48, 47, 54, 32, 114, 88, 192, 0, 0, 0, 0, 118, 195, 116, 64, 0, 129, 130, 63, 135, 49, 166, 53, 136, 125, 101, 192, 0, 0, 0, 0, 133, 125, 101, 64, 0, 129, 129, 63, 87, 50, 43, 53, 120, 195, 116, 192, 0, 0, 0, 0, 34, 114, 88, 64, 0, 129, 130, 63, 76, 51, 195, 52, 210, 241, 130, 192, 0, 0, 0, 0, 128, 243, 77, 64, 0, 129, 130, 63, 47, 52, 111, 52 ),
"array_index_data": PoolByteArray( 0, 0, 1, 0, 1, 0, 2, 0, 3, 0, 4, 0, 5, 0, 6, 0, 7, 0, 8, 0, 9, 0, 10, 0, 3, 0, 4, 0, 4, 0, 11, 0, 12, 0, 13, 0, 14, 0, 15, 0, 16, 0, 17, 0, 18, 0, 19, 0, 20, 0, 21, 0, 22, 0, 23, 0, 24, 0, 25, 0, 26, 0, 27, 0, 28, 0, 29, 0, 30, 0, 31, 0, 32, 0, 33, 0, 34, 0, 35, 0, 36, 0, 37, 0, 38, 0, 39, 0, 40, 0, 41, 0, 42, 0, 43, 0, 0, 0, 1, 0, 0, 0, 44, 0, 3, 0, 2, 0, 45, 0, 6, 0, 5, 0, 46, 0, 44, 0, 46, 0, 47, 0, 48, 0, 10, 0, 49, 0, 47, 0, 10, 0, 50, 0, 49, 0, 10, 0, 51, 0, 50, 0, 10, 0, 52, 0, 51, 0, 10, 0, 53, 0, 52, 0, 10, 0, 54, 0, 53, 0, 10, 0, 9, 0, 54, 0, 10, 0, 0, 0, 55, 0, 0, 0, 10, 0, 56, 0, 8, 0, 3, 0, 4, 0, 3, 0, 57, 0, 12, 0, 11, 0, 58, 0, 15, 0, 14, 0, 59, 0, 18, 0, 17, 0, 60, 0, 21, 0, 20, 0, 61, 0, 24, 0, 23, 0, 62, 0, 27, 0, 26, 0, 63, 0, 30, 0, 29, 0, 64, 0, 33, 0, 32, 0, 65, 0, 36, 0, 35, 0, 66, 0, 39, 0, 38, 0, 67, 0, 67, 0, 2, 0, 1, 0, 1, 0, 68, 0, 43, 0, 69, 0, 70, 0, 71, 0, 43, 0, 42, 0, 43, 0, 72, 0, 73, 0, 70, 0, 72, 0, 43, 0, 73, 0, 74, 0, 43, 0, 75, 0, 76, 0, 43, 0, 74, 0, 75, 0, 43, 0, 77, 0, 41, 0, 43, 0, 76, 0, 77, 0, 43, 0 ),
"blend_shape_data": [  ],
"format": 2194711,
"index_count": 156,
"material": SubResource( 13 ),
"name": "None",
"primitive": 4,
"skeleton_aabb": [  ],
"vertex_count": 78
}
surfaces/2 = {
"aabb": AABB( 3, 0, 3, 2, 0.20001, 2.00001 ),
"array_data": PoolByteArray( 0, 0, 64, 64, 205, 204, 76, 62, 0, 0, 160, 64, 0, 0, 0, 127, 0, 57, 0, 52, 0, 0, 64, 64, 0, 0, 0, 0, 0, 0, 160, 64, 0, 0, 0, 127, 0, 54, 0, 52, 0, 0, 160, 64, 0, 0, 0, 0, 0, 0, 160, 64, 127, 0, 0, 127, 0, 54, 0, 56, 0, 0, 160, 64, 205, 204, 76, 62, 0, 0, 64, 64, 127, 0, 0, 127, 0, 57, 0, 58, 0, 0, 160, 64, 0, 0, 0, 0, 0, 0, 64, 64, 127, 0, 0, 127, 0, 54, 0, 58, 0, 0, 160, 64, 205, 204, 76, 62, 0, 0, 160, 64, 0, 0, 0, 127, 0, 57, 0, 56, 0, 0, 160, 64, 0, 0, 0, 0, 0, 0, 160, 64, 0, 0, 0, 127, 0, 54, 0, 56, 112, 147, 65, 64, 205, 204, 76, 62, 250, 252, 149, 64, 0, 127, 129, 126, 80, 57, 12, 52, 200, 67, 70, 64, 205, 204, 76, 62, 17, 57, 140, 64, 0, 127, 127, 126, 158, 57, 50, 52, 0, 0, 160, 64, 205, 204, 76, 62, 0, 0, 160, 64, 0, 127, 127, 126, 0, 57, 0, 56, 0, 0, 160, 64, 205, 204, 76, 62, 0, 0, 64, 64, 0, 0, 127, 193, 0, 57, 0, 58, 0, 0, 160, 64, 0, 0, 0, 0, 0, 0, 64, 64, 0, 0, 127, 193, 0, 54, 0, 58, 112, 147, 65, 64, 0, 0, 0, 0, 250, 252, 149, 64, 129, 9, 0, 127, 0, 54, 191, 50, 0, 0, 64, 64, 205, 204, 76, 62, 0, 0, 160, 64, 129, 9, 0, 127, 0, 57, 0, 52, 0, 0, 64, 64, 0, 0, 0, 0, 0, 0, 160, 64, 129, 9, 0, 127, 0, 54, 0, 52, 200, 67, 70, 64, 0, 0, 0, 0, 17, 57, 140, 64, 129, 24, 0, 127, 0, 54, 135, 49, 112, 147, 65, 64, 205, 204, 76, 62, 250, 252, 149, 64, 129, 24, 0, 127, 0, 57, 191, 50, 112, 147, 65, 64, 0, 0, 0, 0, 250, 252, 149, 64, 129, 24, 0, 127, 0, 54, 191, 50, 128, 243, 77, 64, 0, 0, 0, 0, 210, 241, 130, 64, 129, 37, 0, 127, 0, 54, 94, 48, 200, 67, 70, 64, 205, 204, 76, 62, 17, 57, 140, 64, 129, 37, 0, 127, 0, 57, 135, 49, 200, 67, 70, 64, 0, 0, 0, 0, 17, 57, 140, 64, 129, 37, 0, 127, 0, 54, 135, 49, 32, 114, 88, 64, 0, 0, 0, 0, 118, 195, 116, 64, 129, 48, 0, 127, 0, 54, 152, 46, 128, 243, 77, 64, 205, 204, 76, 62, 210, 241, 130, 64, 129, 48, 0, 127, 0, 57, 94, 48, 128, 243, 77, 64, 0, 0, 0, 0, 210, 241, 130, 64, 129, 48, 0, 127, 0, 54, 94, 48, 136, 125, 101, 64, 0, 0, 0, 0, 133, 125, 101, 64, 129, 58, 0, 127, 0, 54, 0, 0, 32, 114, 88, 64, 205, 204, 76, 62, 118, 195, 116, 64, 129, 58, 0, 127, 0, 57, 152, 46, 32, 114, 88, 64, 0, 0, 0, 0, 118, 195, 116, 64, 129, 58, 0, 127, 0, 54, 152, 46, 112, 195, 116, 64, 0, 0, 0, 0, 34, 114, 88, 64, 129, 68, 0, 127, 0, 54, 44, 59, 136, 125, 101, 64, 205, 204, 76, 62, 133, 125, 101, 64, 129, 68, 0, 127, 0, 57, 0, 60, 136, 125, 101, 64, 0, 0, 0, 0, 133, 125, 101, 64, 129, 68, 0, 127, 0, 54, 0, 60, 208, 241, 130, 64, 0, 0, 0, 0, 128, 243, 77, 64, 129, 78, 0, 127, 0, 54, 232, 58, 112, 195, 116, 64, 205, 204, 76, 62, 34, 114, 88, 64, 129, 78, 0, 127, 0, 57, 44, 59, 112, 195, 116, 64, 0, 0, 0, 0, 34, 114, 88, 64, 129, 78, 0, 127, 0, 54, 44, 59, 16, 57, 140, 64, 0, 0, 0, 0, 200, 67, 70, 64, 129, 89, 0, 127, 0, 54, 158, 58, 208, 241, 130, 64, 205, 204, 76, 62, 128, 243, 77, 64, 129, 89, 0, 127, 0, 57, 232, 58, 208, 241, 130, 64, 0, 0, 0, 0, 128, 243, 77, 64, 129, 89, 0, 127, 0, 54, 232, 58, 252, 252, 149, 64, 0, 0, 0, 0, 108, 147, 65, 64, 129, 102, 0, 127, 0, 54, 80, 58, 16, 57, 140, 64, 205, 204, 76, 62, 200, 67, 70, 64, 129, 102, 0, 127, 0, 57, 158, 58, 16, 57, 140, 64, 0, 0, 0, 0, 200, 67, 70, 64, 129, 102, 0, 127, 0, 54, 158, 58, 0, 0, 160, 64, 0, 0, 0, 0, 0, 0, 64, 64, 129, 117, 0, 127, 0, 54, 0, 58, 252, 252, 149, 64, 205, 204, 76, 62, 108, 147, 65, 64, 129, 117, 0, 127, 0, 57, 80, 58, 252, 252, 149, 64, 0, 0, 0, 0, 108, 147, 65, 64, 129, 117, 0, 127, 0, 54, 80, 58, 200, 67, 70, 64, 0, 0, 0, 0, 17, 57, 140, 64, 0, 129, 0, 63, 195, 52, 50, 52, 112, 147, 65, 64, 0, 0, 0, 0, 250, 252, 149, 64, 0, 129, 0, 63, 95, 53, 12, 52, 0, 0, 160, 64, 0, 0, 0, 0, 0, 0, 160, 64, 0, 129, 0, 63, 0, 54, 0, 56, 0, 0, 160, 64, 205, 204, 76, 62, 0, 0, 160, 64, 127, 0, 0, 127, 0, 57, 0, 56, 0, 0, 160, 64, 205, 204, 76, 62, 0, 0, 64, 64, 0, 0, 127, 193, 0, 59, 0, 56, 252, 252, 149, 64, 205, 204, 76, 62, 108, 147, 65, 64, 0, 127, 127, 126, 249, 58, 95, 55, 0, 0, 160, 64, 205, 204, 76, 62, 0, 0, 64, 64, 0, 127, 127, 127, 0, 59, 0, 56, 16, 57, 140, 64, 205, 204, 76, 62, 200, 67, 70, 64, 0, 127, 129, 126, 230, 58, 195, 54, 208, 241, 130, 64, 205, 204, 76, 62, 128, 243, 77, 64, 0, 127, 127, 126, 200, 58, 47, 54, 112, 195, 116, 64, 205, 204, 76, 62, 34, 114, 88, 64, 0, 127, 129, 126, 158, 58, 166, 53, 136, 125, 101, 64, 205, 204, 76, 62, 133, 125, 101, 64, 0, 127, 129, 127, 106, 58, 43, 53, 32, 114, 88, 64, 205, 204, 76, 62, 118, 195, 116, 64, 0, 127, 129, 126, 44, 58, 195, 52, 128, 243, 77, 64, 205, 204, 76, 62, 210, 241, 130, 64, 0, 127, 129, 126, 232, 57, 111, 52, 112, 147, 65, 64, 205, 204, 76, 62, 250, 252, 149, 64, 0, 0, 127, 193, 80, 57, 12, 52, 0, 0, 64, 64, 205, 204, 76, 62, 0, 0, 160, 64, 0, 127, 127, 127, 0, 57, 0, 52, 112, 147, 65, 64, 205, 204, 76, 62, 250, 252, 149, 64, 129, 9, 0, 127, 0, 57, 191, 50, 200, 67, 70, 64, 205, 204, 76, 62, 17, 57, 140, 64, 129, 24, 0, 127, 0, 57, 135, 49, 128, 243, 77, 64, 205, 204, 76, 62, 210, 241, 130, 64, 129, 37, 0, 127, 0, 57, 94, 48, 32, 114, 88, 64, 205, 204, 76, 62, 118, 195, 116, 64, 129, 48, 0, 127, 0, 57, 152, 46, 136, 125, 101, 64, 205, 204, 76, 62, 133, 125, 101, 64, 129, 58, 0, 127, 0, 57, 0, 0, 112, 195, 116, 64, 205, 204, 76, 62, 34, 114, 88, 64, 129, 68, 0, 127, 0, 57, 44, 59, 136, 125, 101, 64, 205, 204, 76, 62, 133, 125, 101, 64, 129, 68, 0, 127, 0, 57, 0, 60, 112, 195, 116, 64, 0, 0, 0, 0, 34, 114, 88, 64, 129, 68, 0, 127, 0, 54, 44, 59, 208, 241, 130, 64, 205, 204, 76, 62, 128, 243, 77, 64, 129, 78, 0, 127, 0, 57, 232, 58, 16, 57, 140, 64, 205, 204, 76, 62, 200, 67, 70, 64, 129, 89, 0, 127, 0, 57, 158, 58, 252, 252, 149, 64, 205, 204, 76, 62, 108, 147, 65, 64, 129, 102, 0, 127, 0, 57, 80, 58, 0, 0, 160, 64, 205, 204, 76, 62, 0, 0, 64, 64, 129, 117, 0, 127, 0, 57, 0, 58, 0, 0, 160, 64, 0, 0, 0, 0, 0, 0, 64, 64, 0, 0, 127, 193, 0, 48, 0, 56, 112, 147, 65, 64, 0, 0, 0, 0, 250, 252, 149, 64, 0, 0, 127, 193, 95, 53, 12, 52, 0, 0, 160, 64, 0, 0, 0, 0, 0, 0, 64, 64, 0, 129, 0, 63, 0, 48, 0, 56, 252, 252, 149, 64, 0, 0, 0, 0, 108, 147, 65, 64, 0, 129, 0, 63, 25, 48, 95, 55, 0, 0, 64, 64, 0, 0, 0, 0, 0, 0, 160, 64, 0, 129, 0, 63, 0, 54, 0, 52, 16, 57, 140, 64, 0, 0, 0, 0, 200, 67, 70, 64, 0, 129, 0, 63, 100, 48, 195, 54, 208, 241, 130, 64, 0, 0, 0, 0, 128, 243, 77, 64, 0, 129, 0, 63, 223, 48, 47, 54, 112, 195, 116, 64, 0, 0, 0, 0, 34, 114, 88, 64, 0, 129, 0, 63, 135, 49, 166, 53, 136, 125, 101, 64, 0, 0, 0, 0, 133, 125, 101, 64, 0, 129, 0, 63, 87, 50, 43, 53, 32, 114, 88, 64, 0, 0, 0, 0, 118, 195, 116, 64, 0, 129, 0, 63, 76, 51, 195, 52, 128, 243, 77, 64, 0, 0, 0, 0, 210, 241, 130, 64, 0, 129, 0, 63, 47, 52, 111, 52 ),
"array_index_data": PoolByteArray( 0, 0, 1, 0, 1, 0, 2, 0, 3, 0, 4, 0, 1, 0, 5, 0, 6, 0, 7, 0, 8, 0, 9, 0, 10, 0, 11, 0, 11, 0, 12, 0, 13, 0, 14, 0, 15, 0, 16, 0, 17, 0, 18, 0, 19, 0, 20, 0, 21, 0, 22, 0, 23, 0, 24, 0, 25, 0, 26, 0, 27, 0, 28, 0, 29, 0, 30, 0, 31, 0, 32, 0, 33, 0, 34, 0, 35, 0, 36, 0, 37, 0, 38, 0, 39, 0, 40, 0, 41, 0, 42, 0, 43, 0, 44, 0, 0, 0, 1, 0, 0, 0, 45, 0, 3, 0, 2, 0, 0, 0, 5, 0, 1, 0, 46, 0, 5, 0, 46, 0, 47, 0, 48, 0, 9, 0, 49, 0, 47, 0, 9, 0, 50, 0, 49, 0, 9, 0, 51, 0, 50, 0, 9, 0, 52, 0, 51, 0, 9, 0, 53, 0, 52, 0, 9, 0, 54, 0, 53, 0, 9, 0, 8, 0, 54, 0, 9, 0, 0, 0, 55, 0, 0, 0, 9, 0, 56, 0, 7, 0, 10, 0, 11, 0, 10, 0, 57, 0, 13, 0, 12, 0, 58, 0, 16, 0, 15, 0, 59, 0, 19, 0, 18, 0, 60, 0, 22, 0, 21, 0, 61, 0, 25, 0, 24, 0, 62, 0, 63, 0, 64, 0, 65, 0, 31, 0, 30, 0, 66, 0, 34, 0, 33, 0, 67, 0, 37, 0, 36, 0, 68, 0, 40, 0, 39, 0, 69, 0, 69, 0, 6, 0, 1, 0, 1, 0, 70, 0, 44, 0, 71, 0, 72, 0, 73, 0, 44, 0, 43, 0, 44, 0, 74, 0, 75, 0, 72, 0, 74, 0, 44, 0, 75, 0, 76, 0, 44, 0, 77, 0, 78, 0, 44, 0, 76, 0, 77, 0, 44, 0, 79, 0, 42, 0, 44, 0, 78, 0, 79, 0, 44, 0 ),
"blend_shape_data": [  ],
"format": 2194711,
"index_count": 156,
"material": SubResource( 13 ),
"name": "None",
"primitive": 4,
"skeleton_aabb": [  ],
"vertex_count": 80
}
surfaces/3 = {
"aabb": AABB( 3, 0, -5, 2.00001, 0.20001, 2.00001 ),
"array_data": PoolByteArray( 0, 0, 160, 64, 205, 204, 76, 62, 0, 0, 64, 192, 0, 0, 127, 193, 0, 57, 0, 52, 0, 0, 160, 64, 0, 0, 0, 0, 0, 0, 64, 192, 0, 0, 127, 193, 0, 54, 0, 52, 0, 0, 160, 64, 0, 0, 0, 0, 0, 0, 160, 192, 127, 127, 0, 127, 0, 54, 0, 56, 0, 0, 64, 64, 205, 204, 76, 62, 0, 0, 160, 192, 127, 127, 0, 127, 0, 57, 0, 58, 0, 0, 64, 64, 0, 0, 0, 0, 0, 0, 160, 192, 127, 127, 0, 127, 0, 54, 0, 58, 0, 0, 160, 64, 0, 0, 0, 0, 0, 0, 64, 192, 127, 0, 0, 127, 0, 54, 0, 52, 0, 0, 160, 64, 205, 204, 76, 62, 0, 0, 160, 192, 127, 0, 0, 127, 0, 57, 0, 56, 0, 0, 160, 64, 0, 0, 0, 0, 0, 0, 160, 192, 127, 0, 0, 127, 0, 54, 0, 56, 252, 252, 149, 64, 205, 204, 76, 62, 108, 147, 65, 192, 0, 127, 130, 63, 80, 57, 12, 52, 16, 57, 140, 64, 205, 204, 76, 62, 200, 67, 70, 192, 0, 127, 129, 63, 158, 57, 50, 52, 0, 0, 160, 64, 205, 204, 76, 62, 0, 0, 160, 192, 0, 127, 129, 63, 0, 57, 0, 56, 0, 0, 64, 64, 205, 204, 76, 62, 0, 0, 160, 192, 0, 0, 127, 193, 0, 57, 0, 58, 0, 0, 64, 64, 0, 0, 0, 0, 0, 0, 160, 192, 0, 0, 127, 193, 0, 54, 0, 58, 252, 252, 149, 64, 0, 0, 0, 0, 108, 147, 65, 192, 247, 0, 0, 127, 0, 54, 191, 50, 0, 0, 160, 64, 205, 204, 76, 62, 0, 0, 64, 192, 247, 0, 0, 127, 0, 57, 0, 52, 0, 0, 160, 64, 0, 0, 0, 0, 0, 0, 64, 192, 247, 0, 0, 127, 0, 54, 0, 52, 16, 57, 140, 64, 0, 0, 0, 0, 200, 67, 70, 192, 232, 0, 0, 127, 0, 54, 135, 49, 252, 252, 149, 64, 205, 204, 76, 62, 108, 147, 65, 192, 232, 0, 0, 127, 0, 57, 191, 50, 252, 252, 149, 64, 0, 0, 0, 0, 108, 147, 65, 192, 232, 0, 0, 127, 0, 54, 191, 50, 208, 241, 130, 64, 0, 0, 0, 0, 128, 243, 77, 192, 219, 0, 0, 127, 0, 54, 94, 48, 16, 57, 140, 64, 205, 204, 76, 62, 200, 67, 70, 192, 219, 0, 0, 127, 0, 57, 135, 49, 16, 57, 140, 64, 0, 0, 0, 0, 200, 67, 70, 192, 219, 0, 0, 127, 0, 54, 135, 49, 112, 195, 116, 64, 0, 0, 0, 0, 34, 114, 88, 192, 208, 0, 0, 127, 0, 54, 152, 46, 208, 241, 130, 64, 205, 204, 76, 62, 128, 243, 77, 192, 208, 0, 0, 127, 0, 57, 94, 48, 208, 241, 130, 64, 0, 0, 0, 0, 128, 243, 77, 192, 208, 0, 0, 127, 0, 54, 94, 48, 136, 125, 101, 64, 0, 0, 0, 0, 133, 125, 101, 192, 198, 0, 0, 127, 0, 54, 0, 0, 112, 195, 116, 64, 205, 204, 76, 62, 34, 114, 88, 192, 198, 0, 0, 127, 0, 57, 152, 46, 112, 195, 116, 64, 0, 0, 0, 0, 34, 114, 88, 192, 198, 0, 0, 127, 0, 54, 152, 46, 32, 114, 88, 64, 0, 0, 0, 0, 118, 195, 116, 192, 188, 0, 0, 127, 0, 54, 44, 59, 136, 125, 101, 64, 205, 204, 76, 62, 133, 125, 101, 192, 188, 0, 0, 127, 0, 57, 0, 60, 136, 125, 101, 64, 0, 0, 0, 0, 133, 125, 101, 192, 188, 0, 0, 127, 0, 54, 0, 60, 128, 243, 77, 64, 0, 0, 0, 0, 210, 241, 130, 192, 178, 0, 0, 127, 0, 54, 232, 58, 32, 114, 88, 64, 205, 204, 76, 62, 118, 195, 116, 192, 178, 0, 0, 127, 0, 57, 44, 59, 32, 114, 88, 64, 0, 0, 0, 0, 118, 195, 116, 192, 178, 0, 0, 127, 0, 54, 44, 59, 200, 67, 70, 64, 0, 0, 0, 0, 17, 57, 140, 192, 167, 0, 0, 127, 0, 54, 158, 58, 128, 243, 77, 64, 205, 204, 76, 62, 210, 241, 130, 192, 167, 0, 0, 127, 0, 57, 232, 58, 128, 243, 77, 64, 0, 0, 0, 0, 210, 241, 130, 192, 167, 0, 0, 127, 0, 54, 232, 58, 112, 147, 65, 64, 0, 0, 0, 0, 250, 252, 149, 192, 154, 0, 0, 127, 0, 54, 80, 58, 200, 67, 70, 64, 205, 204, 76, 62, 17, 57, 140, 192, 154, 0, 0, 127, 0, 57, 158, 58, 200, 67, 70, 64, 0, 0, 0, 0, 17, 57, 140, 192, 154, 0, 0, 127, 0, 54, 158, 58, 0, 0, 64, 64, 0, 0, 0, 0, 0, 0, 160, 192, 139, 0, 0, 127, 0, 54, 0, 58, 112, 147, 65, 64, 205, 204, 76, 62, 250, 252, 149, 192, 139, 0, 0, 127, 0, 57, 80, 58, 112, 147, 65, 64, 0, 0, 0, 0, 250, 252, 149, 192, 139, 0, 0, 127, 0, 54, 80, 58, 16, 57, 140, 64, 0, 0, 0, 0, 200, 67, 70, 192, 0, 129, 126, 63, 195, 52, 50, 52, 252, 252, 149, 64, 0, 0, 0, 0, 108, 147, 65, 192, 0, 129, 127, 63, 95, 53, 12, 52, 0, 0, 160, 64, 0, 0, 0, 0, 0, 0, 160, 192, 0, 129, 126, 63, 0, 54, 0, 56, 0, 0, 160, 64, 205, 204, 76, 62, 0, 0, 160, 192, 127, 127, 0, 127, 0, 57, 0, 56, 0, 0, 160, 64, 205, 204, 76, 62, 0, 0, 64, 192, 127, 0, 0, 127, 0, 57, 0, 52, 0, 0, 64, 64, 205, 204, 76, 62, 0, 0, 160, 192, 0, 0, 127, 193, 0, 59, 0, 56, 0, 0, 160, 64, 205, 204, 76, 62, 0, 0, 160, 192, 0, 0, 127, 193, 0, 57, 0, 56, 112, 147, 65, 64, 205, 204, 76, 62, 250, 252, 149, 192, 0, 127, 129, 63, 249, 58, 95, 55, 0, 0, 64, 64, 205, 204, 76, 62, 0, 0, 160, 192, 0, 127, 129, 63, 0, 59, 0, 56, 200, 67, 70, 64, 205, 204, 76, 62, 17, 57, 140, 192, 0, 127, 130, 63, 230, 58, 195, 54, 128, 243, 77, 64, 205, 204, 76, 62, 210, 241, 130, 192, 0, 127, 129, 63, 200, 58, 47, 54, 32, 114, 88, 64, 205, 204, 76, 62, 118, 195, 116, 192, 0, 127, 130, 63, 158, 58, 166, 53, 136, 125, 101, 64, 205, 204, 76, 62, 133, 125, 101, 192, 0, 127, 129, 63, 106, 58, 43, 53, 112, 195, 116, 64, 205, 204, 76, 62, 34, 114, 88, 192, 0, 127, 130, 63, 44, 58, 195, 52, 208, 241, 130, 64, 205, 204, 76, 62, 128, 243, 77, 192, 0, 127, 130, 63, 232, 57, 111, 52, 252, 252, 149, 64, 205, 204, 76, 62, 108, 147, 65, 192, 0, 0, 127, 193, 80, 57, 12, 52, 0, 0, 160, 64, 205, 204, 76, 62, 0, 0, 64, 192, 0, 127, 130, 63, 0, 57, 0, 52, 252, 252, 149, 64, 205, 204, 76, 62, 108, 147, 65, 192, 247, 0, 0, 127, 0, 57, 191, 50, 16, 57, 140, 64, 205, 204, 76, 62, 200, 67, 70, 192, 232, 0, 0, 127, 0, 57, 135, 49, 208, 241, 130, 64, 205, 204, 76, 62, 128, 243, 77, 192, 219, 0, 0, 127, 0, 57, 94, 48, 112, 195, 116, 64, 205, 204, 76, 62, 34, 114, 88, 192, 208, 0, 0, 127, 0, 57, 152, 46, 136, 125, 101, 64, 205, 204, 76, 62, 133, 125, 101, 192, 198, 0, 0, 127, 0, 57, 0, 0, 112, 195, 116, 64, 205, 204, 76, 62, 34, 114, 88, 192, 198, 0, 0, 127, 0, 57, 152, 46, 136, 125, 101, 64, 0, 0, 0, 0, 133, 125, 101, 192, 198, 0, 0, 127, 0, 54, 0, 0, 32, 114, 88, 64, 205, 204, 76, 62, 118, 195, 116, 192, 188, 0, 0, 127, 0, 57, 44, 59, 128, 243, 77, 64, 205, 204, 76, 62, 210, 241, 130, 192, 178, 0, 0, 127, 0, 57, 232, 58, 200, 67, 70, 64, 205, 204, 76, 62, 17, 57, 140, 192, 167, 0, 0, 127, 0, 57, 158, 58, 112, 147, 65, 64, 205, 204, 76, 62, 250, 252, 149, 192, 154, 0, 0, 127, 0, 57, 80, 58, 0, 0, 64, 64, 205, 204, 76, 62, 0, 0, 160, 192, 139, 0, 0, 127, 0, 57, 0, 58, 0, 0, 64, 64, 0, 0, 0, 0, 0, 0, 160, 192, 0, 0, 127, 193, 0, 48, 0, 56, 0, 0, 160, 64, 0, 0, 0, 0, 0, 0, 160, 192, 0, 0, 127, 193, 0, 54, 0, 56, 252, 252, 149, 64, 0, 0, 0, 0, 108, 147, 65, 192, 0, 0, 127, 193, 95, 53, 12, 52, 0, 0, 64, 64, 0, 0, 0, 0, 0, 0, 160, 192, 0, 129, 127, 63, 0, 48, 0, 56, 112, 147, 65, 64, 0, 0, 0, 0, 250, 252, 149, 192, 0, 129, 126, 63, 25, 48, 95, 55, 0, 0, 160, 64, 0, 0, 0, 0, 0, 0, 64, 192, 0, 129, 127, 63, 0, 54, 0, 52, 200, 67, 70, 64, 0, 0, 0, 0, 17, 57, 140, 192, 0, 129, 127, 63, 100, 48, 195, 54, 128, 243, 77, 64, 0, 0, 0, 0, 210, 241, 130, 192, 0, 129, 126, 63, 223, 48, 47, 54, 32, 114, 88, 64, 0, 0, 0, 0, 118, 195, 116, 192, 0, 129, 127, 63, 135, 49, 166, 53, 136, 125, 101, 64, 0, 0, 0, 0, 133, 125, 101, 192, 0, 129, 126, 63, 87, 50, 43, 53, 112, 195, 116, 64, 0, 0, 0, 0, 34, 114, 88, 192, 0, 129, 127, 63, 76, 51, 195, 52, 208, 241, 130, 64, 0, 0, 0, 0, 128, 243, 77, 192, 0, 129, 127, 63, 47, 52, 111, 52 ),
"array_index_data": PoolByteArray( 0, 0, 1, 0, 1, 0, 2, 0, 3, 0, 4, 0, 5, 0, 6, 0, 7, 0, 8, 0, 9, 0, 10, 0, 11, 0, 12, 0, 12, 0, 13, 0, 14, 0, 15, 0, 16, 0, 17, 0, 18, 0, 19, 0, 20, 0, 21, 0, 22, 0, 23, 0, 24, 0, 25, 0, 26, 0, 27, 0, 28, 0, 29, 0, 30, 0, 31, 0, 32, 0, 33, 0, 34, 0, 35, 0, 36, 0, 37, 0, 38, 0, 39, 0, 40, 0, 41, 0, 42, 0, 43, 0, 44, 0, 45, 0, 0, 0, 1, 0, 0, 0, 46, 0, 3, 0, 2, 0, 47, 0, 6, 0, 5, 0, 48, 0, 49, 0, 48, 0, 50, 0, 51, 0, 10, 0, 52, 0, 50, 0, 10, 0, 53, 0, 52, 0, 10, 0, 54, 0, 53, 0, 10, 0, 55, 0, 54, 0, 10, 0, 56, 0, 55, 0, 10, 0, 57, 0, 56, 0, 10, 0, 9, 0, 57, 0, 10, 0, 0, 0, 58, 0, 0, 0, 10, 0, 59, 0, 8, 0, 11, 0, 12, 0, 11, 0, 60, 0, 14, 0, 13, 0, 61, 0, 17, 0, 16, 0, 62, 0, 20, 0, 19, 0, 63, 0, 23, 0, 22, 0, 64, 0, 65, 0, 66, 0, 67, 0, 29, 0, 28, 0, 68, 0, 32, 0, 31, 0, 69, 0, 35, 0, 34, 0, 70, 0, 38, 0, 37, 0, 71, 0, 41, 0, 40, 0, 72, 0, 72, 0, 73, 0, 1, 0, 1, 0, 74, 0, 45, 0, 75, 0, 76, 0, 77, 0, 45, 0, 44, 0, 45, 0, 78, 0, 79, 0, 76, 0, 78, 0, 45, 0, 79, 0, 80, 0, 45, 0, 81, 0, 82, 0, 45, 0, 80, 0, 81, 0, 45, 0, 83, 0, 43, 0, 45, 0, 82, 0, 83, 0, 45, 0 ),
"blend_shape_data": [  ],
"format": 2194711,
"index_count": 156,
"material": SubResource( 13 ),
"name": "None",
"primitive": 4,
"skeleton_aabb": [  ],
"vertex_count": 84
}
surfaces/4 = {
"aabb": AABB( -5, 0, -5, 10, 1e-05, 10 ),
"array_data": PoolByteArray( 0, 0, 160, 192, 0, 0, 0, 0, 0, 0, 160, 192, 0, 127, 127, 63, 0, 0, 0, 0, 0, 0, 160, 64, 0, 0, 0, 0, 0, 0, 160, 64, 0, 127, 127, 63, 0, 60, 0, 60, 0, 0, 160, 192, 0, 0, 0, 0, 0, 0, 160, 64, 0, 127, 127, 63, 0, 0, 0, 60, 0, 0, 160, 64, 0, 0, 0, 0, 0, 0, 160, 192, 0, 127, 127, 63, 0, 60, 0, 0 ),
"array_index_data": PoolByteArray( 0, 0, 1, 0, 2, 0, 3, 0, 1, 0, 0, 0 ),
"blend_shape_data": [  ],
"format": 2194711,
"index_count": 6,
"material": SubResource( 14 ),
"name": "Material",
"primitive": 4,
"skeleton_aabb": [  ],
"vertex_count": 4
}

[node name="AreaNorth" type="Area" groups=["Crossing"]]
collision_layer = 10240
collision_mask = 0
script = ExtResource( 1 )

[node name="CollisionShape" type="CollisionShape" parent="."]
transform = Transform( 0.1, 0, 0, 0, 1, 0, 0, 0, 0.1, 2, 1, 5 )
shape = SubResource( 1 )

[node name="PathNorth" type="Path" parent="." groups=["NorthPath", "Path"]]
curve = SubResource( 2 )

[node name="PathNorthWest" type="Path" parent="." groups=["NorthPath", "Path"]]
curve = SubResource( 3 )

[node name="PathNorthEast" type="Path" parent="." groups=["NorthPath", "Path"]]
curve = SubResource( 4 )

[node name="CrossingBlock" type="Area" parent="." groups=["AreaBlock"]]
transform = Transform( 1, 0, 0, 0, 1, 0, 0, 0, 1, 0, 0, -1.4 )
collision_layer = 0
collision_mask = 0

[node name="MeshInstance" type="MeshInstance" parent="CrossingBlock"]
transform = Transform( 0.2, 0, 0, 0, 1, 0, 0, 0, 1.49625, 0, 1, -0.1 )
visible = false
mesh = SubResource( 8 )
material/0 = SubResource( 9 )

[node name="CollisionShape" type="CollisionShape" parent="CrossingBlock"]
transform = Transform( 1, 0, 0, 0, 1, 0, 0, 0, 1.05, 0, 1, -0.1 )
shape = SubResource( 10 )

[node name="PriorityRight" type="Area" parent="." groups=["AreaBlock"]]
collision_layer = 0
collision_mask = 0

[node name="CollisionShape" type="CollisionShape" parent="PriorityRight"]
transform = Transform( 1, 0, 0, 0, 1, 0, 0, 0, 1, -3, 1, 2 )
shape = SubResource( 11 )

[node name="MeshInstance" type="MeshInstance" parent="PriorityRight"]
transform = Transform( 0.1, 0, 0, 0, 1, 0, 0, 0, 1, -3, 1, 2 )
visible = false
mesh = SubResource( 12 )
material/0 = null

[node name="crossing" type="MeshInstance" parent="."]
visible = false
mesh = SubResource( 15 )
material/0 = null
material/1 = null
material/2 = null
material/3 = null
material/4 = null
