# Blender v3.2.1 OBJ File: 'car.blend'
# www.blender.org
mtllib ga_ai_traffic_default_car.mtl
o BackWindow_Cube.003
v -1.070866 1.540748 -1.000000
v -1.070866 0.940748 -1.000000
v -1.070866 1.540748 1.000000
v -1.070866 0.940748 1.000000
v -1.470866 0.940748 -1.000000
v -1.470866 0.940748 1.000000
v -1.470866 0.940748 -1.000000
v -1.070866 1.540748 -1.000000
v -1.070866 1.540748 1.000000
v -1.470866 0.940748 1.000000
vt 0.375000 0.750000
vt 0.625000 0.750000
vt 0.625000 0.750000
vt 0.375000 1.000000
vt 0.375000 1.000000
vt 0.625000 0.500000
vt 0.625000 0.500000
vt 0.125000 0.500000
vt 0.375000 0.500000
vt 0.125000 0.750000
vt 0.375000 0.000000
vt 0.375000 0.000000
vt 0.375000 0.250000
vt 0.375000 0.250000
vt 0.625000 0.000000
vt 0.625000 0.250000
vn 0.0000 0.0000 1.0000
vn 0.0000 -1.0000 0.0000
vn 1.0000 0.0000 0.0000
vn -0.8321 0.5547 0.0000
vn 0.0000 0.0000 -1.0000
usemtl Material.002
s off
f 4/1/1 3/2/1 9/3/1 10/4/1 6/5/1
f 1/6/1 8/7/1 9/3/1 3/2/1
f 5/8/2 2/9/2 4/1/2 6/10/2
f 2/9/3 1/6/3 3/2/3 4/1/3
f 6/11/1 10/12/1 7/13/1 5/14/1
f 9/15/4 8/16/4 7/13/4 10/12/4
f 5/14/5 7/13/5 8/7/5 1/6/5 2/9/5
o FrontWindow_Cube.002
v 0.929133 0.940748 -1.000000
v 0.929133 0.940748 1.000000
v 0.529133 1.540748 -1.000000
v 0.529133 0.940748 -1.000000
v 0.529133 1.540748 1.000000
v 0.529133 0.940748 1.000000
v 0.529133 1.540748 -1.000000
v 0.929133 0.940748 -1.000000
v 0.929133 0.940748 1.000000
v 0.529133 1.540748 1.000000
vt 0.375000 0.750000
vt 0.375000 0.750000
vt 0.625000 1.000000
vt 0.625000 1.000000
vt 0.375000 1.000000
vt 0.375000 0.000000
vt 0.625000 0.000000
vt 0.625000 0.250000
vt 0.375000 0.250000
vt 0.125000 0.500000
vt 0.375000 0.500000
vt 0.125000 0.750000
vt 0.875000 0.500000
vt 0.875000 0.500000
vt 0.875000 0.750000
vt 0.875000 0.750000
vt 0.375000 0.500000
vt 0.625000 0.250000
vn 0.0000 0.0000 1.0000
vn -1.0000 0.0000 0.0000
vn 0.0000 -1.0000 0.0000
vn 0.8321 0.5547 0.0000
vn 0.0000 0.0000 -1.0000
usemtl Material.002
s off
f 12/17/6 19/18/6 20/19/6 15/20/6 16/21/6
f 16/22/7 15/23/7 13/24/7 14/25/7
f 14/26/8 11/27/8 12/17/8 16/28/8
f 17/29/6 13/30/6 15/31/6 20/32/6
f 11/27/6 18/33/6 19/18/6 12/17/6
f 17/29/9 20/32/9 19/18/9 18/33/9
f 14/25/10 13/24/10 17/34/10 18/33/10 11/27/10
o MainCar_Cube
v 2.000000 0.340751 -1.000000
v 2.000000 0.340751 1.000000
v -2.000000 0.340751 -1.000000
v -2.000000 0.340751 1.000000
v 1.189842 0.940751 -1.000000
v 2.000000 0.819227 -1.000000
v 2.000000 0.819227 1.000000
v 1.189842 0.940751 1.000000
v -2.000000 0.902564 -1.000000
v -1.745421 0.940751 -1.000000
v -1.745421 0.940751 1.000000
v -2.000000 0.902564 1.000000
vt 0.675635 0.500000
vt 0.859089 0.500000
vt 0.859089 0.750000
vt 0.675635 0.750000
vt 0.125000 0.500000
vt 0.375000 0.500000
vt 0.375000 0.750000
vt 0.125000 0.750000
vt 0.574365 0.750000
vt 0.625000 0.800635
vt 0.625000 0.984089
vt 0.609089 1.000000
vt 0.375000 1.000000
vt 0.574365 0.500000
vt 0.375000 0.000000
vt 0.609089 0.000000
vt 0.609089 0.250000
vt 0.375000 0.250000
vt 0.625000 0.000000
vt 0.625000 0.250000
vt 0.625000 0.265911
vt 0.625000 0.449365
vn 0.0000 1.0000 0.0000
vn 0.0000 -1.0000 0.0000
vn 0.0000 0.0000 1.0000
vn 1.0000 0.0000 0.0000
vn 0.1483 0.9889 0.0000
vn -1.0000 0.0000 0.0000
vn -0.1483 0.9889 0.0000
vn 0.0000 0.0000 -1.0000
usemtl Material
s off
f 25/35/11 30/36/11 31/37/11 28/38/11
f 23/39/12 21/40/12 22/41/12 24/42/12
f 22/41/13 27/43/13 28/44/13 31/45/13 32/46/13 24/47/13
f 21/40/14 26/48/14 27/43/14 22/41/14
f 25/35/15 28/38/15 27/43/15 26/48/15
f 24/49/16 32/50/16 29/51/16 23/52/16
f 31/53/17 30/54/17 29/51/17 32/50/17
f 23/52/18 29/51/18 30/55/18 25/56/18 26/48/18 21/40/18
o Roof_Cube.001
v 0.529133 1.540748 -1.000000
v 0.529133 0.940748 -1.000000
v 0.529133 1.540748 1.000000
v 0.529133 0.940748 1.000000
v -1.070867 1.540748 -1.000000
v -1.070867 0.940748 -1.000000
v -1.070867 1.540748 1.000000
v -1.070867 0.940748 1.000000
vt 0.625000 0.500000
vt 0.875000 0.500000
vt 0.875000 0.750000
vt 0.625000 0.750000
vt 0.375000 0.750000
vt 0.625000 1.000000
vt 0.375000 1.000000
vt 0.375000 0.000000
vt 0.625000 0.000000
vt 0.625000 0.250000
vt 0.375000 0.250000
vt 0.125000 0.500000
vt 0.375000 0.500000
vt 0.125000 0.750000
vn 0.0000 1.0000 0.0000
vn 0.0000 0.0000 1.0000
vn -1.0000 0.0000 0.0000
vn 0.0000 -1.0000 0.0000
vn 1.0000 0.0000 0.0000
vn 0.0000 0.0000 -1.0000
usemtl Material
s off
f 33/57/19 37/58/19 39/59/19 35/60/19
f 36/61/20 35/60/20 39/62/20 40/63/20
f 40/64/21 39/65/21 37/66/21 38/67/21
f 38/68/22 34/69/22 36/61/22 40/70/22
f 34/69/23 33/57/23 35/60/23 36/61/23
f 38/67/24 37/66/24 33/57/24 34/69/24
o FrontWheel1_Cylinder
v 1.454276 0.714003 0.762702
v 1.454276 0.714003 1.062702
v 1.522557 0.707278 0.762702
v 1.522557 0.707278 1.062702
v 1.588215 0.687361 0.762702
v 1.588215 0.687361 1.062702
v 1.648725 0.655017 0.762702
v 1.648725 0.655017 1.062702
v 1.701763 0.611491 0.762702
v 1.701763 0.611491 1.062702
v 1.745290 0.558453 0.762702
v 1.745290 0.558453 1.062702
v 1.777633 0.497942 0.762702
v 1.777633 0.497942 1.062702
v 1.797550 0.432285 0.762702
v 1.797550 0.432285 1.062702
v 1.804276 0.364003 0.762702
v 1.804276 0.364003 1.062702
v 1.797550 0.295722 0.762702
v 1.797550 0.295722 1.062702
v 1.777633 0.230064 0.762702
v 1.777633 0.230064 1.062702
v 1.745290 0.169554 0.762702
v 1.745290 0.169554 1.062702
v 1.701763 0.116516 0.762702
v 1.701763 0.116516 1.062702
v 1.648725 0.072989 0.762702
v 1.648725 0.072989 1.062702
v 1.588215 0.040645 0.762702
v 1.588215 0.040645 1.062702
v 1.522557 0.020728 0.762702
v 1.522557 0.020728 1.062702
v 1.454275 0.014003 0.762702
v 1.454275 0.014003 1.062702
v 1.385994 0.020728 0.762702
v 1.385994 0.020728 1.062702
v 1.320336 0.040645 0.762702
v 1.320336 0.040645 1.062702
v 1.259826 0.072989 0.762702
v 1.259826 0.072989 1.062702
v 1.206788 0.116516 0.762702
v 1.206788 0.116516 1.062702
v 1.163261 0.169554 0.762702
v 1.163261 0.169554 1.062702
v 1.130918 0.230064 0.762702
v 1.130918 0.230064 1.062702
v 1.111001 0.295722 0.762702
v 1.111001 0.295722 1.062702
v 1.104276 0.364004 0.762702
v 1.104276 0.364004 1.062702
v 1.111001 0.432285 0.762702
v 1.111001 0.432285 1.062702
v 1.130918 0.497943 0.762702
v 1.130918 0.497943 1.062702
v 1.163261 0.558453 0.762702
v 1.163261 0.558453 1.062702
v 1.206789 0.611491 0.762702
v 1.206789 0.611491 1.062702
v 1.259826 0.655018 0.762702
v 1.259826 0.655018 1.062702
v 1.320337 0.687361 0.762702
v 1.320337 0.687361 1.062702
v 1.385995 0.707278 0.762702
v 1.385995 0.707278 1.062702
vt 1.000000 0.500000
vt 1.000000 1.000000
vt 0.968750 1.000000
vt 0.968750 0.500000
vt 0.937500 1.000000
vt 0.937500 0.500000
vt 0.906250 1.000000
vt 0.906250 0.500000
vt 0.875000 1.000000
vt 0.875000 0.500000
vt 0.843750 1.000000
vt 0.843750 0.500000
vt 0.812500 1.000000
vt 0.812500 0.500000
vt 0.781250 1.000000
vt 0.781250 0.500000
vt 0.750000 1.000000
vt 0.750000 0.500000
vt 0.718750 1.000000
vt 0.718750 0.500000
vt 0.687500 1.000000
vt 0.687500 0.500000
vt 0.656250 1.000000
vt 0.656250 0.500000
vt 0.625000 1.000000
vt 0.625000 0.500000
vt 0.593750 1.000000
vt 0.593750 0.500000
vt 0.562500 1.000000
vt 0.562500 0.500000
vt 0.531250 1.000000
vt 0.531250 0.500000
vt 0.500000 1.000000
vt 0.500000 0.500000
vt 0.468750 1.000000
vt 0.468750 0.500000
vt 0.437500 1.000000
vt 0.437500 0.500000
vt 0.406250 1.000000
vt 0.406250 0.500000
vt 0.375000 1.000000
vt 0.375000 0.500000
vt 0.343750 1.000000
vt 0.343750 0.500000
vt 0.312500 1.000000
vt 0.312500 0.500000
vt 0.281250 1.000000
vt 0.281250 0.500000
vt 0.250000 1.000000
vt 0.250000 0.500000
vt 0.218750 1.000000
vt 0.218750 0.500000
vt 0.187500 1.000000
vt 0.187500 0.500000
vt 0.156250 1.000000
vt 0.156250 0.500000
vt 0.125000 1.000000
vt 0.125000 0.500000
vt 0.093750 1.000000
vt 0.093750 0.500000
vt 0.062500 1.000000
vt 0.062500 0.500000
vt 0.296822 0.485388
vt 0.250000 0.490000
vt 0.203179 0.485389
vt 0.158156 0.471731
vt 0.116663 0.449553
vt 0.080295 0.419706
vt 0.050447 0.383337
vt 0.028269 0.341844
vt 0.014612 0.296822
vt 0.010000 0.250000
vt 0.014611 0.203179
vt 0.028269 0.158156
vt 0.050447 0.116663
vt 0.080294 0.080294
vt 0.116663 0.050447
vt 0.158156 0.028269
vt 0.203178 0.014612
vt 0.250000 0.010000
vt 0.296822 0.014612
vt 0.341844 0.028269
vt 0.383337 0.050447
vt 0.419706 0.080294
vt 0.449553 0.116663
vt 0.471731 0.158156
vt 0.485388 0.203178
vt 0.490000 0.250000
vt 0.485388 0.296822
vt 0.471731 0.341844
vt 0.449553 0.383337
vt 0.419706 0.419706
vt 0.383337 0.449553
vt 0.341844 0.471731
vt 0.031250 1.000000
vt 0.031250 0.500000
vt 0.000000 1.000000
vt 0.000000 0.500000
vt 0.750000 0.490000
vt 0.796822 0.485388
vt 0.841844 0.471731
vt 0.883337 0.449553
vt 0.919706 0.419706
vt 0.949553 0.383337
vt 0.971731 0.341844
vt 0.985388 0.296822
vt 0.990000 0.250000
vt 0.985388 0.203178
vt 0.971731 0.158156
vt 0.949553 0.116663
vt 0.919706 0.080294
vt 0.883337 0.050447
vt 0.841844 0.028269
vt 0.796822 0.014612
vt 0.750000 0.010000
vt 0.703178 0.014612
vt 0.658156 0.028269
vt 0.616663 0.050447
vt 0.580294 0.080294
vt 0.550447 0.116663
vt 0.528269 0.158156
vt 0.514611 0.203179
vt 0.510000 0.250000
vt 0.514612 0.296822
vt 0.528269 0.341844
vt 0.550447 0.383337
vt 0.580295 0.419706
vt 0.616663 0.449553
vt 0.658156 0.471731
vt 0.703179 0.485389
vn 0.0980 0.9952 0.0000
vn 0.2903 0.9569 0.0000
vn 0.4714 0.8819 0.0000
vn 0.6344 0.7730 0.0000
vn 0.7730 0.6344 0.0000
vn 0.8819 0.4714 0.0000
vn 0.9569 0.2903 0.0000
vn 0.9952 0.0980 0.0000
vn 0.9952 -0.0980 0.0000
vn 0.9569 -0.2903 -0.0000
vn 0.8819 -0.4714 0.0000
vn 0.7730 -0.6344 0.0000
vn 0.6344 -0.7730 0.0000
vn 0.4714 -0.8819 0.0000
vn 0.2903 -0.9569 0.0000
vn 0.0980 -0.9952 0.0000
vn -0.0980 -0.9952 0.0000
vn -0.2903 -0.9569 0.0000
vn -0.4714 -0.8819 0.0000
vn -0.6344 -0.7730 0.0000
vn -0.7730 -0.6344 0.0000
vn -0.8819 -0.4714 0.0000
vn -0.9569 -0.2903 -0.0000
vn -0.9952 -0.0980 -0.0000
vn -0.9952 0.0980 0.0000
vn -0.9569 0.2903 0.0000
vn -0.8819 0.4714 0.0000
vn -0.7730 0.6344 0.0000
vn -0.6344 0.7730 0.0000
vn -0.4714 0.8819 0.0000
vn -0.0000 0.0000 1.0000
vn -0.2903 0.9569 0.0000
vn -0.0980 0.9952 0.0000
vn -0.0000 0.0000 -1.0000
usemtl Material.004
s off
f 41/71/25 42/72/25 44/73/25 43/74/25
f 43/74/26 44/73/26 46/75/26 45/76/26
f 45/76/27 46/75/27 48/77/27 47/78/27
f 47/78/28 48/77/28 50/79/28 49/80/28
f 49/80/29 50/79/29 52/81/29 51/82/29
f 51/82/30 52/81/30 54/83/30 53/84/30
f 53/84/31 54/83/31 56/85/31 55/86/31
f 55/86/32 56/85/32 58/87/32 57/88/32
f 57/88/33 58/87/33 60/89/33 59/90/33
f 59/90/34 60/89/34 62/91/34 61/92/34
f 61/92/35 62/91/35 64/93/35 63/94/35
f 63/94/36 64/93/36 66/95/36 65/96/36
f 65/96/37 66/95/37 68/97/37 67/98/37
f 67/98/38 68/97/38 70/99/38 69/100/38
f 69/100/39 70/99/39 72/101/39 71/102/39
f 71/102/40 72/101/40 74/103/40 73/104/40
f 73/104/41 74/103/41 76/105/41 75/106/41
f 75/106/42 76/105/42 78/107/42 77/108/42
f 77/108/43 78/107/43 80/109/43 79/110/43
f 79/110/44 80/109/44 82/111/44 81/112/44
f 81/112/45 82/111/45 84/113/45 83/114/45
f 83/114/46 84/113/46 86/115/46 85/116/46
f 85/116/47 86/115/47 88/117/47 87/118/47
f 87/118/48 88/117/48 90/119/48 89/120/48
f 89/120/49 90/119/49 92/121/49 91/122/49
f 91/122/50 92/121/50 94/123/50 93/124/50
f 93/124/51 94/123/51 96/125/51 95/126/51
f 95/126/52 96/125/52 98/127/52 97/128/52
f 97/128/53 98/127/53 100/129/53 99/130/53
f 99/130/54 100/129/54 102/131/54 101/132/54
f 44/133/55 42/134/55 104/135/55 102/136/55 100/137/55 98/138/55 96/139/55 94/140/55 92/141/55 90/142/55 88/143/55 86/144/55 84/145/55 82/146/55 80/147/55 78/148/55 76/149/55 74/150/55 72/151/55 70/152/55 68/153/55 66/154/55 64/155/55 62/156/55 60/157/55 58/158/55 56/159/55 54/160/55 52/161/55 50/162/55 48/163/55 46/164/55
f 101/132/56 102/131/56 104/165/56 103/166/56
f 103/166/57 104/165/57 42/167/57 41/168/57
f 41/169/58 43/170/58 45/171/58 47/172/58 49/173/58 51/174/58 53/175/58 55/176/58 57/177/58 59/178/58 61/179/58 63/180/58 65/181/58 67/182/58 69/183/58 71/184/58 73/185/58 75/186/58 77/187/58 79/188/58 81/189/58 83/190/58 85/191/58 87/192/58 89/193/58 91/194/58 93/195/58 95/196/58 97/197/58 99/198/58 101/199/58 103/200/58
o FrontWheel2_Cylinder.001
v 1.454276 0.614003 -1.072158
v 1.454276 0.614003 -0.772158
v 1.503048 0.609200 -1.072158
v 1.503048 0.609200 -0.772158
v 1.549946 0.594973 -1.072158
v 1.549946 0.594973 -0.772158
v 1.593168 0.571871 -1.072158
v 1.593168 0.571871 -0.772158
v 1.631052 0.540780 -1.072158
v 1.631052 0.540780 -0.772158
v 1.662143 0.502896 -1.072158
v 1.662143 0.502896 -0.772158
v 1.685246 0.459674 -1.072158
v 1.685246 0.459674 -0.772158
v 1.699472 0.412776 -1.072158
v 1.699472 0.412776 -0.772158
v 1.704276 0.364003 -1.072158
v 1.704276 0.364003 -0.772158
v 1.699472 0.315231 -1.072158
v 1.699472 0.315231 -0.772158
v 1.685246 0.268332 -1.072158
v 1.685246 0.268332 -0.772158
v 1.662143 0.225111 -1.072158
v 1.662143 0.225111 -0.772158
v 1.631052 0.187226 -1.072158
v 1.631052 0.187226 -0.772158
v 1.593168 0.156136 -1.072158
v 1.593168 0.156136 -0.772158
v 1.549946 0.133033 -1.072158
v 1.549946 0.133033 -0.772158
v 1.503048 0.118807 -1.072158
v 1.503048 0.118807 -0.772158
v 1.454275 0.114003 -1.072158
v 1.454275 0.114003 -0.772158
v 1.405503 0.118807 -1.072158
v 1.405503 0.118807 -0.772158
v 1.358605 0.133033 -1.072158
v 1.358605 0.133033 -0.772158
v 1.315383 0.156136 -1.072158
v 1.315383 0.156136 -0.772158
v 1.277499 0.187227 -1.072158
v 1.277499 0.187227 -0.772158
v 1.246408 0.225111 -1.072158
v 1.246408 0.225111 -0.772158
v 1.223306 0.268333 -1.072158
v 1.223306 0.268333 -0.772158
v 1.209079 0.315231 -1.072158
v 1.209079 0.315231 -0.772158
v 1.204276 0.364003 -1.072158
v 1.204276 0.364003 -0.772158
v 1.209079 0.412776 -1.072158
v 1.209079 0.412776 -0.772158
v 1.223306 0.459674 -1.072158
v 1.223306 0.459674 -0.772158
v 1.246408 0.502896 -1.072158
v 1.246408 0.502896 -0.772158
v 1.277499 0.540780 -1.072158
v 1.277499 0.540780 -0.772158
v 1.315383 0.571871 -1.072158
v 1.315383 0.571871 -0.772158
v 1.358605 0.594973 -1.072158
v 1.358605 0.594973 -0.772158
v 1.405503 0.609200 -1.072158
v 1.405503 0.609200 -0.772158
vt 1.000000 0.500000
vt 1.000000 1.000000
vt 0.968750 1.000000
vt 0.968750 0.500000
vt 0.937500 1.000000
vt 0.937500 0.500000
vt 0.906250 1.000000
vt 0.906250 0.500000
vt 0.875000 1.000000
vt 0.875000 0.500000
vt 0.843750 1.000000
vt 0.843750 0.500000
vt 0.812500 1.000000
vt 0.812500 0.500000
vt 0.781250 1.000000
vt 0.781250 0.500000
vt 0.750000 1.000000
vt 0.750000 0.500000
vt 0.718750 1.000000
vt 0.718750 0.500000
vt 0.687500 1.000000
vt 0.687500 0.500000
vt 0.656250 1.000000
vt 0.656250 0.500000
vt 0.625000 1.000000
vt 0.625000 0.500000
vt 0.593750 1.000000
vt 0.593750 0.500000
vt 0.562500 1.000000
vt 0.562500 0.500000
vt 0.531250 1.000000
vt 0.531250 0.500000
vt 0.500000 1.000000
vt 0.500000 0.500000
vt 0.468750 1.000000
vt 0.468750 0.500000
vt 0.437500 1.000000
vt 0.437500 0.500000
vt 0.406250 1.000000
vt 0.406250 0.500000
vt 0.375000 1.000000
vt 0.375000 0.500000
vt 0.343750 1.000000
vt 0.343750 0.500000
vt 0.312500 1.000000
vt 0.312500 0.500000
vt 0.281250 1.000000
vt 0.281250 0.500000
vt 0.250000 1.000000
vt 0.250000 0.500000
vt 0.218750 1.000000
vt 0.218750 0.500000
vt 0.187500 1.000000
vt 0.187500 0.500000
vt 0.156250 1.000000
vt 0.156250 0.500000
vt 0.125000 1.000000
vt 0.125000 0.500000
vt 0.093750 1.000000
vt 0.093750 0.500000
vt 0.062500 1.000000
vt 0.062500 0.500000
vt 0.296822 0.485388
vt 0.250000 0.490000
vt 0.203179 0.485389
vt 0.158156 0.471731
vt 0.116663 0.449553
vt 0.080295 0.419706
vt 0.050447 0.383337
vt 0.028269 0.341844
vt 0.014612 0.296822
vt 0.010000 0.250000
vt 0.014611 0.203179
vt 0.028269 0.158156
vt 0.050447 0.116663
vt 0.080294 0.080294
vt 0.116663 0.050447
vt 0.158156 0.028269
vt 0.203178 0.014612
vt 0.250000 0.010000
vt 0.296822 0.014612
vt 0.341844 0.028269
vt 0.383337 0.050447
vt 0.419706 0.080294
vt 0.449553 0.116663
vt 0.471731 0.158156
vt 0.485388 0.203178
vt 0.490000 0.250000
vt 0.485388 0.296822
vt 0.471731 0.341844
vt 0.449553 0.383337
vt 0.419706 0.419706
vt 0.383337 0.449553
vt 0.341844 0.471731
vt 0.031250 1.000000
vt 0.031250 0.500000
vt 0.000000 1.000000
vt 0.000000 0.500000
vt 0.750000 0.490000
vt 0.796822 0.485388
vt 0.841844 0.471731
vt 0.883337 0.449553
vt 0.919706 0.419706
vt 0.949553 0.383337
vt 0.971731 0.341844
vt 0.985388 0.296822
vt 0.990000 0.250000
vt 0.985388 0.203178
vt 0.971731 0.158156
vt 0.949553 0.116663
vt 0.919706 0.080294
vt 0.883337 0.050447
vt 0.841844 0.028269
vt 0.796822 0.014612
vt 0.750000 0.010000
vt 0.703178 0.014612
vt 0.658156 0.028269
vt 0.616663 0.050447
vt 0.580294 0.080294
vt 0.550447 0.116663
vt 0.528269 0.158156
vt 0.514611 0.203179
vt 0.510000 0.250000
vt 0.514612 0.296822
vt 0.528269 0.341844
vt 0.550447 0.383337
vt 0.580295 0.419706
vt 0.616663 0.449553
vt 0.658156 0.471731
vt 0.703179 0.485389
vn 0.0980 0.9952 0.0000
vn 0.2903 0.9569 0.0000
vn 0.4714 0.8819 0.0000
vn 0.6344 0.7730 0.0000
vn 0.7730 0.6344 0.0000
vn 0.8819 0.4714 0.0000
vn 0.9569 0.2903 0.0000
vn 0.9952 0.0980 0.0000
vn 0.9952 -0.0980 -0.0000
vn 0.9569 -0.2903 0.0000
vn 0.8819 -0.4714 0.0000
vn 0.7730 -0.6344 0.0000
vn 0.6344 -0.7730 0.0000
vn 0.4714 -0.8819 0.0000
vn 0.2903 -0.9569 0.0000
vn 0.0980 -0.9952 0.0000
vn -0.0980 -0.9952 0.0000
vn -0.2903 -0.9569 0.0000
vn -0.4714 -0.8819 0.0000
vn -0.6344 -0.7730 0.0000
vn -0.7730 -0.6344 0.0000
vn -0.8819 -0.4714 0.0000
vn -0.9569 -0.2903 0.0000
vn -0.9952 -0.0980 0.0000
vn -0.9952 0.0980 0.0000
vn -0.9569 0.2903 0.0000
vn -0.8819 0.4714 0.0000
vn -0.7730 0.6344 0.0000
vn -0.6344 0.7730 0.0000
vn -0.4714 0.8819 0.0000
vn -0.0000 -0.0000 1.0000
vn -0.2903 0.9569 0.0000
vn -0.0980 0.9952 0.0000
vn 0.0000 0.0000 -1.0000
usemtl None
s off
f 105/201/59 106/202/59 108/203/59 107/204/59
f 107/204/60 108/203/60 110/205/60 109/206/60
f 109/206/61 110/205/61 112/207/61 111/208/61
f 111/208/62 112/207/62 114/209/62 113/210/62
f 113/210/63 114/209/63 116/211/63 115/212/63
f 115/212/64 116/211/64 118/213/64 117/214/64
f 117/214/65 118/213/65 120/215/65 119/216/65
f 119/216/66 120/215/66 122/217/66 121/218/66
f 121/218/67 122/217/67 124/219/67 123/220/67
f 123/220/68 124/219/68 126/221/68 125/222/68
f 125/222/69 126/221/69 128/223/69 127/224/69
f 127/224/70 128/223/70 130/225/70 129/226/70
f 129/226/71 130/225/71 132/227/71 131/228/71
f 131/228/72 132/227/72 134/229/72 133/230/72
f 133/230/73 134/229/73 136/231/73 135/232/73
f 135/232/74 136/231/74 138/233/74 137/234/74
f 137/234/75 138/233/75 140/235/75 139/236/75
f 139/236/76 140/235/76 142/237/76 141/238/76
f 141/238/77 142/237/77 144/239/77 143/240/77
f 143/240/78 144/239/78 146/241/78 145/242/78
f 145/242/79 146/241/79 148/243/79 147/244/79
f 147/244/80 148/243/80 150/245/80 149/246/80
f 149/246/81 150/245/81 152/247/81 151/248/81
f 151/248/82 152/247/82 154/249/82 153/250/82
f 153/250/83 154/249/83 156/251/83 155/252/83
f 155/252/84 156/251/84 158/253/84 157/254/84
f 157/254/85 158/253/85 160/255/85 159/256/85
f 159/256/86 160/255/86 162/257/86 161/258/86
f 161/258/87 162/257/87 164/259/87 163/260/87
f 163/260/88 164/259/88 166/261/88 165/262/88
f 108/263/89 106/264/89 168/265/89 166/266/89 164/267/89 162/268/89 160/269/89 158/270/89 156/271/89 154/272/89 152/273/89 150/274/89 148/275/89 146/276/89 144/277/89 142/278/89 140/279/89 138/280/89 136/281/89 134/282/89 132/283/89 130/284/89 128/285/89 126/286/89 124/287/89 122/288/89 120/289/89 118/290/89 116/291/89 114/292/89 112/293/89 110/294/89
f 165/262/90 166/261/90 168/295/90 167/296/90
f 167/296/91 168/295/91 106/297/91 105/298/91
f 105/299/92 107/300/92 109/301/92 111/302/92 113/303/92 115/304/92 117/305/92 119/306/92 121/307/92 123/308/92 125/309/92 127/310/92 129/311/92 131/312/92 133/313/92 135/314/92 137/315/92 139/316/92 141/317/92 143/318/92 145/319/92 147/320/92 149/321/92 151/322/92 153/323/92 155/324/92 157/325/92 159/326/92 161/327/92 163/328/92 165/329/92 167/330/92
o BackWheel1_Cylinder.003
v -1.272029 0.714003 0.762702
v -1.272029 0.714003 1.062702
v -1.203747 0.707278 0.762702
v -1.203747 0.707278 1.062702
v -1.138089 0.687361 0.762702
v -1.138089 0.687361 1.062702
v -1.077579 0.655017 0.762702
v -1.077579 0.655017 1.062702
v -1.024541 0.611491 0.762702
v -1.024541 0.611491 1.062702
v -0.981014 0.558453 0.762702
v -0.981014 0.558453 1.062702
v -0.948671 0.497942 0.762702
v -0.948671 0.497942 1.062702
v -0.928754 0.432285 0.762702
v -0.928754 0.432285 1.062702
v -0.922029 0.364003 0.762702
v -0.922029 0.364003 1.062702
v -0.928754 0.295722 0.762702
v -0.928754 0.295722 1.062702
v -0.948671 0.230064 0.762702
v -0.948671 0.230064 1.062702
v -0.981014 0.169554 0.762702
v -0.981014 0.169554 1.062702
v -1.024541 0.116516 0.762702
v -1.024541 0.116516 1.062702
v -1.077579 0.072989 0.762702
v -1.077579 0.072989 1.062702
v -1.138090 0.040645 0.762702
v -1.138090 0.040645 1.062702
v -1.203747 0.020728 0.762702
v -1.203747 0.020728 1.062702
v -1.272029 0.014003 0.762702
v -1.272029 0.014003 1.062702
v -1.340310 0.020728 0.762702
v -1.340310 0.020728 1.062702
v -1.405968 0.040645 0.762702
v -1.405968 0.040645 1.062702
v -1.466478 0.072989 0.762702
v -1.466478 0.072989 1.062702
v -1.519516 0.116516 0.762702
v -1.519516 0.116516 1.062702
v -1.563043 0.169554 0.762702
v -1.563043 0.169554 1.062702
v -1.595387 0.230064 0.762702
v -1.595387 0.230064 1.062702
v -1.615304 0.295722 0.762702
v -1.615304 0.295722 1.062702
v -1.622029 0.364004 0.762702
v -1.622029 0.364004 1.062702
v -1.615304 0.432285 0.762702
v -1.615304 0.432285 1.062702
v -1.595386 0.497943 0.762702
v -1.595386 0.497943 1.062702
v -1.563043 0.558453 0.762702
v -1.563043 0.558453 1.062702
v -1.519516 0.611491 0.762702
v -1.519516 0.611491 1.062702
v -1.466478 0.655018 0.762702
v -1.466478 0.655018 1.062702
v -1.405967 0.687361 0.762702
v -1.405967 0.687361 1.062702
v -1.340310 0.707278 0.762702
v -1.340310 0.707278 1.062702
vt 1.000000 0.500000
vt 1.000000 1.000000
vt 0.968750 1.000000
vt 0.968750 0.500000
vt 0.937500 1.000000
vt 0.937500 0.500000
vt 0.906250 1.000000
vt 0.906250 0.500000
vt 0.875000 1.000000
vt 0.875000 0.500000
vt 0.843750 1.000000
vt 0.843750 0.500000
vt 0.812500 1.000000
vt 0.812500 0.500000
vt 0.781250 1.000000
vt 0.781250 0.500000
vt 0.750000 1.000000
vt 0.750000 0.500000
vt 0.718750 1.000000
vt 0.718750 0.500000
vt 0.687500 1.000000
vt 0.687500 0.500000
vt 0.656250 1.000000
vt 0.656250 0.500000
vt 0.625000 1.000000
vt 0.625000 0.500000
vt 0.593750 1.000000
vt 0.593750 0.500000
vt 0.562500 1.000000
vt 0.562500 0.500000
vt 0.531250 1.000000
vt 0.531250 0.500000
vt 0.500000 1.000000
vt 0.500000 0.500000
vt 0.468750 1.000000
vt 0.468750 0.500000
vt 0.437500 1.000000
vt 0.437500 0.500000
vt 0.406250 1.000000
vt 0.406250 0.500000
vt 0.375000 1.000000
vt 0.375000 0.500000
vt 0.343750 1.000000
vt 0.343750 0.500000
vt 0.312500 1.000000
vt 0.312500 0.500000
vt 0.281250 1.000000
vt 0.281250 0.500000
vt 0.250000 1.000000
vt 0.250000 0.500000
vt 0.218750 1.000000
vt 0.218750 0.500000
vt 0.187500 1.000000
vt 0.187500 0.500000
vt 0.156250 1.000000
vt 0.156250 0.500000
vt 0.125000 1.000000
vt 0.125000 0.500000
vt 0.093750 1.000000
vt 0.093750 0.500000
vt 0.062500 1.000000
vt 0.062500 0.500000
vt 0.296822 0.485388
vt 0.250000 0.490000
vt 0.203179 0.485389
vt 0.158156 0.471731
vt 0.116663 0.449553
vt 0.080295 0.419706
vt 0.050447 0.383337
vt 0.028269 0.341844
vt 0.014612 0.296822
vt 0.010000 0.250000
vt 0.014611 0.203179
vt 0.028269 0.158156
vt 0.050447 0.116663
vt 0.080294 0.080294
vt 0.116663 0.050447
vt 0.158156 0.028269
vt 0.203178 0.014612
vt 0.250000 0.010000
vt 0.296822 0.014612
vt 0.341844 0.028269
vt 0.383337 0.050447
vt 0.419706 0.080294
vt 0.449553 0.116663
vt 0.471731 0.158156
vt 0.485388 0.203178
vt 0.490000 0.250000
vt 0.485388 0.296822
vt 0.471731 0.341844
vt 0.449553 0.383337
vt 0.419706 0.419706
vt 0.383337 0.449553
vt 0.341844 0.471731
vt 0.031250 1.000000
vt 0.031250 0.500000
vt 0.000000 1.000000
vt 0.000000 0.500000
vt 0.750000 0.490000
vt 0.796822 0.485388
vt 0.841844 0.471731
vt 0.883337 0.449553
vt 0.919706 0.419706
vt 0.949553 0.383337
vt 0.971731 0.341844
vt 0.985388 0.296822
vt 0.990000 0.250000
vt 0.985388 0.203178
vt 0.971731 0.158156
vt 0.949553 0.116663
vt 0.919706 0.080294
vt 0.883337 0.050447
vt 0.841844 0.028269
vt 0.796822 0.014612
vt 0.750000 0.010000
vt 0.703178 0.014612
vt 0.658156 0.028269
vt 0.616663 0.050447
vt 0.580294 0.080294
vt 0.550447 0.116663
vt 0.528269 0.158156
vt 0.514611 0.203179
vt 0.510000 0.250000
vt 0.514612 0.296822
vt 0.528269 0.341844
vt 0.550447 0.383337
vt 0.580295 0.419706
vt 0.616663 0.449553
vt 0.658156 0.471731
vt 0.703179 0.485389
vn 0.0980 0.9952 0.0000
vn 0.2903 0.9569 0.0000
vn 0.4714 0.8819 0.0000
vn 0.6344 0.7730 0.0000
vn 0.7730 0.6344 0.0000
vn 0.8819 0.4714 0.0000
vn 0.9569 0.2903 0.0000
vn 0.9952 0.0980 0.0000
vn 0.9952 -0.0980 0.0000
vn 0.9569 -0.2903 -0.0000
vn 0.8819 -0.4714 0.0000
vn 0.7730 -0.6344 0.0000
vn 0.6344 -0.7730 0.0000
vn 0.4714 -0.8819 0.0000
vn 0.2903 -0.9569 0.0000
vn 0.0980 -0.9952 0.0000
vn -0.0980 -0.9952 0.0000
vn -0.2903 -0.9569 0.0000
vn -0.4714 -0.8819 0.0000
vn -0.6344 -0.7730 0.0000
vn -0.7730 -0.6344 0.0000
vn -0.8819 -0.4714 0.0000
vn -0.9569 -0.2903 -0.0000
vn -0.9952 -0.0980 -0.0000
vn -0.9952 0.0980 0.0000
vn -0.9569 0.2903 0.0000
vn -0.8819 0.4714 0.0000
vn -0.7730 0.6344 0.0000
vn -0.6344 0.7730 0.0000
vn -0.4714 0.8819 0.0000
vn -0.0000 0.0000 1.0000
vn -0.2903 0.9569 0.0000
vn -0.0980 0.9952 0.0000
vn -0.0000 0.0000 -1.0000
usemtl Material.004
s off
f 169/331/93 170/332/93 172/333/93 171/334/93
f 171/334/94 172/333/94 174/335/94 173/336/94
f 173/336/95 174/335/95 176/337/95 175/338/95
f 175/338/96 176/337/96 178/339/96 177/340/96
f 177/340/97 178/339/97 180/341/97 179/342/97
f 179/342/98 180/341/98 182/343/98 181/344/98
f 181/344/99 182/343/99 184/345/99 183/346/99
f 183/346/100 184/345/100 186/347/100 185/348/100
f 185/348/101 186/347/101 188/349/101 187/350/101
f 187/350/102 188/349/102 190/351/102 189/352/102
f 189/352/103 190/351/103 192/353/103 191/354/103
f 191/354/104 192/353/104 194/355/104 193/356/104
f 193/356/105 194/355/105 196/357/105 195/358/105
f 195/358/106 196/357/106 198/359/106 197/360/106
f 197/360/107 198/359/107 200/361/107 199/362/107
f 199/362/108 200/361/108 202/363/108 201/364/108
f 201/364/109 202/363/109 204/365/109 203/366/109
f 203/366/110 204/365/110 206/367/110 205/368/110
f 205/368/111 206/367/111 208/369/111 207/370/111
f 207/370/112 208/369/112 210/371/112 209/372/112
f 209/372/113 210/371/113 212/373/113 211/374/113
f 211/374/114 212/373/114 214/375/114 213/376/114
f 213/376/115 214/375/115 216/377/115 215/378/115
f 215/378/116 216/377/116 218/379/116 217/380/116
f 217/380/117 218/379/117 220/381/117 219/382/117
f 219/382/118 220/381/118 222/383/118 221/384/118
f 221/384/119 222/383/119 224/385/119 223/386/119
f 223/386/120 224/385/120 226/387/120 225/388/120
f 225/388/121 226/387/121 228/389/121 227/390/121
f 227/390/122 228/389/122 230/391/122 229/392/122
f 172/393/123 170/394/123 232/395/123 230/396/123 228/397/123 226/398/123 224/399/123 222/400/123 220/401/123 218/402/123 216/403/123 214/404/123 212/405/123 210/406/123 208/407/123 206/408/123 204/409/123 202/410/123 200/411/123 198/412/123 196/413/123 194/414/123 192/415/123 190/416/123 188/417/123 186/418/123 184/419/123 182/420/123 180/421/123 178/422/123 176/423/123 174/424/123
f 229/392/124 230/391/124 232/425/124 231/426/124
f 231/426/125 232/425/125 170/427/125 169/428/125
f 169/429/126 171/430/126 173/431/126 175/432/126 177/433/126 179/434/126 181/435/126 183/436/126 185/437/126 187/438/126 189/439/126 191/440/126 193/441/126 195/442/126 197/443/126 199/444/126 201/445/126 203/446/126 205/447/126 207/448/126 209/449/126 211/450/126 213/451/126 215/452/126 217/453/126 219/454/126 221/455/126 223/456/126 225/457/126 227/458/126 229/459/126 231/460/126
o BackWheel2_Cylinder.002
v -1.272029 0.714003 -1.061206
v -1.272029 0.714003 -0.761206
v -1.203747 0.707278 -1.061206
v -1.203747 0.707278 -0.761206
v -1.138089 0.687361 -1.061206
v -1.138089 0.687361 -0.761206
v -1.077579 0.655017 -1.061206
v -1.077579 0.655017 -0.761206
v -1.024541 0.611491 -1.061206
v -1.024541 0.611491 -0.761206
v -0.981014 0.558453 -1.061206
v -0.981014 0.558453 -0.761206
v -0.948671 0.497942 -1.061206
v -0.948671 0.497942 -0.761207
v -0.928754 0.432285 -1.061206
v -0.928754 0.432285 -0.761207
v -0.922029 0.364003 -1.061206
v -0.922029 0.364003 -0.761207
v -0.928754 0.295722 -1.061206
v -0.928754 0.295722 -0.761207
v -0.948671 0.230064 -1.061206
v -0.948671 0.230064 -0.761207
v -0.981014 0.169554 -1.061206
v -0.981014 0.169554 -0.761207
v -1.024541 0.116516 -1.061206
v -1.024541 0.116516 -0.761207
v -1.077579 0.072989 -1.061206
v -1.077579 0.072989 -0.761207
v -1.138090 0.040645 -1.061206
v -1.138090 0.040645 -0.761207
v -1.203747 0.020728 -1.061206
v -1.203747 0.020728 -0.761207
v -1.272029 0.014003 -1.061206
v -1.272029 0.014003 -0.761207
v -1.340310 0.020728 -1.061206
v -1.340310 0.020728 -0.761207
v -1.405968 0.040645 -1.061206
v -1.405968 0.040645 -0.761207
v -1.466478 0.072989 -1.061206
v -1.466478 0.072989 -0.761207
v -1.519516 0.116516 -1.061206
v -1.519516 0.116516 -0.761207
v -1.563043 0.169554 -1.061206
v -1.563043 0.169554 -0.761207
v -1.595387 0.230064 -1.061206
v -1.595387 0.230064 -0.761207
v -1.615304 0.295722 -1.061206
v -1.615304 0.295722 -0.761207
v -1.622029 0.364004 -1.061206
v -1.622029 0.364004 -0.761207
v -1.615304 0.432285 -1.061206
v -1.615304 0.432285 -0.761207
v -1.595386 0.497943 -1.061206
v -1.595386 0.497943 -0.761207
v -1.563043 0.558453 -1.061206
v -1.563043 0.558453 -0.761206
v -1.519516 0.611491 -1.061206
v -1.519516 0.611491 -0.761206
v -1.466478 0.655018 -1.061206
v -1.466478 0.655018 -0.761206
v -1.405967 0.687361 -1.061206
v -1.405967 0.687361 -0.761206
v -1.340310 0.707278 -1.061206
v -1.340310 0.707278 -0.761206
vt 1.000000 0.500000
vt 1.000000 1.000000
vt 0.968750 1.000000
vt 0.968750 0.500000
vt 0.937500 1.000000
vt 0.937500 0.500000
vt 0.906250 1.000000
vt 0.906250 0.500000
vt 0.875000 1.000000
vt 0.875000 0.500000
vt 0.843750 1.000000
vt 0.843750 0.500000
vt 0.812500 1.000000
vt 0.812500 0.500000
vt 0.781250 1.000000
vt 0.781250 0.500000
vt 0.750000 1.000000
vt 0.750000 0.500000
vt 0.718750 1.000000
vt 0.718750 0.500000
vt 0.687500 1.000000
vt 0.687500 0.500000
vt 0.656250 1.000000
vt 0.656250 0.500000
vt 0.625000 1.000000
vt 0.625000 0.500000
vt 0.593750 1.000000
vt 0.593750 0.500000
vt 0.562500 1.000000
vt 0.562500 0.500000
vt 0.531250 1.000000
vt 0.531250 0.500000
vt 0.500000 1.000000
vt 0.500000 0.500000
vt 0.468750 1.000000
vt 0.468750 0.500000
vt 0.437500 1.000000
vt 0.437500 0.500000
vt 0.406250 1.000000
vt 0.406250 0.500000
vt 0.375000 1.000000
vt 0.375000 0.500000
vt 0.343750 1.000000
vt 0.343750 0.500000
vt 0.312500 1.000000
vt 0.312500 0.500000
vt 0.281250 1.000000
vt 0.281250 0.500000
vt 0.250000 1.000000
vt 0.250000 0.500000
vt 0.218750 1.000000
vt 0.218750 0.500000
vt 0.187500 1.000000
vt 0.187500 0.500000
vt 0.156250 1.000000
vt 0.156250 0.500000
vt 0.125000 1.000000
vt 0.125000 0.500000
vt 0.093750 1.000000
vt 0.093750 0.500000
vt 0.062500 1.000000
vt 0.062500 0.500000
vt 0.296822 0.485388
vt 0.250000 0.490000
vt 0.203179 0.485389
vt 0.158156 0.471731
vt 0.116663 0.449553
vt 0.080295 0.419706
vt 0.050447 0.383337
vt 0.028269 0.341844
vt 0.014612 0.296822
vt 0.010000 0.250000
vt 0.014611 0.203179
vt 0.028269 0.158156
vt 0.050447 0.116663
vt 0.080294 0.080294
vt 0.116663 0.050447
vt 0.158156 0.028269
vt 0.203178 0.014612
vt 0.250000 0.010000
vt 0.296822 0.014612
vt 0.341844 0.028269
vt 0.383337 0.050447
vt 0.419706 0.080294
vt 0.449553 0.116663
vt 0.471731 0.158156
vt 0.485388 0.203178
vt 0.490000 0.250000
vt 0.485388 0.296822
vt 0.471731 0.341844
vt 0.449553 0.383337
vt 0.419706 0.419706
vt 0.383337 0.449553
vt 0.341844 0.471731
vt 0.031250 1.000000
vt 0.031250 0.500000
vt 0.000000 1.000000
vt 0.000000 0.500000
vt 0.750000 0.490000
vt 0.796822 0.485388
vt 0.841844 0.471731
vt 0.883337 0.449553
vt 0.919706 0.419706
vt 0.949553 0.383337
vt 0.971731 0.341844
vt 0.985388 0.296822
vt 0.990000 0.250000
vt 0.985388 0.203178
vt 0.971731 0.158156
vt 0.949553 0.116663
vt 0.919706 0.080294
vt 0.883337 0.050447
vt 0.841844 0.028269
vt 0.796822 0.014612
vt 0.750000 0.010000
vt 0.703178 0.014612
vt 0.658156 0.028269
vt 0.616663 0.050447
vt 0.580294 0.080294
vt 0.550447 0.116663
vt 0.528269 0.158156
vt 0.514611 0.203179
vt 0.510000 0.250000
vt 0.514612 0.296822
vt 0.528269 0.341844
vt 0.550447 0.383337
vt 0.580295 0.419706
vt 0.616663 0.449553
vt 0.658156 0.471731
vt 0.703179 0.485389
vn 0.0980 0.9952 0.0000
vn 0.2903 0.9569 0.0000
vn 0.4714 0.8819 0.0000
vn 0.6344 0.7730 0.0000
vn 0.7730 0.6344 0.0000
vn 0.8819 0.4714 0.0000
vn 0.9569 0.2903 0.0000
vn 0.9952 0.0980 0.0000
vn 0.9952 -0.0980 0.0000
vn 0.9569 -0.2903 -0.0000
vn 0.8819 -0.4714 0.0000
vn 0.7730 -0.6344 0.0000
vn 0.6344 -0.7730 0.0000
vn 0.4714 -0.8819 0.0000
vn 0.2903 -0.9569 0.0000
vn 0.0980 -0.9952 0.0000
vn -0.0980 -0.9952 0.0000
vn -0.2903 -0.9569 0.0000
vn -0.4714 -0.8819 0.0000
vn -0.6344 -0.7730 0.0000
vn -0.7730 -0.6344 0.0000
vn -0.8819 -0.4714 0.0000
vn -0.9569 -0.2903 -0.0000
vn -0.9952 -0.0980 -0.0000
vn -0.9952 0.0980 0.0000
vn -0.9569 0.2903 0.0000
vn -0.8819 0.4714 0.0000
vn -0.7730 0.6344 0.0000
vn -0.6344 0.7730 0.0000
vn -0.4714 0.8819 0.0000
vn -0.0000 -0.0000 1.0000
vn -0.2903 0.9569 0.0000
vn -0.0980 0.9952 0.0000
vn -0.0000 0.0000 -1.0000
usemtl Material.004
s off
f 233/461/127 234/462/127 236/463/127 235/464/127
f 235/464/128 236/463/128 238/465/128 237/466/128
f 237/466/129 238/465/129 240/467/129 239/468/129
f 239/468/130 240/467/130 242/469/130 241/470/130
f 241/470/131 242/469/131 244/471/131 243/472/131
f 243/472/132 244/471/132 246/473/132 245/474/132
f 245/474/133 246/473/133 248/475/133 247/476/133
f 247/476/134 248/475/134 250/477/134 249/478/134
f 249/478/135 250/477/135 252/479/135 251/480/135
f 251/480/136 252/479/136 254/481/136 253/482/136
f 253/482/137 254/481/137 256/483/137 255/484/137
f 255/484/138 256/483/138 258/485/138 257/486/138
f 257/486/139 258/485/139 260/487/139 259/488/139
f 259/488/140 260/487/140 262/489/140 261/490/140
f 261/490/141 262/489/141 264/491/141 263/492/141
f 263/492/142 264/491/142 266/493/142 265/494/142
f 265/494/143 266/493/143 268/495/143 267/496/143
f 267/496/144 268/495/144 270/497/144 269/498/144
f 269/498/145 270/497/145 272/499/145 271/500/145
f 271/500/146 272/499/146 274/501/146 273/502/146
f 273/502/147 274/501/147 276/503/147 275/504/147
f 275/504/148 276/503/148 278/505/148 277/506/148
f 277/506/149 278/505/149 280/507/149 279/508/149
f 279/508/150 280/507/150 282/509/150 281/510/150
f 281/510/151 282/509/151 284/511/151 283/512/151
f 283/512/152 284/511/152 286/513/152 285/514/152
f 285/514/153 286/513/153 288/515/153 287/516/153
f 287/516/154 288/515/154 290/517/154 289/518/154
f 289/518/155 290/517/155 292/519/155 291/520/155
f 291/520/156 292/519/156 294/521/156 293/522/156
f 236/523/157 234/524/157 296/525/157 294/526/157 292/527/157 290/528/157 288/529/157 286/530/157 284/531/157 282/532/157 280/533/157 278/534/157 276/535/157 274/536/157 272/537/157 270/538/157 268/539/157 266/540/157 264/541/157 262/542/157 260/543/157 258/544/157 256/545/157 254/546/157 252/547/157 250/548/157 248/549/157 246/550/157 244/551/157 242/552/157 240/553/157 238/554/157
f 293/522/158 294/521/158 296/555/158 295/556/158
f 295/556/159 296/555/159 234/557/159 233/558/159
f 233/559/160 235/560/160 237/561/160 239/562/160 241/563/160 243/564/160 245/565/160 247/566/160 249/567/160 251/568/160 253/569/160 255/570/160 257/571/160 259/572/160 261/573/160 263/574/160 265/575/160 267/576/160 269/577/160 271/578/160 273/579/160 275/580/160 277/581/160 279/582/160 281/583/160 283/584/160 285/585/160 287/586/160 289/587/160 291/588/160 293/589/160 295/590/160
o FrontWheel2.001_Cylinder.004
v 1.454276 0.714003 -1.061206
v 1.454276 0.714003 -0.761206
v 1.522557 0.707278 -1.061206
v 1.522557 0.707278 -0.761206
v 1.588215 0.687361 -1.061206
v 1.588215 0.687361 -0.761206
v 1.648725 0.655017 -1.061206
v 1.648725 0.655017 -0.761206
v 1.701763 0.611491 -1.061206
v 1.701763 0.611491 -0.761206
v 1.745290 0.558453 -1.061206
v 1.745290 0.558453 -0.761206
v 1.777633 0.497942 -1.061206
v 1.777633 0.497942 -0.761207
v 1.797550 0.432285 -1.061206
v 1.797550 0.432285 -0.761207
v 1.804276 0.364003 -1.061206
v 1.804276 0.364003 -0.761207
v 1.797550 0.295722 -1.061206
v 1.797550 0.295722 -0.761207
v 1.777633 0.230064 -1.061206
v 1.777633 0.230064 -0.761207
v 1.745290 0.169554 -1.061206
v 1.745290 0.169554 -0.761207
v 1.701763 0.116516 -1.061206
v 1.701763 0.116516 -0.761207
v 1.648725 0.072989 -1.061206
v 1.648725 0.072989 -0.761207
v 1.588215 0.040645 -1.061206
v 1.588215 0.040645 -0.761207
v 1.522557 0.020728 -1.061206
v 1.522557 0.020728 -0.761207
v 1.454275 0.014003 -1.061206
v 1.454275 0.014003 -0.761207
v 1.385994 0.020728 -1.061206
v 1.385994 0.020728 -0.761207
v 1.320336 0.040645 -1.061206
v 1.320336 0.040645 -0.761207
v 1.259826 0.072989 -1.061206
v 1.259826 0.072989 -0.761207
v 1.206788 0.116516 -1.061206
v 1.206788 0.116516 -0.761207
v 1.163261 0.169554 -1.061206
v 1.163261 0.169554 -0.761207
v 1.130918 0.230064 -1.061206
v 1.130918 0.230064 -0.761207
v 1.111001 0.295722 -1.061206
v 1.111001 0.295722 -0.761207
v 1.104276 0.364004 -1.061206
v 1.104276 0.364004 -0.761207
v 1.111001 0.432285 -1.061206
v 1.111001 0.432285 -0.761207
v 1.130918 0.497943 -1.061206
v 1.130918 0.497943 -0.761207
v 1.163261 0.558453 -1.061206
v 1.163261 0.558453 -0.761206
v 1.206789 0.611491 -1.061206
v 1.206789 0.611491 -0.761206
v 1.259826 0.655018 -1.061206
v 1.259826 0.655018 -0.761206
v 1.320337 0.687361 -1.061206
v 1.320337 0.687361 -0.761206
v 1.385995 0.707278 -1.061206
v 1.385995 0.707278 -0.761206
vt 1.000000 0.500000
vt 1.000000 1.000000
vt 0.968750 1.000000
vt 0.968750 0.500000
vt 0.937500 1.000000
vt 0.937500 0.500000
vt 0.906250 1.000000
vt 0.906250 0.500000
vt 0.875000 1.000000
vt 0.875000 0.500000
vt 0.843750 1.000000
vt 0.843750 0.500000
vt 0.812500 1.000000
vt 0.812500 0.500000
vt 0.781250 1.000000
vt 0.781250 0.500000
vt 0.750000 1.000000
vt 0.750000 0.500000
vt 0.718750 1.000000
vt 0.718750 0.500000
vt 0.687500 1.000000
vt 0.687500 0.500000
vt 0.656250 1.000000
vt 0.656250 0.500000
vt 0.625000 1.000000
vt 0.625000 0.500000
vt 0.593750 1.000000
vt 0.593750 0.500000
vt 0.562500 1.000000
vt 0.562500 0.500000
vt 0.531250 1.000000
vt 0.531250 0.500000
vt 0.500000 1.000000
vt 0.500000 0.500000
vt 0.468750 1.000000
vt 0.468750 0.500000
vt 0.437500 1.000000
vt 0.437500 0.500000
vt 0.406250 1.000000
vt 0.406250 0.500000
vt 0.375000 1.000000
vt 0.375000 0.500000
vt 0.343750 1.000000
vt 0.343750 0.500000
vt 0.312500 1.000000
vt 0.312500 0.500000
vt 0.281250 1.000000
vt 0.281250 0.500000
vt 0.250000 1.000000
vt 0.250000 0.500000
vt 0.218750 1.000000
vt 0.218750 0.500000
vt 0.187500 1.000000
vt 0.187500 0.500000
vt 0.156250 1.000000
vt 0.156250 0.500000
vt 0.125000 1.000000
vt 0.125000 0.500000
vt 0.093750 1.000000
vt 0.093750 0.500000
vt 0.062500 1.000000
vt 0.062500 0.500000
vt 0.296822 0.485388
vt 0.250000 0.490000
vt 0.203179 0.485389
vt 0.158156 0.471731
vt 0.116663 0.449553
vt 0.080295 0.419706
vt 0.050447 0.383337
vt 0.028269 0.341844
vt 0.014612 0.296822
vt 0.010000 0.250000
vt 0.014611 0.203179
vt 0.028269 0.158156
vt 0.050447 0.116663
vt 0.080294 0.080294
vt 0.116663 0.050447
vt 0.158156 0.028269
vt 0.203178 0.014612
vt 0.250000 0.010000
vt 0.296822 0.014612
vt 0.341844 0.028269
vt 0.383337 0.050447
vt 0.419706 0.080294
vt 0.449553 0.116663
vt 0.471731 0.158156
vt 0.485388 0.203178
vt 0.490000 0.250000
vt 0.485388 0.296822
vt 0.471731 0.341844
vt 0.449553 0.383337
vt 0.419706 0.419706
vt 0.383337 0.449553
vt 0.341844 0.471731
vt 0.031250 1.000000
vt 0.031250 0.500000
vt 0.000000 1.000000
vt 0.000000 0.500000
vt 0.750000 0.490000
vt 0.796822 0.485388
vt 0.841844 0.471731
vt 0.883337 0.449553
vt 0.919706 0.419706
vt 0.949553 0.383337
vt 0.971731 0.341844
vt 0.985388 0.296822
vt 0.990000 0.250000
vt 0.985388 0.203178
vt 0.971731 0.158156
vt 0.949553 0.116663
vt 0.919706 0.080294
vt 0.883337 0.050447
vt 0.841844 0.028269
vt 0.796822 0.014612
vt 0.750000 0.010000
vt 0.703178 0.014612
vt 0.658156 0.028269
vt 0.616663 0.050447
vt 0.580294 0.080294
vt 0.550447 0.116663
vt 0.528269 0.158156
vt 0.514611 0.203179
vt 0.510000 0.250000
vt 0.514612 0.296822
vt 0.528269 0.341844
vt 0.550447 0.383337
vt 0.580295 0.419706
vt 0.616663 0.449553
vt 0.658156 0.471731
vt 0.703179 0.485389
vn 0.0980 0.9952 0.0000
vn 0.2903 0.9569 0.0000
vn 0.4714 0.8819 0.0000
vn 0.6344 0.7730 0.0000
vn 0.7730 0.6344 0.0000
vn 0.8819 0.4714 0.0000
vn 0.9569 0.2903 0.0000
vn 0.9952 0.0980 0.0000
vn 0.9952 -0.0980 0.0000
vn 0.9569 -0.2903 -0.0000
vn 0.8819 -0.4714 0.0000
vn 0.7730 -0.6344 0.0000
vn 0.6344 -0.7730 0.0000
vn 0.4714 -0.8819 0.0000
vn 0.2903 -0.9569 0.0000
vn 0.0980 -0.9952 0.0000
vn -0.0980 -0.9952 0.0000
vn -0.2903 -0.9569 0.0000
vn -0.4714 -0.8819 0.0000
vn -0.6344 -0.7730 0.0000
vn -0.7730 -0.6344 0.0000
vn -0.8819 -0.4714 0.0000
vn -0.9569 -0.2903 -0.0000
vn -0.9952 -0.0980 -0.0000
vn -0.9952 0.0980 0.0000
vn -0.9569 0.2903 0.0000
vn -0.8819 0.4714 0.0000
vn -0.7730 0.6344 0.0000
vn -0.6344 0.7730 0.0000
vn -0.4714 0.8819 0.0000
vn -0.0000 -0.0000 1.0000
vn -0.2903 0.9569 0.0000
vn -0.0980 0.9952 0.0000
vn -0.0000 0.0000 -1.0000
usemtl Material.004
s off
f 297/591/161 298/592/161 300/593/161 299/594/161
f 299/594/162 300/593/162 302/595/162 301/596/162
f 301/596/163 302/595/163 304/597/163 303/598/163
f 303/598/164 304/597/164 306/599/164 305/600/164
f 305/600/165 306/599/165 308/601/165 307/602/165
f 307/602/166 308/601/166 310/603/166 309/604/166
f 309/604/167 310/603/167 312/605/167 311/606/167
f 311/606/168 312/605/168 314/607/168 313/608/168
f 313/608/169 314/607/169 316/609/169 315/610/169
f 315/610/170 316/609/170 318/611/170 317/612/170
f 317/612/171 318/611/171 320/613/171 319/614/171
f 319/614/172 320/613/172 322/615/172 321/616/172
f 321/616/173 322/615/173 324/617/173 323/618/173
f 323/618/174 324/617/174 326/619/174 325/620/174
f 325/620/175 326/619/175 328/621/175 327/622/175
f 327/622/176 328/621/176 330/623/176 329/624/176
f 329/624/177 330/623/177 332/625/177 331/626/177
f 331/626/178 332/625/178 334/627/178 333/628/178
f 333/628/179 334/627/179 336/629/179 335/630/179
f 335/630/180 336/629/180 338/631/180 337/632/180
f 337/632/181 338/631/181 340/633/181 339/634/181
f 339/634/182 340/633/182 342/635/182 341/636/182
f 341/636/183 342/635/183 344/637/183 343/638/183
f 343/638/184 344/637/184 346/639/184 345/640/184
f 345/640/185 346/639/185 348/641/185 347/642/185
f 347/642/186 348/641/186 350/643/186 349/644/186
f 349/644/187 350/643/187 352/645/187 351/646/187
f 351/646/188 352/645/188 354/647/188 353/648/188
f 353/648/189 354/647/189 356/649/189 355/650/189
f 355/650/190 356/649/190 358/651/190 357/652/190
f 300/653/191 298/654/191 360/655/191 358/656/191 356/657/191 354/658/191 352/659/191 350/660/191 348/661/191 346/662/191 344/663/191 342/664/191 340/665/191 338/666/191 336/667/191 334/668/191 332/669/191 330/670/191 328/671/191 326/672/191 324/673/191 322/674/191 320/675/191 318/676/191 316/677/191 314/678/191 312/679/191 310/680/191 308/681/191 306/682/191 304/683/191 302/684/191
f 357/652/192 358/651/192 360/685/192 359/686/192
f 359/686/193 360/685/193 298/687/193 297/688/193
f 297/689/194 299/690/194 301/691/194 303/692/194 305/693/194 307/694/194 309/695/194 311/696/194 313/697/194 315/698/194 317/699/194 319/700/194 321/701/194 323/702/194 325/703/194 327/704/194 329/705/194 331/706/194 333/707/194 335/708/194 337/709/194 339/710/194 341/711/194 343/712/194 345/713/194 347/714/194 349/715/194 351/716/194 353/717/194 355/718/194 357/719/194 359/720/194
o FrontWheel2.002_Cylinder.005
v 1.454276 0.614003 0.773483
v 1.454276 0.614003 1.073483
v 1.503048 0.609200 0.773483
v 1.503048 0.609200 1.073483
v 1.549946 0.594973 0.773483
v 1.549946 0.594973 1.073483
v 1.593168 0.571871 0.773483
v 1.593168 0.571871 1.073483
v 1.631052 0.540780 0.773483
v 1.631052 0.540780 1.073483
v 1.662143 0.502896 0.773483
v 1.662143 0.502896 1.073483
v 1.685246 0.459674 0.773483
v 1.685246 0.459674 1.073483
v 1.699472 0.412776 0.773483
v 1.699472 0.412776 1.073483
v 1.704276 0.364003 0.773483
v 1.704276 0.364003 1.073483
v 1.699472 0.315231 0.773483
v 1.699472 0.315231 1.073483
v 1.685246 0.268332 0.773483
v 1.685246 0.268332 1.073483
v 1.662143 0.225111 0.773483
v 1.662143 0.225111 1.073483
v 1.631052 0.187226 0.773483
v 1.631052 0.187226 1.073483
v 1.593168 0.156136 0.773483
v 1.593168 0.156136 1.073483
v 1.549946 0.133033 0.773483
v 1.549946 0.133033 1.073483
v 1.503048 0.118807 0.773483
v 1.503048 0.118807 1.073483
v 1.454275 0.114003 0.773483
v 1.454275 0.114003 1.073483
v 1.405503 0.118807 0.773483
v 1.405503 0.118807 1.073483
v 1.358605 0.133033 0.773483
v 1.358605 0.133033 1.073483
v 1.315383 0.156136 0.773483
v 1.315383 0.156136 1.073483
v 1.277499 0.187227 0.773483
v 1.277499 0.187227 1.073483
v 1.246408 0.225111 0.773483
v 1.246408 0.225111 1.073483
v 1.223306 0.268333 0.773483
v 1.223306 0.268333 1.073483
v 1.209079 0.315231 0.773483
v 1.209079 0.315231 1.073483
v 1.204276 0.364003 0.773483
v 1.204276 0.364003 1.073483
v 1.209079 0.412776 0.773483
v 1.209079 0.412776 1.073483
v 1.223306 0.459674 0.773483
v 1.223306 0.459674 1.073483
v 1.246408 0.502896 0.773483
v 1.246408 0.502896 1.073483
v 1.277499 0.540780 0.773483
v 1.277499 0.540780 1.073483
v 1.315383 0.571871 0.773483
v 1.315383 0.571871 1.073483
v 1.358605 0.594973 0.773483
v 1.358605 0.594973 1.073483
v 1.405503 0.609200 0.773483
v 1.405503 0.609200 1.073483
vt 1.000000 0.500000
vt 1.000000 1.000000
vt 0.968750 1.000000
vt 0.968750 0.500000
vt 0.937500 1.000000
vt 0.937500 0.500000
vt 0.906250 1.000000
vt 0.906250 0.500000
vt 0.875000 1.000000
vt 0.875000 0.500000
vt 0.843750 1.000000
vt 0.843750 0.500000
vt 0.812500 1.000000
vt 0.812500 0.500000
vt 0.781250 1.000000
vt 0.781250 0.500000
vt 0.750000 1.000000
vt 0.750000 0.500000
vt 0.718750 1.000000
vt 0.718750 0.500000
vt 0.687500 1.000000
vt 0.687500 0.500000
vt 0.656250 1.000000
vt 0.656250 0.500000
vt 0.625000 1.000000
vt 0.625000 0.500000
vt 0.593750 1.000000
vt 0.593750 0.500000
vt 0.562500 1.000000
vt 0.562500 0.500000
vt 0.531250 1.000000
vt 0.531250 0.500000
vt 0.500000 1.000000
vt 0.500000 0.500000
vt 0.468750 1.000000
vt 0.468750 0.500000
vt 0.437500 1.000000
vt 0.437500 0.500000
vt 0.406250 1.000000
vt 0.406250 0.500000
vt 0.375000 1.000000
vt 0.375000 0.500000
vt 0.343750 1.000000
vt 0.343750 0.500000
vt 0.312500 1.000000
vt 0.312500 0.500000
vt 0.281250 1.000000
vt 0.281250 0.500000
vt 0.250000 1.000000
vt 0.250000 0.500000
vt 0.218750 1.000000
vt 0.218750 0.500000
vt 0.187500 1.000000
vt 0.187500 0.500000
vt 0.156250 1.000000
vt 0.156250 0.500000
vt 0.125000 1.000000
vt 0.125000 0.500000
vt 0.093750 1.000000
vt 0.093750 0.500000
vt 0.062500 1.000000
vt 0.062500 0.500000
vt 0.296822 0.485388
vt 0.250000 0.490000
vt 0.203179 0.485389
vt 0.158156 0.471731
vt 0.116663 0.449553
vt 0.080295 0.419706
vt 0.050447 0.383337
vt 0.028269 0.341844
vt 0.014612 0.296822
vt 0.010000 0.250000
vt 0.014611 0.203179
vt 0.028269 0.158156
vt 0.050447 0.116663
vt 0.080294 0.080294
vt 0.116663 0.050447
vt 0.158156 0.028269
vt 0.203178 0.014612
vt 0.250000 0.010000
vt 0.296822 0.014612
vt 0.341844 0.028269
vt 0.383337 0.050447
vt 0.419706 0.080294
vt 0.449553 0.116663
vt 0.471731 0.158156
vt 0.485388 0.203178
vt 0.490000 0.250000
vt 0.485388 0.296822
vt 0.471731 0.341844
vt 0.449553 0.383337
vt 0.419706 0.419706
vt 0.383337 0.449553
vt 0.341844 0.471731
vt 0.031250 1.000000
vt 0.031250 0.500000
vt 0.000000 1.000000
vt 0.000000 0.500000
vt 0.750000 0.490000
vt 0.796822 0.485388
vt 0.841844 0.471731
vt 0.883337 0.449553
vt 0.919706 0.419706
vt 0.949553 0.383337
vt 0.971731 0.341844
vt 0.985388 0.296822
vt 0.990000 0.250000
vt 0.985388 0.203178
vt 0.971731 0.158156
vt 0.949553 0.116663
vt 0.919706 0.080294
vt 0.883337 0.050447
vt 0.841844 0.028269
vt 0.796822 0.014612
vt 0.750000 0.010000
vt 0.703178 0.014612
vt 0.658156 0.028269
vt 0.616663 0.050447
vt 0.580294 0.080294
vt 0.550447 0.116663
vt 0.528269 0.158156
vt 0.514611 0.203179
vt 0.510000 0.250000
vt 0.514612 0.296822
vt 0.528269 0.341844
vt 0.550447 0.383337
vt 0.580295 0.419706
vt 0.616663 0.449553
vt 0.658156 0.471731
vt 0.703179 0.485389
vn 0.0980 0.9952 0.0000
vn 0.2903 0.9569 0.0000
vn 0.4714 0.8819 0.0000
vn 0.6344 0.7730 0.0000
vn 0.7730 0.6344 0.0000
vn 0.8819 0.4714 0.0000
vn 0.9569 0.2903 0.0000
vn 0.9952 0.0980 0.0000
vn 0.9952 -0.0980 -0.0000
vn 0.9569 -0.2903 0.0000
vn 0.8819 -0.4714 0.0000
vn 0.7730 -0.6344 0.0000
vn 0.6344 -0.7730 0.0000
vn 0.4714 -0.8819 0.0000
vn 0.2903 -0.9569 0.0000
vn 0.0980 -0.9952 0.0000
vn -0.0980 -0.9952 0.0000
vn -0.2903 -0.9569 0.0000
vn -0.4714 -0.8819 0.0000
vn -0.6344 -0.7730 0.0000
vn -0.7730 -0.6344 0.0000
vn -0.8819 -0.4714 0.0000
vn -0.9569 -0.2903 0.0000
vn -0.9952 -0.0980 0.0000
vn -0.9952 0.0980 0.0000
vn -0.9569 0.2903 0.0000
vn -0.8819 0.4714 0.0000
vn -0.7730 0.6344 0.0000
vn -0.6344 0.7730 0.0000
vn -0.4714 0.8819 0.0000
vn 0.0000 0.0000 1.0000
vn -0.2903 0.9569 0.0000
vn -0.0980 0.9952 0.0000
vn 0.0000 0.0000 -1.0000
usemtl None
s off
f 361/721/195 362/722/195 364/723/195 363/724/195
f 363/724/196 364/723/196 366/725/196 365/726/196
f 365/726/197 366/725/197 368/727/197 367/728/197
f 367/728/198 368/727/198 370/729/198 369/730/198
f 369/730/199 370/729/199 372/731/199 371/732/199
f 371/732/200 372/731/200 374/733/200 373/734/200
f 373/734/201 374/733/201 376/735/201 375/736/201
f 375/736/202 376/735/202 378/737/202 377/738/202
f 377/738/203 378/737/203 380/739/203 379/740/203
f 379/740/204 380/739/204 382/741/204 381/742/204
f 381/742/205 382/741/205 384/743/205 383/744/205
f 383/744/206 384/743/206 386/745/206 385/746/206
f 385/746/207 386/745/207 388/747/207 387/748/207
f 387/748/208 388/747/208 390/749/208 389/750/208
f 389/750/209 390/749/209 392/751/209 391/752/209
f 391/752/210 392/751/210 394/753/210 393/754/210
f 393/754/211 394/753/211 396/755/211 395/756/211
f 395/756/212 396/755/212 398/757/212 397/758/212
f 397/758/213 398/757/213 400/759/213 399/760/213
f 399/760/214 400/759/214 402/761/214 401/762/214
f 401/762/215 402/761/215 404/763/215 403/764/215
f 403/764/216 404/763/216 406/765/216 405/766/216
f 405/766/217 406/765/217 408/767/217 407/768/217
f 407/768/218 408/767/218 410/769/218 409/770/218
f 409/770/219 410/769/219 412/771/219 411/772/219
f 411/772/220 412/771/220 414/773/220 413/774/220
f 413/774/221 414/773/221 416/775/221 415/776/221
f 415/776/222 416/775/222 418/777/222 417/778/222
f 417/778/223 418/777/223 420/779/223 419/780/223
f 419/780/224 420/779/224 422/781/224 421/782/224
f 364/783/225 362/784/225 424/785/225 422/786/225 420/787/225 418/788/225 416/789/225 414/790/225 412/791/225 410/792/225 408/793/225 406/794/225 404/795/225 402/796/225 400/797/225 398/798/225 396/799/225 394/800/225 392/801/225 390/802/225 388/803/225 386/804/225 384/805/225 382/806/225 380/807/225 378/808/225 376/809/225 374/810/225 372/811/225 370/812/225 368/813/225 366/814/225
f 421/782/226 422/781/226 424/815/226 423/816/226
f 423/816/227 424/815/227 362/817/227 361/818/227
f 361/819/228 363/820/228 365/821/228 367/822/228 369/823/228 371/824/228 373/825/228 375/826/228 377/827/228 379/828/228 381/829/228 383/830/228 385/831/228 387/832/228 389/833/228 391/834/228 393/835/228 395/836/228 397/837/228 399/838/228 401/839/228 403/840/228 405/841/228 407/842/228 409/843/228 411/844/228 413/845/228 415/846/228 417/847/228 419/848/228 421/849/228 423/850/228
o FrontWheel2.003_Cylinder.006
v -1.276479 0.614003 0.773483
v -1.276479 0.614003 1.073483
v -1.227706 0.609200 0.773483
v -1.227706 0.609200 1.073483
v -1.180808 0.594973 0.773483
v -1.180808 0.594973 1.073483
v -1.137586 0.571871 0.773483
v -1.137586 0.571871 1.073483
v -1.099702 0.540780 0.773483
v -1.099702 0.540780 1.073483
v -1.068611 0.502896 0.773483
v -1.068611 0.502896 1.073483
v -1.045509 0.459674 0.773483
v -1.045509 0.459674 1.073483
v -1.031282 0.412776 0.773483
v -1.031282 0.412776 1.073483
v -1.026479 0.364003 0.773483
v -1.026479 0.364003 1.073483
v -1.031282 0.315231 0.773483
v -1.031282 0.315231 1.073483
v -1.045509 0.268332 0.773483
v -1.045509 0.268332 1.073483
v -1.068611 0.225111 0.773483
v -1.068611 0.225111 1.073483
v -1.099702 0.187226 0.773483
v -1.099702 0.187226 1.073483
v -1.137586 0.156136 0.773483
v -1.137586 0.156136 1.073483
v -1.180808 0.133033 0.773483
v -1.180808 0.133033 1.073483
v -1.227706 0.118807 0.773483
v -1.227706 0.118807 1.073483
v -1.276479 0.114003 0.773483
v -1.276479 0.114003 1.073483
v -1.325251 0.118807 0.773483
v -1.325251 0.118807 1.073483
v -1.372149 0.133033 0.773483
v -1.372149 0.133033 1.073483
v -1.415371 0.156136 0.773483
v -1.415371 0.156136 1.073483
v -1.453255 0.187227 0.773483
v -1.453255 0.187227 1.073483
v -1.484346 0.225111 0.773483
v -1.484346 0.225111 1.073483
v -1.507448 0.268333 0.773483
v -1.507448 0.268333 1.073483
v -1.521675 0.315231 0.773483
v -1.521675 0.315231 1.073483
v -1.526479 0.364003 0.773483
v -1.526479 0.364003 1.073483
v -1.521675 0.412776 0.773483
v -1.521675 0.412776 1.073483
v -1.507448 0.459674 0.773483
v -1.507448 0.459674 1.073483
v -1.484346 0.502896 0.773483
v -1.484346 0.502896 1.073483
v -1.453255 0.540780 0.773483
v -1.453255 0.540780 1.073483
v -1.415371 0.571871 0.773483
v -1.415371 0.571871 1.073483
v -1.372149 0.594973 0.773483
v -1.372149 0.594973 1.073483
v -1.325251 0.609200 0.773483
v -1.325251 0.609200 1.073483
vt 1.000000 0.500000
vt 1.000000 1.000000
vt 0.968750 1.000000
vt 0.968750 0.500000
vt 0.937500 1.000000
vt 0.937500 0.500000
vt 0.906250 1.000000
vt 0.906250 0.500000
vt 0.875000 1.000000
vt 0.875000 0.500000
vt 0.843750 1.000000
vt 0.843750 0.500000
vt 0.812500 1.000000
vt 0.812500 0.500000
vt 0.781250 1.000000
vt 0.781250 0.500000
vt 0.750000 1.000000
vt 0.750000 0.500000
vt 0.718750 1.000000
vt 0.718750 0.500000
vt 0.687500 1.000000
vt 0.687500 0.500000
vt 0.656250 1.000000
vt 0.656250 0.500000
vt 0.625000 1.000000
vt 0.625000 0.500000
vt 0.593750 1.000000
vt 0.593750 0.500000
vt 0.562500 1.000000
vt 0.562500 0.500000
vt 0.531250 1.000000
vt 0.531250 0.500000
vt 0.500000 1.000000
vt 0.500000 0.500000
vt 0.468750 1.000000
vt 0.468750 0.500000
vt 0.437500 1.000000
vt 0.437500 0.500000
vt 0.406250 1.000000
vt 0.406250 0.500000
vt 0.375000 1.000000
vt 0.375000 0.500000
vt 0.343750 1.000000
vt 0.343750 0.500000
vt 0.312500 1.000000
vt 0.312500 0.500000
vt 0.281250 1.000000
vt 0.281250 0.500000
vt 0.250000 1.000000
vt 0.250000 0.500000
vt 0.218750 1.000000
vt 0.218750 0.500000
vt 0.187500 1.000000
vt 0.187500 0.500000
vt 0.156250 1.000000
vt 0.156250 0.500000
vt 0.125000 1.000000
vt 0.125000 0.500000
vt 0.093750 1.000000
vt 0.093750 0.500000
vt 0.062500 1.000000
vt 0.062500 0.500000
vt 0.296822 0.485388
vt 0.250000 0.490000
vt 0.203179 0.485389
vt 0.158156 0.471731
vt 0.116663 0.449553
vt 0.080295 0.419706
vt 0.050447 0.383337
vt 0.028269 0.341844
vt 0.014612 0.296822
vt 0.010000 0.250000
vt 0.014611 0.203179
vt 0.028269 0.158156
vt 0.050447 0.116663
vt 0.080294 0.080294
vt 0.116663 0.050447
vt 0.158156 0.028269
vt 0.203178 0.014612
vt 0.250000 0.010000
vt 0.296822 0.014612
vt 0.341844 0.028269
vt 0.383337 0.050447
vt 0.419706 0.080294
vt 0.449553 0.116663
vt 0.471731 0.158156
vt 0.485388 0.203178
vt 0.490000 0.250000
vt 0.485388 0.296822
vt 0.471731 0.341844
vt 0.449553 0.383337
vt 0.419706 0.419706
vt 0.383337 0.449553
vt 0.341844 0.471731
vt 0.031250 1.000000
vt 0.031250 0.500000
vt 0.000000 1.000000
vt 0.000000 0.500000
vt 0.750000 0.490000
vt 0.796822 0.485388
vt 0.841844 0.471731
vt 0.883337 0.449553
vt 0.919706 0.419706
vt 0.949553 0.383337
vt 0.971731 0.341844
vt 0.985388 0.296822
vt 0.990000 0.250000
vt 0.985388 0.203178
vt 0.971731 0.158156
vt 0.949553 0.116663
vt 0.919706 0.080294
vt 0.883337 0.050447
vt 0.841844 0.028269
vt 0.796822 0.014612
vt 0.750000 0.010000
vt 0.703178 0.014612
vt 0.658156 0.028269
vt 0.616663 0.050447
vt 0.580294 0.080294
vt 0.550447 0.116663
vt 0.528269 0.158156
vt 0.514611 0.203179
vt 0.510000 0.250000
vt 0.514612 0.296822
vt 0.528269 0.341844
vt 0.550447 0.383337
vt 0.580295 0.419706
vt 0.616663 0.449553
vt 0.658156 0.471731
vt 0.703179 0.485389
vn 0.0980 0.9952 0.0000
vn 0.2903 0.9569 0.0000
vn 0.4714 0.8819 0.0000
vn 0.6344 0.7730 0.0000
vn 0.7730 0.6344 0.0000
vn 0.8819 0.4714 0.0000
vn 0.9569 0.2903 0.0000
vn 0.9952 0.0980 0.0000
vn 0.9952 -0.0980 -0.0000
vn 0.9569 -0.2903 0.0000
vn 0.8819 -0.4714 0.0000
vn 0.7730 -0.6344 0.0000
vn 0.6344 -0.7730 0.0000
vn 0.4714 -0.8819 0.0000
vn 0.2903 -0.9569 0.0000
vn 0.0980 -0.9952 0.0000
vn -0.0980 -0.9952 0.0000
vn -0.2903 -0.9569 0.0000
vn -0.4714 -0.8819 0.0000
vn -0.6344 -0.7730 0.0000
vn -0.7730 -0.6344 0.0000
vn -0.8819 -0.4714 0.0000
vn -0.9569 -0.2903 0.0000
vn -0.9952 -0.0980 0.0000
vn -0.9952 0.0980 0.0000
vn -0.9569 0.2903 0.0000
vn -0.8819 0.4714 0.0000
vn -0.7730 0.6344 0.0000
vn -0.6344 0.7730 0.0000
vn -0.4714 0.8819 0.0000
vn 0.0000 0.0000 1.0000
vn -0.2903 0.9569 0.0000
vn -0.0980 0.9952 0.0000
vn 0.0000 0.0000 -1.0000
usemtl None
s off
f 425/851/229 426/852/229 428/853/229 427/854/229
f 427/854/230 428/853/230 430/855/230 429/856/230
f 429/856/231 430/855/231 432/857/231 431/858/231
f 431/858/232 432/857/232 434/859/232 433/860/232
f 433/860/233 434/859/233 436/861/233 435/862/233
f 435/862/234 436/861/234 438/863/234 437/864/234
f 437/864/235 438/863/235 440/865/235 439/866/235
f 439/866/236 440/865/236 442/867/236 441/868/236
f 441/868/237 442/867/237 444/869/237 443/870/237
f 443/870/238 444/869/238 446/871/238 445/872/238
f 445/872/239 446/871/239 448/873/239 447/874/239
f 447/874/240 448/873/240 450/875/240 449/876/240
f 449/876/241 450/875/241 452/877/241 451/878/241
f 451/878/242 452/877/242 454/879/242 453/880/242
f 453/880/243 454/879/243 456/881/243 455/882/243
f 455/882/244 456/881/244 458/883/244 457/884/244
f 457/884/245 458/883/245 460/885/245 459/886/245
f 459/886/246 460/885/246 462/887/246 461/888/246
f 461/888/247 462/887/247 464/889/247 463/890/247
f 463/890/248 464/889/248 466/891/248 465/892/248
f 465/892/249 466/891/249 468/893/249 467/894/249
f 467/894/250 468/893/250 470/895/250 469/896/250
f 469/896/251 470/895/251 472/897/251 471/898/251
f 471/898/252 472/897/252 474/899/252 473/900/252
f 473/900/253 474/899/253 476/901/253 475/902/253
f 475/902/254 476/901/254 478/903/254 477/904/254
f 477/904/255 478/903/255 480/905/255 479/906/255
f 479/906/256 480/905/256 482/907/256 481/908/256
f 481/908/257 482/907/257 484/909/257 483/910/257
f 483/910/258 484/909/258 486/911/258 485/912/258
f 428/913/259 426/914/259 488/915/259 486/916/259 484/917/259 482/918/259 480/919/259 478/920/259 476/921/259 474/922/259 472/923/259 470/924/259 468/925/259 466/926/259 464/927/259 462/928/259 460/929/259 458/930/259 456/931/259 454/932/259 452/933/259 450/934/259 448/935/259 446/936/259 444/937/259 442/938/259 440/939/259 438/940/259 436/941/259 434/942/259 432/943/259 430/944/259
f 485/912/260 486/911/260 488/945/260 487/946/260
f 487/946/261 488/945/261 426/947/261 425/948/261
f 425/949/262 427/950/262 429/951/262 431/952/262 433/953/262 435/954/262 437/955/262 439/956/262 441/957/262 443/958/262 445/959/262 447/960/262 449/961/262 451/962/262 453/963/262 455/964/262 457/965/262 459/966/262 461/967/262 463/968/262 465/969/262 467/970/262 469/971/262 471/972/262 473/973/262 475/974/262 477/975/262 479/976/262 481/977/262 483/978/262 485/979/262 487/980/262
o FrontWheel2.004_Cylinder.007
v -1.276479 0.614003 -1.087784
v -1.276479 0.614003 -0.787784
v -1.227706 0.609200 -1.087784
v -1.227706 0.609200 -0.787784
v -1.180808 0.594973 -1.087784
v -1.180808 0.594973 -0.787784
v -1.137586 0.571871 -1.087784
v -1.137586 0.571871 -0.787784
v -1.099702 0.540780 -1.087784
v -1.099702 0.540780 -0.787784
v -1.068611 0.502896 -1.087784
v -1.068611 0.502896 -0.787784
v -1.045509 0.459674 -1.087784
v -1.045509 0.459674 -0.787784
v -1.031282 0.412776 -1.087784
v -1.031282 0.412776 -0.787784
v -1.026479 0.364003 -1.087784
v -1.026479 0.364003 -0.787784
v -1.031282 0.315231 -1.087784
v -1.031282 0.315231 -0.787784
v -1.045509 0.268332 -1.087784
v -1.045509 0.268332 -0.787784
v -1.068611 0.225111 -1.087784
v -1.068611 0.225111 -0.787784
v -1.099702 0.187226 -1.087784
v -1.099702 0.187226 -0.787784
v -1.137586 0.156136 -1.087784
v -1.137586 0.156136 -0.787784
v -1.180808 0.133033 -1.087784
v -1.180808 0.133033 -0.787784
v -1.227706 0.118807 -1.087784
v -1.227706 0.118807 -0.787784
v -1.276479 0.114003 -1.087784
v -1.276479 0.114003 -0.787784
v -1.325251 0.118807 -1.087784
v -1.325251 0.118807 -0.787784
v -1.372149 0.133033 -1.087784
v -1.372149 0.133033 -0.787784
v -1.415371 0.156136 -1.087784
v -1.415371 0.156136 -0.787784
v -1.453255 0.187227 -1.087784
v -1.453255 0.187227 -0.787784
v -1.484346 0.225111 -1.087784
v -1.484346 0.225111 -0.787784
v -1.507448 0.268333 -1.087784
v -1.507448 0.268333 -0.787784
v -1.521675 0.315231 -1.087784
v -1.521675 0.315231 -0.787784
v -1.526479 0.364003 -1.087784
v -1.526479 0.364003 -0.787784
v -1.521675 0.412776 -1.087784
v -1.521675 0.412776 -0.787784
v -1.507448 0.459674 -1.087784
v -1.507448 0.459674 -0.787784
v -1.484346 0.502896 -1.087784
v -1.484346 0.502896 -0.787784
v -1.453255 0.540780 -1.087784
v -1.453255 0.540780 -0.787784
v -1.415371 0.571871 -1.087784
v -1.415371 0.571871 -0.787784
v -1.372149 0.594973 -1.087784
v -1.372149 0.594973 -0.787784
v -1.325251 0.609200 -1.087784
v -1.325251 0.609200 -0.787784
vt 1.000000 0.500000
vt 1.000000 1.000000
vt 0.968750 1.000000
vt 0.968750 0.500000
vt 0.937500 1.000000
vt 0.937500 0.500000
vt 0.906250 1.000000
vt 0.906250 0.500000
vt 0.875000 1.000000
vt 0.875000 0.500000
vt 0.843750 1.000000
vt 0.843750 0.500000
vt 0.812500 1.000000
vt 0.812500 0.500000
vt 0.781250 1.000000
vt 0.781250 0.500000
vt 0.750000 1.000000
vt 0.750000 0.500000
vt 0.718750 1.000000
vt 0.718750 0.500000
vt 0.687500 1.000000
vt 0.687500 0.500000
vt 0.656250 1.000000
vt 0.656250 0.500000
vt 0.625000 1.000000
vt 0.625000 0.500000
vt 0.593750 1.000000
vt 0.593750 0.500000
vt 0.562500 1.000000
vt 0.562500 0.500000
vt 0.531250 1.000000
vt 0.531250 0.500000
vt 0.500000 1.000000
vt 0.500000 0.500000
vt 0.468750 1.000000
vt 0.468750 0.500000
vt 0.437500 1.000000
vt 0.437500 0.500000
vt 0.406250 1.000000
vt 0.406250 0.500000
vt 0.375000 1.000000
vt 0.375000 0.500000
vt 0.343750 1.000000
vt 0.343750 0.500000
vt 0.312500 1.000000
vt 0.312500 0.500000
vt 0.281250 1.000000
vt 0.281250 0.500000
vt 0.250000 1.000000
vt 0.250000 0.500000
vt 0.218750 1.000000
vt 0.218750 0.500000
vt 0.187500 1.000000
vt 0.187500 0.500000
vt 0.156250 1.000000
vt 0.156250 0.500000
vt 0.125000 1.000000
vt 0.125000 0.500000
vt 0.093750 1.000000
vt 0.093750 0.500000
vt 0.062500 1.000000
vt 0.062500 0.500000
vt 0.296822 0.485388
vt 0.250000 0.490000
vt 0.203179 0.485389
vt 0.158156 0.471731
vt 0.116663 0.449553
vt 0.080295 0.419706
vt 0.050447 0.383337
vt 0.028269 0.341844
vt 0.014612 0.296822
vt 0.010000 0.250000
vt 0.014611 0.203179
vt 0.028269 0.158156
vt 0.050447 0.116663
vt 0.080294 0.080294
vt 0.116663 0.050447
vt 0.158156 0.028269
vt 0.203178 0.014612
vt 0.250000 0.010000
vt 0.296822 0.014612
vt 0.341844 0.028269
vt 0.383337 0.050447
vt 0.419706 0.080294
vt 0.449553 0.116663
vt 0.471731 0.158156
vt 0.485388 0.203178
vt 0.490000 0.250000
vt 0.485388 0.296822
vt 0.471731 0.341844
vt 0.449553 0.383337
vt 0.419706 0.419706
vt 0.383337 0.449553
vt 0.341844 0.471731
vt 0.031250 1.000000
vt 0.031250 0.500000
vt 0.000000 1.000000
vt 0.000000 0.500000
vt 0.750000 0.490000
vt 0.796822 0.485388
vt 0.841844 0.471731
vt 0.883337 0.449553
vt 0.919706 0.419706
vt 0.949553 0.383337
vt 0.971731 0.341844
vt 0.985388 0.296822
vt 0.990000 0.250000
vt 0.985388 0.203178
vt 0.971731 0.158156
vt 0.949553 0.116663
vt 0.919706 0.080294
vt 0.883337 0.050447
vt 0.841844 0.028269
vt 0.796822 0.014612
vt 0.750000 0.010000
vt 0.703178 0.014612
vt 0.658156 0.028269
vt 0.616663 0.050447
vt 0.580294 0.080294
vt 0.550447 0.116663
vt 0.528269 0.158156
vt 0.514611 0.203179
vt 0.510000 0.250000
vt 0.514612 0.296822
vt 0.528269 0.341844
vt 0.550447 0.383337
vt 0.580295 0.419706
vt 0.616663 0.449553
vt 0.658156 0.471731
vt 0.703179 0.485389
vn 0.0980 0.9952 0.0000
vn 0.2903 0.9569 0.0000
vn 0.4714 0.8819 0.0000
vn 0.6344 0.7730 0.0000
vn 0.7730 0.6344 0.0000
vn 0.8819 0.4714 0.0000
vn 0.9569 0.2903 0.0000
vn 0.9952 0.0980 0.0000
vn 0.9952 -0.0980 -0.0000
vn 0.9569 -0.2903 0.0000
vn 0.8819 -0.4714 0.0000
vn 0.7730 -0.6344 0.0000
vn 0.6344 -0.7730 0.0000
vn 0.4714 -0.8819 0.0000
vn 0.2903 -0.9569 0.0000
vn 0.0980 -0.9952 0.0000
vn -0.0980 -0.9952 0.0000
vn -0.2903 -0.9569 0.0000
vn -0.4714 -0.8819 0.0000
vn -0.6344 -0.7730 0.0000
vn -0.7730 -0.6344 0.0000
vn -0.8819 -0.4714 0.0000
vn -0.9569 -0.2903 0.0000
vn -0.9952 -0.0980 0.0000
vn -0.9952 0.0980 0.0000
vn -0.9569 0.2903 0.0000
vn -0.8819 0.4714 0.0000
vn -0.7730 0.6344 0.0000
vn -0.6344 0.7730 0.0000
vn -0.4714 0.8819 0.0000
vn -0.0000 -0.0000 1.0000
vn -0.2903 0.9569 0.0000
vn -0.0980 0.9952 0.0000
vn 0.0000 0.0000 -1.0000
usemtl None
s off
f 489/981/263 490/982/263 492/983/263 491/984/263
f 491/984/264 492/983/264 494/985/264 493/986/264
f 493/986/265 494/985/265 496/987/265 495/988/265
f 495/988/266 496/987/266 498/989/266 497/990/266
f 497/990/267 498/989/267 500/991/267 499/992/267
f 499/992/268 500/991/268 502/993/268 501/994/268
f 501/994/269 502/993/269 504/995/269 503/996/269
f 503/996/270 504/995/270 506/997/270 505/998/270
f 505/998/271 506/997/271 508/999/271 507/1000/271
f 507/1000/272 508/999/272 510/1001/272 509/1002/272
f 509/1002/273 510/1001/273 512/1003/273 511/1004/273
f 511/1004/274 512/1003/274 514/1005/274 513/1006/274
f 513/1006/275 514/1005/275 516/1007/275 515/1008/275
f 515/1008/276 516/1007/276 518/1009/276 517/1010/276
f 517/1010/277 518/1009/277 520/1011/277 519/1012/277
f 519/1012/278 520/1011/278 522/1013/278 521/1014/278
f 521/1014/279 522/1013/279 524/1015/279 523/1016/279
f 523/1016/280 524/1015/280 526/1017/280 525/1018/280
f 525/1018/281 526/1017/281 528/1019/281 527/1020/281
f 527/1020/282 528/1019/282 530/1021/282 529/1022/282
f 529/1022/283 530/1021/283 532/1023/283 531/1024/283
f 531/1024/284 532/1023/284 534/1025/284 533/1026/284
f 533/1026/285 534/1025/285 536/1027/285 535/1028/285
f 535/1028/286 536/1027/286 538/1029/286 537/1030/286
f 537/1030/287 538/1029/287 540/1031/287 539/1032/287
f 539/1032/288 540/1031/288 542/1033/288 541/1034/288
f 541/1034/289 542/1033/289 544/1035/289 543/1036/289
f 543/1036/290 544/1035/290 546/1037/290 545/1038/290
f 545/1038/291 546/1037/291 548/1039/291 547/1040/291
f 547/1040/292 548/1039/292 550/1041/292 549/1042/292
f 492/1043/293 490/1044/293 552/1045/293 550/1046/293 548/1047/293 546/1048/293 544/1049/293 542/1050/293 540/1051/293 538/1052/293 536/1053/293 534/1054/293 532/1055/293 530/1056/293 528/1057/293 526/1058/293 524/1059/293 522/1060/293 520/1061/293 518/1062/293 516/1063/293 514/1064/293 512/1065/293 510/1066/293 508/1067/293 506/1068/293 504/1069/293 502/1070/293 500/1071/293 498/1072/293 496/1073/293 494/1074/293
f 549/1042/294 550/1041/294 552/1075/294 551/1076/294
f 551/1076/295 552/1075/295 490/1077/295 489/1078/295
f 489/1079/296 491/1080/296 493/1081/296 495/1082/296 497/1083/296 499/1084/296 501/1085/296 503/1086/296 505/1087/296 507/1088/296 509/1089/296 511/1090/296 513/1091/296 515/1092/296 517/1093/296 519/1094/296 521/1095/296 523/1096/296 525/1097/296 527/1098/296 529/1099/296 531/1100/296 533/1101/296 535/1102/296 537/1103/296 539/1104/296 541/1105/296 543/1106/296 545/1107/296 547/1108/296 549/1109/296 551/1110/296
